<svg xmlns="http://www.w3.org/2000/svg" width="80" height="80" viewBox="0 0 80 80">
  <g id="Group_21" data-name="Group 21" transform="translate(-1286 -396)">
    <circle id="Ellipse_3" data-name="Ellipse 3" cx="40" cy="40" r="40" transform="translate(1286 396)" fill="#ddd"/>
    <g id="Group_3" data-name="Group 3" transform="translate(837.418 212.305)">
      <path id="Path_24" data-name="Path 24" d="M469.762,243.973h10.7v-3.54a5.968,5.968,0,0,0-5.9-5.978,6.035,6.035,0,0,0-5.979,5.978v2.36A1.18,1.18,0,0,0,469.762,243.973Z" fill="#255c9d"/>
      <path id="Path_25" data-name="Path 25" d="M478.1,230.914a3.54,3.54,0,0,0-3.54-3.54,3.541,3.541,0,1,0,0,7.081A3.54,3.54,0,0,0,478.1,230.914Z" fill="#255c9d"/>
      <path id="Path_26" data-name="Path 26" d="M482.821,240.433v3.54H494.7v-3.54a6.035,6.035,0,0,0-5.979-5.978A5.967,5.967,0,0,0,482.821,240.433Z" fill="#255c9d"/>
      <path id="Path_27" data-name="Path 27" d="M492.34,230.914a3.608,3.608,0,0,0-3.619-3.54,3.541,3.541,0,0,0,0,7.081A3.609,3.609,0,0,0,492.34,230.914Z" fill="#255c9d"/>
      <path id="Path_28" data-name="Path 28" d="M502.96,234.455a5.967,5.967,0,0,0-5.9,5.978v3.54h10.62a1.18,1.18,0,0,0,1.18-1.18v-2.36A5.967,5.967,0,0,0,502.96,234.455Z" fill="#255c9d"/>
      <path id="Path_29" data-name="Path 29" d="M506.5,230.914a3.54,3.54,0,1,1-3.54-3.54A3.54,3.54,0,0,1,506.5,230.914Z" fill="#255c9d"/>
      <path id="Path_30" data-name="Path 30" d="M506.5,212.034a3.54,3.54,0,1,1-3.54-3.54A3.54,3.54,0,0,1,506.5,212.034Z" fill="#255c9d"/>
      <path id="Path_31" data-name="Path 31" d="M502.96,215.574a5.9,5.9,0,0,0-5.9,5.9v9.44a5.9,5.9,0,0,1,11.8,0v-9.44A5.9,5.9,0,0,0,502.96,215.574Z" fill="#255c9d"/>
      <path id="Path_32" data-name="Path 32" d="M469.762,222.654H494.7v-1.18a8.221,8.221,0,0,1,2.36-5.762V204.875a1.18,1.18,0,0,0-1.18-1.18H469.762a1.18,1.18,0,0,0-1.18,1.18v16.6A1.18,1.18,0,0,0,469.762,222.654Zm13.059-12.98a1.18,1.18,0,0,1,2.36,0v7.08a1.18,1.18,0,1,1-2.36,0Zm-4.72,2.36a1.18,1.18,0,0,1,2.36,0v4.72a1.18,1.18,0,1,1-2.36,0Zm-4.72,2.36a1.18,1.18,0,0,1,2.36,0v2.36a1.18,1.18,0,1,1-2.36,0Z" fill="#255c9d"/>
    </g>
  </g>
</svg>
