<svg xmlns="http://www.w3.org/2000/svg" width="80" height="80" viewBox="0 0 80 80">
  <g id="Group_23" data-name="Group 23" transform="translate(-733 -681)">
    <path id="Path_38" data-name="Path 38" d="M40,0A40,40,0,1,1,0,40,40,40,0,0,1,40,0Z" transform="translate(733 681)" fill="#ddd"/>
    <path id="Path_39" data-name="Path 39" d="M231.689,200.158l22.546,9.019v3.006h-3.006a1.4,1.4,0,0,1-.482,1.057,1.618,1.618,0,0,1-1.139.446H213.77a1.619,1.619,0,0,1-1.14-.446,1.394,1.394,0,0,1-.481-1.057h-3.006v-3.006Zm20.925,37.577a1.622,1.622,0,0,1,1.139.446,1.4,1.4,0,0,1,.482,1.057v3.006H209.143v-3.006a1.394,1.394,0,0,1,.481-1.057,1.622,1.622,0,0,1,1.139-.446Zm-37.459-22.546h6.013v18.037h3.006V215.189h6.012v18.037h3.006V215.189H239.2v18.037h3.006V215.189h6.012v18.037h1.386a1.622,1.622,0,0,1,1.139.446,1.4,1.4,0,0,1,.482,1.057v1.5h-39.08v-1.5a1.4,1.4,0,0,1,.481-1.057,1.623,1.623,0,0,1,1.14-.446h1.385Z" transform="translate(540.857 497.842)" fill="#255c9d"/>
  </g>
</svg>
