<svg xmlns="http://www.w3.org/2000/svg" width="80" height="80" viewBox="0 0 80 80">
  <g id="Group_22" data-name="Group 22" transform="translate(-180 -681)">
    <circle id="Ellipse_5" data-name="Ellipse 5" cx="40" cy="40" r="40" transform="translate(180 681)" fill="#ddd"/>
    <g id="Group_5" data-name="Group 5" transform="translate(-145.222 504.198)">
      <g id="Group_3" data-name="Group 3">
        <path id="Path_20" data-name="Path 20" d="M379.8,229.392l-10.37-19.424V200.1h1.026a.821.821,0,0,0,.822-.821v-1.66a.822.822,0,0,0-.822-.822H357.944a.821.821,0,0,0-.822.822v1.66a.82.82,0,0,0,.822.821h.939v9.864l-9.546,19.338c-2.44,3.825-.741,6.925,3.8,6.925h23C380.669,236.232,382.31,233.169,379.8,229.392Zm-17.97-17.969.339-.688V200.1h3.975v10.686l.387.725,4.444,8.323h-13.3Z" fill="#255c9d"/>
      </g>
    </g>
  </g>
</svg>
