<?xml version="1.0" encoding="utf-8"?>
<!-- Generator: Adobe Illustrator 23.0.1, SVG Export Plug-In . SVG Version: 6.00 Build 0)  -->
<svg version="1.1" id="Capa_1" xmlns="http://www.w3.org/2000/svg" xmlns:xlink="http://www.w3.org/1999/xlink" x="0px" y="0px"
	 viewBox="0 0 265.1 52.4" style="enable-background:new 0 0 265.1 52.4;" xml:space="preserve">
<style type="text/css">
	.st0{fill:url(#Rectangle_346_1_);}
	.st1{fill:url(#Path_33_1_);}
	.st2{fill:url(#Path_34_1_);}
	.st3{fill:none;}
	.st4{fill:#0E4369;}
</style>
<g id="Group_2" transform="translate(-293 -78)">
	<g id="Group_1" transform="translate(293 78)">
		
			<linearGradient id="Rectangle_346_1_" gradientUnits="userSpaceOnUse" x1="-625.2563" y1="-37.8007" x2="-625.2563" y2="-38.8005" gradientTransform="matrix(52.108 0 0 52.107 32606.9062 2021.7787)">
			<stop  offset="1.100000e-02" style="stop-color:#FFFFFF"/>
			<stop  offset="0.159" style="stop-color:#D0E0F2"/>
			<stop  offset="1" style="stop-color:#5482BD"/>
		</linearGradient>
		<rect id="Rectangle_346" class="st0" width="52.1" height="52.1"/>
		
			<linearGradient id="Path_33_1_" gradientUnits="userSpaceOnUse" x1="-625.2563" y1="-35.4133" x2="-625.2563" y2="-34.4136" gradientTransform="matrix(52.108 0 0 42.6124 32606.9043 1518.8474)">
			<stop  offset="0" style="stop-color:#003558"/>
			<stop  offset="0.412" style="stop-color:#184E76"/>
			<stop  offset="0.919" style="stop-color:#B3C5D4"/>
		</linearGradient>
		<path id="Path_33" class="st1" d="M52.1,42.2v10.2H0V22.1c6.8-4.2,15.2-14.7,24.5-11.8c8.3,2.5,7.3,8.7,7.3,8.7s-8.2-7.3-13.3,3.6
			c-1.6,3.4-0.3,6.8,2.7,9.9c3.1,3.2,8.1,6,13.7,7.8C40.4,42,46.3,42.7,52.1,42.2z"/>
		
			<linearGradient id="Path_34_1_" gradientUnits="userSpaceOnUse" x1="-625.2563" y1="-27.3139" x2="-625.2563" y2="-26.3149" gradientTransform="matrix(52.108 0 0 29.6784 32606.9043 833.3395)">
			<stop  offset="0" style="stop-color:#071942"/>
			<stop  offset="0.459" style="stop-color:#1C2F5D"/>
			<stop  offset="0.919" style="stop-color:#2E4173"/>
		</linearGradient>
		<path id="Path_34" class="st2" d="M52.1,48.8v3.6H0v-17c5.4,2.1,11.7,3,16.8-0.2c1.2-0.8,2.7-1.8,4.5-3
			c9.3-6.5,24.3-16.6,28.4-1.8c0,0.2-0.1,0.4-0.2,0.4c-0.1,0-0.2,0-0.3-0.1c-1.3-1.2-3-1.9-4.7-2c-3.5-0.2-8.4,2-9.4,9.3
			c-0.1,0.7-0.1,1.4,0,2C35.6,46.3,43.9,48.3,52.1,48.8z"/>
		<path id="Path_35" class="st3" d="M52.1,42.2v10.2H0V22.1c6.8-4.2,15.2-14.7,24.5-11.8c8.3,2.5,7.3,8.7,7.3,8.7s-8.2-7.3-13.3,3.6
			c-1.6,3.4-0.3,6.8,2.7,9.9C30.5,26,45.5,16,49.6,30.6c0,0.2-0.1,0.4-0.2,0.4c-0.1,0-0.2,0-0.3-0.1c-1.3-1.2-3-1.9-4.7-2
			c-3.5-0.2-8.4,1.9-9.4,9.2c-0.1,0.7-0.1,1.3,0,2C40.4,42,46.3,42.7,52.1,42.2z"/>
	</g>
	<g>
		<path class="st4" d="M361.2,103.8c0-1.4,0.3-2.8,0.8-4.2c0.5-1.4,1.3-2.6,2.3-3.7c1-1.1,2.2-2,3.6-2.6c1.4-0.7,3.1-1,4.9-1
			c2.2,0,4,0.5,5.6,1.4c1.6,0.9,2.7,2.1,3.5,3.6l-3.5,2.4c-0.3-0.6-0.7-1.2-1.1-1.6c-0.4-0.4-0.9-0.8-1.4-1.1
			c-0.5-0.3-1-0.4-1.6-0.6c-0.6-0.1-1.1-0.2-1.6-0.2c-1.1,0-2.1,0.2-3,0.7c-0.8,0.5-1.6,1-2.1,1.8c-0.6,0.7-1,1.5-1.3,2.5
			c-0.3,0.9-0.4,1.8-0.4,2.7c0,1,0.2,2,0.5,2.9c0.3,0.9,0.8,1.8,1.4,2.5c0.6,0.7,1.3,1.3,2.2,1.7c0.8,0.4,1.8,0.6,2.8,0.6
			c0.5,0,1.1-0.1,1.7-0.2c0.6-0.1,1.1-0.3,1.6-0.6c0.5-0.3,1-0.6,1.4-1.1c0.4-0.4,0.8-1,1.1-1.6l3.7,2.1c-0.4,0.9-0.9,1.6-1.6,2.3
			c-0.7,0.7-1.5,1.2-2.3,1.7c-0.9,0.5-1.8,0.8-2.8,1s-2,0.4-2.9,0.4c-1.7,0-3.2-0.3-4.6-1c-1.4-0.7-2.6-1.6-3.6-2.7
			c-1-1.1-1.8-2.4-2.3-3.8S361.2,105.3,361.2,103.8z"/>
		<path class="st4" d="M405,92.5v23h-4.5v-9.8h-10.6v9.8h-4.6v-23h4.6v9.3h10.6v-9.3H405z"/>
		<path class="st4" d="M429.1,115.5v-15.2l-6,11.3h-2.5l-6-11.3v15.2h-4.6v-23h4.9l6.9,13.1l7-13.1h4.9v23H429.1z"/>
		<path class="st4" d="M446.5,115.5v-23h4.6v19.1h12v3.9H446.5z"/>
		<path class="st4" d="M472.4,92.5h4l8.9,23h-4.7l-2.2-5.7h-8.2l-2.1,5.7h-4.7L472.4,92.5z M477.7,106.6l-3.2-9l-3.4,9H477.7z"/>
		<path class="st4" d="M485.7,103.8c0-1.4,0.3-2.8,0.8-4.2c0.5-1.4,1.3-2.6,2.3-3.7c1-1.1,2.2-2,3.6-2.6c1.4-0.7,3.1-1,4.9-1
			c2.2,0,4,0.5,5.6,1.4c1.6,0.9,2.7,2.1,3.5,3.6l-3.5,2.4c-0.3-0.6-0.7-1.2-1.1-1.6c-0.4-0.4-0.9-0.8-1.4-1.1s-1-0.4-1.6-0.6
			c-0.6-0.1-1.1-0.2-1.6-0.2c-1.1,0-2.1,0.2-3,0.7c-0.8,0.5-1.6,1-2.1,1.8c-0.6,0.7-1,1.5-1.3,2.5c-0.3,0.9-0.4,1.8-0.4,2.7
			c0,1,0.2,2,0.5,2.9c0.3,0.9,0.8,1.8,1.4,2.5c0.6,0.7,1.3,1.3,2.2,1.7c0.8,0.4,1.8,0.6,2.8,0.6c0.5,0,1.1-0.1,1.7-0.2
			c0.6-0.1,1.1-0.3,1.6-0.6c0.5-0.3,1-0.6,1.4-1.1c0.4-0.4,0.8-1,1.1-1.6l3.7,2.1c-0.4,0.9-0.9,1.6-1.6,2.3
			c-0.7,0.7-1.5,1.2-2.3,1.7c-0.9,0.5-1.8,0.8-2.8,1s-2,0.4-2.9,0.4c-1.7,0-3.2-0.3-4.6-1c-1.4-0.7-2.6-1.6-3.6-2.7
			c-1-1.1-1.8-2.4-2.3-3.8C486,106.8,485.7,105.3,485.7,103.8z"/>
	</g>
</g>
</svg>
