<?xml version="1.0" standalone="no"?>
<!DOCTYPE svg PUBLIC "-//W3C//DTD SVG 1.1//EN" "http://www.w3.org/Graphics/SVG/1.1/DTD/svg11.dtd" >
<svg xmlns="http://www.w3.org/2000/svg">
<metadata>Generated by IcoMoon</metadata>
<defs>
<font id="icomoon" horiz-adv-x="1024">
<font-face units-per-em="1024" ascent="960" descent="-64" />
<missing-glyph horiz-adv-x="1024" />
<glyph unicode="&#x20;" horiz-adv-x="512" d="" />
<glyph unicode="&#xe900;" glyph-name="documentos" d="M912.88 741.798c11.523-12.169 20.809-26.597 27.106-42.53l0.314-0.901c6.788-14.762 10.957-31.978 11.457-50.113l0.004-0.181v-658.254c0-0.072 0-0.158 0-0.243 0-30.167-24.457-54.623-54.623-54.623-0.086 0-0.171 0-0.257 0h-767.974c-0.087 0-0.19 0-0.293 0-30.14 0-54.574 24.434-54.574 54.574 0 0.103 0 0.205 0 0.308v-0.015 914.267c0 0.072 0 0.158 0 0.243 0 30.167 24.457 54.623 54.623 54.623 0.086 0 0.171 0 0.257 0h511.963c18.313-0.506 35.527-4.667 51.118-11.772l-0.825 0.336c16.828-6.63 31.254-15.912 43.496-27.481l-0.065 0.059zM878.598 8.093v585.139h-237.715c-0.080 0-0.175 0-0.268 0-30.14 0-54.574 24.434-54.574 54.574 0 0.095 0 0.188 0 0.283v-0.015 237.74h-438.861v-877.721zM293.457 501.796c-0.008 0.192-0.011 0.418-0.011 0.644 0 9.755 7.91 17.665 17.665 17.665 0.226 0 0.452-0.004 0.677-0.013l-0.032 0.002h402.266c0.192 0.008 0.418 0.011 0.644 0.011 9.755 0 17.665-7.91 17.665-17.665 0-0.226-0.004-0.452-0.013-0.677l0.002 0.032v-36.497c0.008-0.2 0.013-0.435 0.013-0.671 0-9.729-7.887-17.615-17.615-17.615-0.243 0-0.487 0.006-0.728 0.015l0.034-0.002h-402.266c-0.207-0.010-0.451-0.013-0.694-0.013-9.729 0-17.615 7.887-17.615 17.615 0 0.236 0.004 0.471 0.013 0.703l-0.002-0.034zM714.021 373.815c0.192 0.008 0.418 0.011 0.644 0.011 9.755 0 17.665-7.91 17.665-17.665 0-0.226-0.004-0.452-0.013-0.677l0.002 0.032v-36.497c0.008-0.192 0.011-0.418 0.011-0.644 0-9.755-7.91-17.665-17.665-17.665-0.226 0-0.452 0.004-0.677 0.013l0.032-0.002h-402.266c-0.192-0.008-0.418-0.011-0.644-0.011-9.755 0-17.665 7.91-17.665 17.665 0 0.226 0.004 0.452 0.013 0.677l-0.002-0.032v36.497c-0.008 0.192-0.011 0.418-0.011 0.644 0 9.755 7.91 17.665 17.665 17.665 0.226 0 0.452-0.004 0.677-0.013l-0.032 0.002zM714.021 227.511c0.207 0.010 0.451 0.013 0.694 0.013 9.729 0 17.615-7.887 17.615-17.615 0-0.236-0.004-0.471-0.013-0.703l0.002 0.034v-36.497c0.008-0.2 0.013-0.435 0.013-0.671 0-9.729-7.887-17.615-17.615-17.615-0.243 0-0.487 0.006-0.728 0.015l0.034-0.002h-402.266c-0.207-0.010-0.451-0.013-0.694-0.013-9.729 0-17.615 7.887-17.615 17.615 0 0.236 0.004 0.471 0.013 0.703l-0.002-0.034v36.497c-0.008 0.2-0.013 0.435-0.013 0.671 0 9.729 7.887 17.615 17.615 17.615 0.243 0 0.487-0.006 0.728-0.015l-0.034 0.002zM659.179 881.216v-214.844h214.844c-2.614 9.052-6.942 16.893-12.646 23.512l0.068-0.080-178.834 178.834c-6.539 5.638-14.378 9.966-22.993 12.47l-0.437 0.108z" />
<glyph unicode="&#xe901;" d="M33.535-67.532h272.029v89.998c0 0.077 0 0.171 0 0.264 0 83.188-66.949 150.74-149.906 151.715h-0.091c-83.619-0.796-151.195-68.363-152.005-151.902v-60.076c0-16.559 13.417-29.986 29.974-29.999h0.002z" />
<glyph unicode="&#xe902;" d="M245.513 264.47c0 49.704-40.294 89.998-89.998 89.998v0c-0.451 0.008-0.981 0.012-1.513 0.012-49.718 0-90.024-40.306-90.024-90.024s40.306-90.024 90.024-90.024c0.532 0 1.063 0.004 1.593 0.014l-0.079-0.002c49.704 0 89.998 40.294 89.998 89.998 0 0.010 0 0.018 0 0.028v-0.002z" />
<glyph unicode="&#xe903;" d="M365.536 22.467v-89.998h302.002v89.998c-0.81 83.617-68.387 151.183-151.93 151.979h-0.075c-83.047-0.961-149.997-68.508-149.997-151.691 0-0.101 0-0.203 0-0.306v0.016z" />
<glyph unicode="&#xe904;" d="M607.54 264.47c-0.971 49.911-41.658 89.998-91.71 89.998-0.103 0-0.209 0-0.312 0h0.016c-49.063-0.85-88.511-40.824-88.511-90.010s39.448-89.16 88.431-90.010l0.079-0.002c0.079 0 0.175 0 0.27 0 50.066 0 90.765 40.099 91.734 89.933l0.002 0.091z" />
<glyph unicode="&#xe905;" d="M877.534 174.446c-83.047-0.961-149.997-68.508-149.997-151.691 0-0.101 0-0.203 0-0.306v0.016-89.998h269.995c16.569 0 29.999 13.431 29.999 29.999v0 59.999c0 0.085 0 0.187 0 0.29 0 83.184-66.95 150.728-149.906 151.689h-0.091z" />
<glyph unicode="&#xe906;" d="M967.533 264.47c0-49.704-40.294-89.998-89.998-89.998s-89.998 40.294-89.998 89.998c0 49.704 40.294 89.998 89.998 89.998v0c49.704 0 89.998-40.294 89.998-89.998v0z" />
<glyph unicode="&#xe907;" d="M967.533 744.461c0-49.704-40.294-89.998-89.998-89.998s-89.998 40.294-89.998 89.998c0 49.704 40.294 89.998 89.998 89.998v0c49.704 0 89.998-40.294 89.998-89.998v0z" />
<glyph unicode="&#xe908;" d="M877.534 654.462c-82.842 0-149.997-67.155-149.997-149.997v-239.995c0 82.842 67.155 149.997 149.997 149.997s149.997-67.155 149.997-149.997v0 239.995c0 82.842-67.155 149.997-149.997 149.997v0z" />
<glyph unicode="&#xe909;" d="M33.535 474.466h634.004v29.999c0.020 57.081 22.921 108.809 60.027 146.517l-0.028-0.028v275.512c0 16.569-13.431 29.999-29.999 29.999h-664.003c-16.569 0-29.999-13.431-29.999-29.999v0-422.026c0.014-16.557 13.441-29.974 29.999-29.974 0 0 0 0 0 0v0zM365.536 804.46c0 16.569 13.431 29.999 29.999 29.999s29.999-13.431 29.999-29.999v0-179.996c0-16.569-13.431-29.999-29.999-29.999s-29.999 13.431-29.999 29.999v0zM245.539 744.461c0 16.569 13.431 29.999 29.999 29.999s29.999-13.431 29.999-29.999v0-119.998c0-16.569-13.431-29.999-29.999-29.999s-29.999 13.431-29.999 29.999v0zM125.541 684.462c0 16.569 13.431 29.999 29.999 29.999s29.999-13.431 29.999-29.999v0-59.999c0-16.569-13.431-29.999-29.999-29.999s-29.999 13.431-29.999 29.999v0z" />
<glyph unicode="&#xe90a;" glyph-name="experts" d="M939.546 111.578c0.038-1.408 0.058-3.067 0.058-4.733 0-45.493-15.711-87.316-42.005-120.339l0.302 0.393c-22.748-31.362-59.146-51.617-100.292-51.978h-569.399c-41.204 0.359-77.602 20.616-100.1 51.617l-0.251 0.361c-26.008 32.619-41.732 74.44-41.732 119.933 0 1.668 0.022 3.333 0.062 4.99l-0.004-0.246c-0.004 0.94-0.004 2.056-0.004 3.171 0 36.587 2.065 72.69 6.083 108.201l-0.399-4.351c4.424 38.015 11.803 72.351 22.096 105.402l-1.089-4.059c9.605 33.207 22.899 62.202 39.787 88.68l-0.812-1.362c16.168 24.449 37.183 44.402 61.803 58.882l0.878 0.477c24.742 14.444 54.469 22.972 86.187 22.972 1.226 0 2.451-0.013 3.673-0.038l-0.182 0.002c53.695-52.748 127.369-85.307 208.649-85.307s154.954 32.561 208.693 85.351l-0.044-0.042c1.016 0.022 2.213 0.033 3.413 0.033 31.739 0 61.481-8.538 87.059-23.442l-0.825 0.444c25.498-14.957 46.511-34.91 62.246-58.665l0.432-0.694c16.059-25.119 29.359-54.109 38.401-84.923l0.603-2.397c9.171-28.966 16.549-63.3 20.743-98.611l0.264-2.732c3.635-31.457 5.709-67.906 5.709-104.839 0-0.756 0-1.515-0.002-2.271v0.118zM693.88 883.949c46.323-46.323 74.972-110.315 74.972-181 0-141.37-114.602-255.972-255.972-255.972-70.685 0-134.677 28.651-181 74.972v0c-46.323 46.323-74.972 110.315-74.972 181 0 141.37 114.602 255.972 255.972 255.972 70.685 0 134.677-28.651 181-74.972v0z" />
<glyph unicode="&#xe90b;" glyph-name="geo" d="M255.965 890.355c73.746 43.193 162.393 68.697 256.995 68.697s183.249-25.506 259.436-70.015l-2.441 1.318c77.789-45.513 140.809-108.533 185.020-183.919l1.302-2.403c43.173-73.752 68.668-162.397 68.668-256.995s-25.494-183.245-69.986-259.44l1.318 2.445c-45.497-77.801-108.521-140.825-183.919-185.020l-2.403-1.302c-73.752-43.173-162.397-68.668-256.995-68.668s-183.245 25.494-259.44 69.986l2.445-1.318c-77.813 45.489-140.849 108.515-185.045 183.919l-1.302 2.403c-43.173 73.752-68.668 162.397-68.668 256.995s25.494 183.245 69.986 259.44l-1.318-2.445c45.513 77.795 108.544 140.817 183.945 185.020l2.403 1.302zM695.589 611.606c-2.363-1.891-4.44-3.974-6.262-6.268l-0.061-0.079c-2.215-2.98-5.302-5.199-8.883-6.292l-0.123-0.032c0.885 0 1.871 1.113 3.010 3.34s2.225 4.654 3.314 7.336c0.613 1.775 1.401 3.314 2.369 4.719l-0.041-0.065c4.122 4.14 8.982 7.541 14.365 9.993l0.306 0.124c9.991 3.577 21.706 6.381 33.818 7.907l0.836 0.085c3.32 1.247 7.156 1.97 11.161 1.97 8.895 0 16.957-3.561 22.838-9.335l-0.006 0.004c-0.911 0.885 1.213 3.769 6.324 8.675 2.822 3.035 6.004 5.678 9.491 7.877l0.196 0.115c2.937 1.383 6.341 2.429 9.916 2.96l0.202 0.024c4.008 0.33 7.519 2.213 9.976 5.041l0.016 0.018 1.34 14.671c-0.634-0.121-1.364-0.19-2.111-0.19-3.907 0-7.373 1.893-9.529 4.812l-0.024 0.032c-2.543 3.972-4.136 8.774-4.35 13.932l-0.002 0.057c0-0.885-1.34-2.529-3.996-5.338 0 3.11-0.986 4.881-2.984 5.338-0.737 0.121-1.587 0.19-2.454 0.19-1.838 0-3.603-0.31-5.247-0.881l0.113 0.034c-1.211-0.541-2.624-0.858-4.112-0.858-0.666 0-1.316 0.063-1.948 0.184l0.065-0.010c-3.891 1-7.282 2.749-10.165 5.097l0.047-0.038c-2.684 2.982-4.577 6.725-5.318 10.869l-0.020 0.134c-1.34 5.338-2.251 8.652-2.656 10.118-1.496 2.992-3.64 5.46-6.26 7.294l-0.063 0.041c-2.526 1.814-4.63 4.033-6.266 6.583l-0.057 0.095c-0.455 0.911-0.986 2.124-1.67 3.668s-1.34 3.010-1.998 4.352c-0.711 1.415-1.599 2.624-2.654 3.666l-0.002 0.002c-0.911 1.006-2.211 1.644-3.664 1.67h-0.004q-1.998 0-4.68-3.314c-1.796-2.251-3.44-4.452-5.059-6.677s-2.529-3.34-2.984-3.34c-0.897 0.664-2.026 1.063-3.247 1.063-0.265 0-0.524-0.018-0.779-0.055l0.030 0.004c-1.184-0.194-2.197-0.431-3.188-0.729l0.178 0.045c-1.158-0.528-2.152-1.198-3.018-2.004l0.006 0.006c-0.97-0.862-2.057-1.632-3.221-2.28l-0.093-0.047c-1.626-0.996-3.537-1.709-5.583-2.014l-0.083-0.010c-2.203-0.373-4.103-0.84-5.948-1.425l0.308 0.085c6.677 2.251 6.424 4.68-0.684 7.336-2.678 1.31-5.83 2.077-9.158 2.077-0.534 0-1.063-0.020-1.587-0.059l0.069 0.004c3.004 0.792 5.183 3.486 5.183 6.687 0 0.462-0.045 0.913-0.132 1.35l0.008-0.043c-0.783 3.79-2.802 7.013-5.612 9.312l-0.030 0.024h3.314c-0.431 1.771-2.328 3.668-5.64 5.64-3.263 1.947-7.098 3.848-11.084 5.46l-0.577 0.206c-3.359 1.209-6.221 2.557-8.932 4.134l0.257-0.138c-6.632 3.14-14.331 5.373-22.427 6.292l-0.338 0.032c-3.476 1.047-7.468 1.65-11.604 1.65-3.697 0-7.282-0.482-10.693-1.385l0.29 0.065c-1.814-1.79-2.954-4.261-3.010-6.996v-0.010c0.626-3.529 1.555-6.662 2.792-9.636l-0.111 0.302c1.087-2.423 1.911-5.235 2.332-8.177l0.020-0.17c0.010-0.172 0.016-0.372 0.016-0.575 0-3.223-1.433-6.112-3.695-8.065l-0.014-0.012c-2.3-2.002-3.877-4.78-4.318-7.924l-0.008-0.067c0-3.087 3.087-6.551 9.308-10.319 4.27-1.82 7.209-5.98 7.209-10.827 0-1.245-0.194-2.446-0.553-3.573l0.024 0.083c-2.362-4.636-6.039-8.314-10.539-10.612l-0.136-0.063c-4.085-2.245-7.596-4.901-10.673-7.992l-0.002-0.002c-1.237-2.051-1.97-4.529-1.97-7.177 0-1.86 0.362-3.636 1.018-5.261l-0.034 0.095c1.356-4.377 3.784-8.088 6.984-10.958l0.022-0.020c0.63-0.514 1.032-1.29 1.032-2.162 0-0.174-0.016-0.346-0.047-0.512l0.002 0.018c-0.476-1.239-1.281-2.263-2.308-2.996l-0.020-0.014c-1.075-0.877-2.273-1.713-3.533-2.456l-0.134-0.073c-1.113-0.684-2.529-1.466-4.352-2.352l-1.998-1.34c-1.328-0.619-2.881-0.978-4.519-0.978-3.822 0-7.185 1.962-9.138 4.934l-0.026 0.041c-4.152 4.814-7.272 10.642-8.94 17.054l-0.065 0.296q-4.68 16.643-10.675 19.983c-10.118 3.541-16.669 3.34-19.325-0.658q-3.314 8.652-27.344 17.327c-7.363 2.508-15.847 3.956-24.668 3.956-4.942 0-9.778-0.455-14.469-1.324l0.486 0.075c2.656 0.431 2.656 3.769 0 10.118-3.087 6.677-7.336 9.308-12.647 7.968 1.504 3.427 2.47 7.405 2.678 11.582l0.004 0.079c0.431 5.059 0.684 8.12 0.684 9.031 1.369 5.968 4.156 11.148 7.992 15.355l-0.024-0.028c0.455 0.431 1.998 2.328 4.68 5.64 2.158 2.646 4.245 5.595 6.126 8.679l0.198 0.35c1.543 2.529 1.67 3.972 0.304 3.972 2.719-0.67 5.844-1.055 9.055-1.055 9.211 0 17.683 3.16 24.392 8.454l-0.083-0.063c2.899 3.294 5.427 7.027 7.45 11.055l0.138 0.302c2.245 4.35 4.571 8.059 7.166 11.557l-0.158-0.223c2.529 2.109 5.757 3.46 9.29 3.666l0.043 0.002c3.642-0.721 6.881-1.994 9.8-3.745l-0.138 0.077c2.761-1.735 6.041-2.917 9.559-3.304l0.103-0.010c6.223-0.455 9.687 1.998 10.319 7.336 0.107 0.66 0.168 1.423 0.168 2.197 0 4.466-2.024 8.46-5.203 11.114l-0.024 0.018c5.338-0.455 6.019 3.314 1.998 11.331-1.198 2.496-3.014 4.533-5.255 5.96l-0.057 0.034c-1.658 0.462-3.563 0.727-5.529 0.727-4.697 0-9.041-1.516-12.568-4.083l0.061 0.041c-3.541-1.796-3.087-3.567 1.366-5.338-0.455 0.431-2.529-1.897-6.349-7.007-3.15-4.46-6.772-8.3-10.867-11.574l-0.111-0.085c-3.567-2.529-7.134-1.569-10.65 3.34-1.371 2.547-2.624 5.529-3.595 8.636l-0.099 0.368c-1.998 5.539-4.122 8.549-6.324 9.005-3.541 0-7.108-3.34-10.675-10.118q1.998 5.312-7.336 10.118c-4.628 2.569-10.023 4.442-15.746 5.304l-0.265 0.034q12.647 7.994-5.338 17.985c-3.988 1.978-8.667 3.188-13.618 3.312h-0.041c-0.988 0.192-2.124 0.3-3.286 0.3-3.606 0-6.966-1.055-9.786-2.873l0.071 0.043c-1.759-2.101-3.041-4.662-3.648-7.474l-0.020-0.115c-0.002-0.055-0.004-0.123-0.004-0.188 0-2.269 1.346-4.223 3.282-5.108l0.036-0.014c2.016-1.368 4.322-2.599 6.758-3.579l0.249-0.089c2.225-0.911 4.78-1.796 7.588-2.707 2.251-0.63 4.132-1.31 5.95-2.111l-0.285 0.113q9.333-6.652 5.312-9.333c-0.885-0.455-2.757-1.213-5.64-2.328s-5.438-2.099-7.588-3.010c-1.616-0.417-2.986-1.31-3.986-2.518l-0.010-0.012c-0.658-1.368-1.043-2.972-1.043-4.668s0.385-3.3 1.073-4.733l-0.028 0.065c1.316-4.452 0.885-7.588-1.34-9.333-2.763 3.245-4.846 7.158-5.974 11.458l-0.045 0.204c-1.124 4.168-2.717 7.82-4.761 11.163l0.105-0.186q4.654-5.97-16.669-3.972l-6.677 0.658c-3.966-0.245-7.626-0.721-11.205-1.427l0.53 0.087c-2.745-0.553-5.899-0.871-9.128-0.871-1.597 0-3.174 0.077-4.729 0.229l0.198-0.016c-3.755 0.36-6.978 2.362-8.978 5.27l-0.028 0.041c-0.856 1.966-1.352 4.259-1.352 6.666s0.498 4.699 1.395 6.776l-0.043-0.111c0.431 1.796 1.34 2.225 2.656 1.34-1.796 1.34-4.225 3.44-7.361 6.324-2.030 1.96-4.197 3.818-6.476 5.537l-0.176 0.128c-24.249-8.13-44.964-17.376-64.597-28.324l1.917 0.982c0.808-0.142 1.741-0.221 2.692-0.221 1.899 0 3.721 0.322 5.417 0.915l-0.115-0.036c3.44 1.478 6.282 2.935 9.017 4.551l-0.366-0.2c3.541 2.024 5.766 3.213 6.677 3.668q22.765 9.333 28.002 4.654l3.34 3.34c4.551-5.008 8.918-10.444 12.946-16.135l0.358-0.534c-3.348 1.071-7.199 1.69-11.195 1.69-3.118 0-6.148-0.375-9.047-1.085l0.261 0.053c-8.905-2.656-13.786-5.312-14.671-7.994 2.146-2.711 3.442-6.181 3.442-9.954 0-0.717-0.047-1.425-0.138-2.116l0.008 0.081c-1.771 1.34-4.326 3.541-7.588 6.677-2.854 2.707-6.027 5.132-9.44 7.197l-0.247 0.138c-2.881 1.662-6.258 2.832-9.855 3.298l-0.136 0.014c-0.725 0.018-1.581 0.028-2.439 0.028-4.31 0-8.563-0.249-12.742-0.733l0.51 0.047c-64.806-35.699-117.684-85.809-155.624-146.246l-1.028-1.753c2.087-2.431 4.79-4.276 7.869-5.302l0.124-0.036c1.771-0.455 2.858-2.529 3.314-5.996 0.223-2.703 0.816-5.203 1.731-7.541l-0.061 0.18c0.684-1.34 3.213-0.658 7.588 2.024 2.223-1.723 3.64-4.395 3.64-7.397 0-1.96-0.605-3.78-1.638-5.282l0.020 0.032c11.357-5.986 20.943-11.95 30.079-18.505l-0.763 0.52c5.191-4.211 9.776-8.798 13.853-13.815l0.136-0.172q1.998-7.361-6.677-12.015c-1.777 2.251-3.745 4.219-5.921 5.938l-0.075 0.057c-3.567 3.087-5.565 3.996-5.996 2.656-0.611-1.717-0.964-3.699-0.964-5.764 0-2.369 0.466-4.632 1.31-6.697l-0.043 0.119c1.569-5.996 3.895-8.778 7.007-8.322-3.11 0-5.261-3.541-6.324-10.675-1.065-6.731-1.674-14.493-1.674-22.398 0-0.441 0.002-0.881 0.006-1.32v0.067c0.040-1.057 0.061-2.3 0.061-3.549 0-4.284-0.261-8.509-0.769-12.657l0.049 0.498 1.34-0.658c-0.215-1.581-0.338-3.409-0.338-5.266 0-6.442 1.478-12.541 4.112-17.973l-0.107 0.245q5.666-14.999 14.317-13.001-8.652-1.998 13.381-28.658c1.49-2.32 3.251-4.304 5.27-5.986l0.041-0.034c1.34-0.885 3.996-2.529 7.994-5.059s7.336-4.654 10.118-6.677c2.609-1.947 4.814-4.257 6.589-6.881l0.063-0.099c2.743-4.322 5.021-9.312 6.573-14.608l0.105-0.417c1.654-6.211 4.917-11.513 9.314-15.614l0.020-0.018c-0.911-2.656 1.213-7.134 6.324-13.331 4.049-3.911 6.662-9.286 6.98-15.272l0.002-0.057c-0.63-0.075-1.192-0.32-1.65-0.688l0.006 0.006c-0.46-0.362-1.032-0.601-1.658-0.656h-0.012c2.407-4.104 5.942-7.322 10.179-9.276l0.14-0.059c4.249-1.948 7.747-4.903 10.292-8.569l0.053-0.083c0.545-1.865 1.014-4.126 1.316-6.44l0.026-0.237c0.296-2.715 1.004-5.197 2.059-7.484l-0.061 0.148c0.911-1.796 2.656-2.251 5.363-1.34-1.375 15.744-7.181 29.913-16.147 41.513l0.136-0.182q-10.118 16.643-11.357 19.325c-1.607 2.978-2.875 6.43-3.624 10.072l-0.043 0.247c-0.765 3.689-1.794 6.922-3.114 10.001l0.128-0.338c1.468-0.115 2.826-0.466 4.077-1.018l-0.079 0.032c1.771-0.684 3.668-1.443 5.64-2.328 1.964-0.846 3.626-1.735 5.203-2.743l-0.144 0.087c1.34-0.885 1.796-1.569 1.34-1.998-0.435-1.302-0.688-2.8-0.688-4.357 0-2.697 0.755-5.219 2.063-7.365l-0.036 0.063c2.215-4.717 4.885-8.782 8.047-12.406l-0.053 0.063q4.68-5.312 11.331-12.647c4.427-4.907 7.134-7.766 7.994-8.675 3.482-3.798 6.575-8.053 9.156-12.634l0.178-0.342q5.312-9.031 0-9.031c5.344-0.603 9.993-3.172 13.284-6.956l0.022-0.026c4.197-3.873 7.932-8.13 11.189-12.75l0.168-0.251c2.68-5.029 4.567-10.897 5.314-17.114l0.024-0.239c0.875-6.195 2.033-11.602 3.527-16.867l-0.213 0.881c1.136-3.567 3.093-6.6 5.654-8.993l0.012-0.012c2.381-2.484 5.124-4.597 8.148-6.26l0.176-0.089 10.675-5.312c4.452-2.251 7.361-3.794 8.652-4.68 4.79-2.273 8.835-4.597 12.681-7.195l-0.338 0.215c4.114-2.755 8.829-5.298 13.786-7.381l0.557-0.207c3.132-1.401 6.77-2.31 10.594-2.526l0.081-0.004c3.486 0.107 6.794 0.7 9.912 1.715l-0.251-0.071c3.769 1.113 6.778 1.897 9.005 2.328 0.294 0.014 0.638 0.022 0.984 0.022 7.699 0 14.462-4.010 18.315-10.053l0.051-0.087c3.98-5.391 8.598-10.007 13.811-13.863l0.176-0.124c7.349-5.306 16.54-8.488 26.475-8.488 3.608 0 7.12 0.419 10.487 1.213l-0.308-0.061q-1.316-0.684 0.328-5.059c1.658-3.99 3.446-7.383 5.498-10.59l-0.162 0.269c2.529-3.972 4.427-7.209 5.996-9.663s2.782-4.352 3.668-5.666c3.529-3.751 7.47-7.047 11.768-9.841l0.247-0.15c4.535-2.998 8.476-6.334 11.981-10.080l0.034-0.038c2.271 1.292 3.946 3.405 4.638 5.926l0.016 0.069c-1.316-3.541 0.227-7.994 4.68-13.305s8.422-7.588 11.989-6.677c6.223 1.316 9.333 8.422 9.333 21.323-3.274-1.976-7.229-3.146-11.458-3.146-9.786 0-18.11 6.264-21.177 15.003l-0.047 0.158c-0.401 1.395-0.962 2.612-1.678 3.723l0.034-0.055c-0.933 1.593-1.826 3.458-2.567 5.401l-0.089 0.265c-0.611 1.555-1.186 3.45-1.62 5.399l-0.049 0.267c-0.223 0.759-0.354 1.628-0.354 2.529s0.128 1.771 0.37 2.595l-0.016-0.065c0.453 1.194 1.587 2.028 2.917 2.028 0.148 0 0.296-0.010 0.439-0.032l-0.016 0.002c3.972 0 6.223 0.759 6.652 2.328 0.047 0.474 0.073 1.024 0.073 1.579 0 2.448-0.52 4.774-1.456 6.875l0.043-0.107c-1.34 3.972-2.225 6.881-2.656 8.652-1.296 5.225-3.857 9.731-7.343 13.339l0.008-0.008c-4.427 5.312-7.134 8.652-7.994 10.118-1.719-3.276-5.098-5.474-8.99-5.474-0.587 0-1.16 0.049-1.719 0.146l0.059-0.008c-4.472 0.124-8.371 2.47-10.644 5.97l-0.032 0.051c-0.229-1.387-0.573-2.62-1.030-3.796l0.043 0.128c-0.51-1.275-0.87-2.751-1.008-4.29l-0.004-0.061c-0.785-0.057-1.698-0.091-2.62-0.091-2.654 0-5.245 0.273-7.745 0.79l0.245-0.043c0.745 3.31 1.336 7.298 1.65 11.361l0.018 0.298c0.498 5.652 1.32 10.768 2.474 15.758l-0.148-0.759c0.986 3.051 2.229 5.697 3.757 8.146l-0.089-0.154c2.024 3.541 3.668 6.778 5.059 9.687 1.172 2.411 2.093 5.211 2.626 8.146l0.030 0.202c0.067 0.334 0.105 0.717 0.105 1.111 0 2.235-1.235 4.184-3.059 5.199l-0.030 0.016c-2.478 1.202-5.389 1.905-8.464 1.905-1.128 0-2.237-0.095-3.314-0.277l0.117 0.016c-8.217-0.14-15.11-5.656-17.319-13.175l-0.034-0.13c-0.455-1.34-1.113-3.693-2.024-7.007-0.672-2.883-1.818-5.423-3.363-7.664l0.049 0.075c-1.607-1.978-3.618-3.563-5.919-4.636l-0.103-0.043c-3.786-0.911-8.134-1.433-12.604-1.433-6.962 0-13.63 1.267-19.781 3.585l0.387-0.128c-6.725 4.802-11.904 11.375-14.9 19.038l-0.099 0.287c-3.644 7.185-5.936 15.614-6.32 24.536l-0.004 0.126c0.136 6.359 0.729 12.474 1.747 18.44l-0.103-0.733c1.138 7.336 1.796 12.875 2.024 16.669-0.174 5.946-1.506 11.539-3.778 16.618l0.111-0.277c2.265 1.854 4.239 3.931 5.928 6.229l0.065 0.095c1.98 2.634 4.176 4.932 6.61 6.952l0.067 0.053c0.868 0.425 1.875 0.765 2.931 0.974l0.079 0.014c0.453 0.109 0.972 0.17 1.506 0.17s1.053-0.061 1.551-0.18l-0.045 0.010c0.128-0.022 0.275-0.034 0.425-0.034 0.852 0 1.609 0.397 2.101 1.016l0.004 0.006c0.984 1.089 1.696 2.443 2.014 3.94l0.010 0.055c-0.788 0.684-1.654 1.348-2.559 1.96l-0.097 0.063c-1.34 1.34-2.251 1.998-2.656 1.998 2.282-0.488 4.905-0.767 7.592-0.767 4.073 0 7.996 0.642 11.671 1.83l-0.269-0.075q14.343 3.010 18.339-0.986c6.677-4.881 11.561-4.452 14.671 1.34-0.522 2.543-1.099 4.664-1.788 6.733l0.119-0.409c-0.577 1.482-0.911 3.197-0.911 4.992 0 1.431 0.213 2.812 0.607 4.114l-0.026-0.101c2.251-12.015 8.652-13.987 19.325-6.019 2.941-1.887 6.482-3.091 10.288-3.31l0.057-0.002c4.322-0.476 8.266-1.648 11.873-3.407l-0.211 0.093c1.759-1.237 3.284-2.441 4.741-3.721l-0.061 0.053c1.109-1.028 2.304-2.014 3.555-2.931l0.113-0.079c0.658-0.455 1.796-0.328 3.314 0.304 2.197 1.156 4.071 2.611 5.652 4.336l0.014 0.016c3.575-4.517 6.328-9.871 7.92-15.701l0.073-0.312q7.336-26.66 12.647-29.316c1.658-0.911 3.634-1.447 5.735-1.447 0.565 0 1.119 0.040 1.664 0.113l-0.063-0.008c1.796 0.455 2.782 2.529 3.010 6.324 0.111 1.397 0.174 3.025 0.174 4.668s-0.063 3.271-0.186 4.881l0.014-0.213c-0.227 2.529-0.557 5.211-0.986 8.347l-0.684 5.338v11.989l-0.658 5.338c-5.349 0.379-9.899 3.48-12.304 7.913l-0.040 0.079c-0.603 1.518-0.953 3.274-0.953 5.114 0 2.658 0.731 5.144 2.002 7.27l-0.036-0.065c2.705 4.81 6.081 8.893 10.057 12.292l0.061 0.051c1.535 0.954 3.308 1.749 5.187 2.29l0.15 0.038c3.087 1.113 6.551 2.529 10.319 4.352 3.203 1.377 5.954 3.174 8.345 5.357l-0.022-0.020q14.013 12.647 10.118 23.323c3.087 0 5.539 1.998 7.336 5.996-1.292 0.474-2.403 1.162-3.346 2.030l0.008-0.006c-1.452 1.099-3.105 2.194-4.822 3.188l-0.237 0.126c-0.852 0.601-1.85 1.063-2.925 1.328l-0.061 0.012c3.996 2.225 4.427 5.792 1.316 10.675 2.506 1.707 4.322 4.267 5.041 7.253l0.018 0.083c0.613 2.931 2.482 5.332 5.006 6.652l0.053 0.026c1.484-2.638 4.265-4.389 7.454-4.389 2.616 0 4.96 1.18 6.523 3.035l0.010 0.014c1.733 1.285 2.844 3.324 2.844 5.624 0 1.986-0.828 3.776-2.158 5.049l-0.002 0.002c3.486 3.753 8.225 6.3 13.549 6.97l0.111 0.012c6.905 1.569 11.003 3.668 12.343 6.349 3.087-0.911 4.881-0.455 5.312 1.34 0.445 2.079 0.7 4.466 0.7 6.913 0 0.372-0.006 0.741-0.018 1.109l0.002-0.053c-0.020 0.271-0.032 0.587-0.032 0.905 0 2.63 0.765 5.081 2.087 7.142l-0.032-0.053c2.674 2.763 6.033 4.846 9.806 5.978l0.162 0.041q7.361 2.529 8.675 3.314l11.331 7.336c1.34 1.796 1.34 2.656 0 2.656 0.939-0.128 2.022-0.202 3.122-0.202 6.901 0 13.128 2.891 17.532 7.527l0.010 0.010c4.452 4.881 3.087 9.333-3.972 13.331 0.423 0.656 0.672 1.456 0.672 2.316 0 1.802-1.101 3.346-2.668 3.996l-0.030 0.010c-2.921 1.648-6.31 2.921-9.901 3.632l-0.217 0.036c1.449 0.312 3.11 0.49 4.816 0.49 0.976 0 1.941-0.059 2.887-0.172l-0.115 0.012q5.666-0.328 6.982 1.012 10.118 6.652-4.654 10.65c-1.29 0.164-2.786 0.257-4.302 0.257-9.31 0-17.799-3.516-24.214-9.29l0.034 0.030zM586.821 26.942c93.121 15.975 173.659 61.212 233.748 125.745l0.229 0.249c-2.314 1.703-5.174 2.794-8.278 2.982l-0.043 0.002c-3.087 0.3-5.917 1.126-8.492 2.391l0.144-0.063c-4.436 1.96-9.762 3.788-15.26 5.181l-0.725 0.156c0.097 0.599 0.152 1.288 0.152 1.992 0 2.456-0.678 4.755-1.856 6.717l0.034-0.059c-1.324 2.431-3.12 4.448-5.284 5.984l-0.053 0.036c-2.024 1.34-4.78 3.087-8.322 5.338s-6.019 3.769-7.361 4.654c-1.429 1.366-2.954 2.676-4.547 3.899l-0.132 0.097c-2.225 1.796-3.769 3.010-4.654 3.693-1.403 0.953-3.057 1.943-4.766 2.844l-0.292 0.14c-1.249 0.895-2.806 1.431-4.49 1.431-0.415 0-0.822-0.032-1.219-0.095l0.043 0.006c-1.672-0.435-3.591-0.684-5.569-0.684-0.381 0-0.759 0.010-1.136 0.028l0.053-0.002-2.024-0.684c-1.403-0.462-2.616-1.028-3.749-1.715l0.081 0.045c-1.113-0.658-2.328-1.316-3.668-1.998-1.067-0.458-1.96-1.148-2.646-2.010l-0.010-0.014c-0.455-0.658-0.455-1.213 0-1.644-6.822 5.996-14.758 10.934-23.425 14.448l-0.553 0.198c-2.836 0.705-5.308 1.986-7.391 3.717l0.030-0.024c-2.020 1.549-4.308 3.087-6.689 4.482l-0.316 0.172c-1.352 0.747-2.964 1.188-4.68 1.188-0.7 0-1.381-0.073-2.037-0.211l0.063 0.012c-3.041-0.808-5.624-2.448-7.575-4.664l-0.014-0.016c-2.36-2.648-3.844-6.122-3.97-9.94v-0.026c-0.235-3.211-0.711-6.174-1.417-9.045l0.077 0.37q-4.68 3.314 0 11.661c3.087 5.565 3.516 9.687 1.34 12.343-0.954 1.962-2.935 3.29-5.225 3.29-0.636 0-1.249-0.103-1.824-0.292l0.041 0.012c-3.012-0.547-5.695-1.599-8.094-3.069l0.103 0.057c-1.998-1.34-4.553-3.237-7.588-5.666-1.769-1.494-3.725-2.929-5.778-4.223l-0.215-0.126c-2.192-1.239-4.041-2.452-5.81-3.771l0.144 0.103c-2.203-1.391-4.075-3.071-5.632-5.015l-0.034-0.043c-1.591-2.3-2.935-4.944-3.903-7.764l-0.069-0.229c-0.954-2.816-2.083-5.241-3.439-7.515l0.099 0.18q-1.316 2.529-7.588 4.352c-4.225 1.087-6.324 2.328-6.324 3.668q1.316-6.677 2.656-23.323c0.591-9.377 1.771-18.044 3.523-26.5l-0.209 1.205c1.002-2.901 1.579-6.243 1.579-9.721 0-8.764-3.672-16.669-9.559-22.265l-0.014-0.012c-8.879-6.644-15.594-15.736-19.187-26.275l-0.115-0.385c-1.796-9.79 0.86-15.582 7.968-17.353-0.711-5.185-2.605-9.825-5.403-13.782l0.065 0.097c-2.895-3.968-4.638-8.936-4.654-14.313v-0.004c0.097-3.772 0.551-7.383 1.334-10.869l-0.069 0.372z" />
<glyph unicode="&#xe90c;" glyph-name="instituciones" d="M501.69 970.309l511.999-204.813v-68.264h-68.264c0-9.564-4.224-18.142-10.907-23.97l-0.037-0.032c-6.579-6.272-15.506-10.132-25.337-10.132-0.186 0-0.373 0.002-0.557 0.004h-813.819c-0.161-0.002-0.351-0.004-0.543-0.004-9.832 0-18.763 3.859-25.36 10.146l0.014-0.014c-6.708 5.837-10.923 14.387-10.923 23.923 0 0.028 0 0.057 0 0.085v-0.005h-68.264v68.264zM976.878 116.969c0.147 0.002 0.319 0.004 0.493 0.004 9.841 0 18.779-3.859 25.386-10.146l-0.016 0.014c6.722-5.86 10.946-14.438 10.946-24.004v0-68.264h-1023.998v68.264c0 0.025 0 0.053 0 0.082 0 9.534 4.215 18.086 10.884 23.889l0.039 0.032c6.593 6.273 15.531 10.132 25.372 10.132 0.174 0 0.348-0.002 0.52-0.004h-0.027zM126.219 628.968h136.549v-409.604h68.264v409.604h136.528v-409.604h68.264v409.604h136.435v-409.604h68.264v409.604h136.528v-409.604h31.475c0.147 0.002 0.319 0.004 0.493 0.004 9.841 0 18.779-3.859 25.386-10.146l-0.016 0.014c6.722-5.86 10.946-14.438 10.946-24.004v0-34.064h-887.471v34.064c0 0.005 0 0.012 0 0.020 0 9.554 4.214 18.125 10.886 23.953l0.037 0.032c6.595 6.273 15.538 10.132 25.381 10.132 0.179 0 0.357-0.002 0.534-0.004h31.425z" />
<glyph unicode="&#xe90d;" glyph-name="laboratorios" d="M890.591 121.037l-269.31 504.442v256.272h26.646c0.008 0 0.016 0 0.026 0 11.776 0 21.322 9.546 21.322 21.322v0 43.11c0 11.79-9.558 21.348-21.348 21.348v0h-324.938c-0.008 0-0.016 0-0.026 0-11.776 0-21.322-9.546-21.322-21.322 0-0.010 0-0.018 0-0.028v0.002-43.11c0-0.008 0-0.016 0-0.026 0-11.762 9.534-21.295 21.295-21.295 0.018 0 0.037 0 0.055 0h24.383v-256.168l-247.911-502.209c-63.367-99.336-19.244-179.843 98.686-179.843h597.312c117.697-0.13 160.312 79.416 95.128 177.505zM423.909 587.693l8.803 17.867v276.192h103.231v-277.517l125.462-234.976h-345.402z" />
<glyph unicode="&#xe90e;" glyph-name="home" d="M1024 369.556l-512 397.426-512-397.428v162.038l512 397.426 512-397.428zM896 384v-384h-256v256h-256v-256h-256v384l384 288z" />
<glyph unicode="&#xe90f;" glyph-name="office" d="M0-64h512v1024h-512v-1024zM320 832h128v-128h-128v128zM320 576h128v-128h-128v128zM320 320h128v-128h-128v128zM64 832h128v-128h-128v128zM64 576h128v-128h-128v128zM64 320h128v-128h-128v128zM576 640h448v-64h-448zM576-64h128v256h192v-256h128v576h-448z" />
<glyph unicode="&#xe910;" glyph-name="newspaper" d="M896 704v128h-896v-704c0-35.346 28.654-64 64-64h864c53.022 0 96 42.978 96 96v544h-128zM832 128h-768v640h768v-640zM128 640h640v-64h-640zM512 512h256v-64h-256zM512 384h256v-64h-256zM512 256h192v-64h-192zM128 512h320v-320h-320z" />
<glyph unicode="&#xe911;" glyph-name="pencil" d="M864 960c88.364 0 160-71.634 160-160 0-36.020-11.91-69.258-32-96l-64-64-224 224 64 64c26.742 20.090 59.978 32 96 32zM64 224l-64-288 288 64 592 592-224 224-592-592zM715.578 596.422l-448-448-55.156 55.156 448 448 55.156-55.156z" />
<glyph unicode="&#xe912;" glyph-name="image" d="M959.884 832c0.040-0.034 0.082-0.076 0.116-0.116v-767.77c-0.034-0.040-0.076-0.082-0.116-0.116h-895.77c-0.040 0.034-0.082 0.076-0.114 0.116v767.772c0.034 0.040 0.076 0.082 0.114 0.114h895.77zM960 896h-896c-35.2 0-64-28.8-64-64v-768c0-35.2 28.8-64 64-64h896c35.2 0 64 28.8 64 64v768c0 35.2-28.8 64-64 64v0zM832 672c0-53.020-42.98-96-96-96s-96 42.98-96 96 42.98 96 96 96 96-42.98 96-96zM896 128h-768v128l224 384 256-320h64l224 192z" />
<glyph unicode="&#xe913;" glyph-name="camera" d="M304 352c0-114.876 93.124-208 208-208s208 93.124 208 208-93.124 208-208 208-208-93.124-208-208zM960 704h-224c-16 64-32 128-96 128h-256c-64 0-80-64-96-128h-224c-35.2 0-64-28.8-64-64v-576c0-35.2 28.8-64 64-64h896c35.2 0 64 28.8 64 64v576c0 35.2-28.8 64-64 64zM512 68c-156.85 0-284 127.148-284 284 0 156.85 127.15 284 284 284 156.852 0 284-127.15 284-284 0-156.852-127.146-284-284-284zM960 512h-128v64h128v-64z" />
<glyph unicode="&#xe914;" glyph-name="boat" d="M96 345.6c70.4-44.8 160-121.6 160-211.2 0-25.6 0-44.8 0-70.4h6.4c0 0 57.6 0 128 64 64-64 128-64 128-64s64 0 128 64c64-64 121.6-64 121.6-64h6.4c0 19.2 0 44.8 0 70.4 0 89.6 89.6 166.4 160 211.2 38.4 25.6 32 76.8-12.8 89.6l-89.6 25.6v243.2h-64v64h-192v128h-128v-128h-192v-64h-64v-243.2l-83.2-25.6c-51.2-12.8-51.2-64-12.8-89.6zM256 640h64v64h384v-64h64v-160l-211.2 64c-32 6.4-64 6.4-96 0l-204.8-64c0 0 0 160 0 160zM896 64c-64-64-128-64-128-64s-64 0-128 64c-64-64-128-64-128-64s-64 0-128 64c-64-64-128-64-128-64s-64 0-128 64c-64-64-128-64-128-64v-64h1024v64c0 0-64 0-128 64z" />
<glyph unicode="&#xe915;" glyph-name="entren" d="M152.135 178.209h-5.603c-49.993 1.293-88.781 43.098-87.488 92.66 1.724 48.7 41.374 87.057 90.074 87.057h3.017c49.562 0 89.643-40.081 89.643-89.643 0-49.993-40.081-90.074-89.643-90.074zM302.114 26.074v-90.074h-271.946c-16.808 0.431-30.168 13.791-30.168 30.168v59.906c0.862 83.609 68.525 151.273 152.135 152.135 83.178-0.862 149.98-68.956 149.98-152.135zM663.704 26.074v-90.074h-301.684v90.074c-0.431 83.178 66.37 150.842 149.549 152.135-49.562 0-89.643 40.081-89.643 89.643 0 49.993 40.081 90.074 89.643 90.074 50.424 0.431 91.367-39.65 92.229-89.643-0.862-49.993-41.374-90.074-91.367-90.074 83.609-1.293 150.842-68.525 151.273-152.135zM699.906 960h-675.771c-13.791-3.017-24.135-15.084-24.135-29.737v-421.926c0-0.431 0-0.431 0-0.862 0-16.377 13.791-29.306 29.737-29.306h633.966v30.168c0 54.734 21.549 107.313 60.337 146.532v275.394c0 14.653-10.343 26.721-24.135 29.737zM181.872 688.054v-59.906c1.724-16.808-10.343-31.461-26.721-33.616-16.808-1.724-31.461 10.343-33.185 27.152-0.431 2.155-0.431 4.31 0 6.465v59.906c-1.724 16.377 9.912 31.461 26.721 33.185 16.377 1.724 31.461-10.343 33.185-26.721 0.431-2.155 0.431-4.31 0-6.465zM301.684 747.96v-119.811c2.155-16.808-9.912-31.461-26.721-33.616-16.377-1.724-31.461 10.343-33.185 27.152v126.276c-1.724 16.808 10.343 31.461 26.721 33.185 16.808 1.724 31.461-9.912 33.185-26.721 0.431-2.155 0.431-4.31 0-6.465zM421.926 628.148c1.724-16.808-10.343-31.461-26.721-33.616-16.808-1.724-31.461 10.343-33.185 27.152-0.431 2.155-0.431 4.31 0 6.465v179.717c-2.155 16.808 9.912 31.461 26.721 33.185 16.377 2.155 31.461-9.912 33.185-26.721v-186.182zM874.020 178.209c-49.562 0-90.074 40.081-90.074 90.074 0 49.562 40.512 89.643 90.074 89.643s90.074-40.081 90.074-89.643c0-49.993-40.512-90.074-90.074-90.074zM874.020 657.886c-49.562 0-90.074 40.512-90.074 90.074 0 49.993 40.512 90.074 90.074 90.074s90.074-40.081 90.074-90.074c0-49.562-40.512-90.074-90.074-90.074zM1024 507.906v-239.192c-0.431 82.747-67.663 149.549-150.411 149.549-82.316 0-149.549-66.801-149.549-149.118v238.761c0 83.178 66.801 149.98 149.98 149.98 82.747 0 149.98-66.801 149.98-149.98zM1024 26.505v-60.337c0-16.377-13.36-30.168-30.168-30.168h-269.791v90.074c-0.431 83.178 66.801 151.273 149.98 152.135 83.178-0.862 149.98-68.525 149.98-151.704z" />
<glyph unicode="&#xe91b;" glyph-name="connection" horiz-adv-x="1280" d="M640 384c105.87 0 201.87-43.066 271.402-112.598l-90.468-90.468c-46.354 46.356-110.356 75.066-180.934 75.066s-134.578-28.71-180.934-75.066l-90.468 90.468c69.532 69.532 165.532 112.598 271.402 112.598zM187.452 452.548c120.88 120.88 281.598 187.452 452.548 187.452s331.668-66.572 452.55-187.452l-90.51-90.508c-96.706 96.704-225.28 149.96-362.040 149.96-136.762 0-265.334-53.256-362.038-149.962l-90.51 90.51zM988.784 825.562c106.702-45.132 202.516-109.728 284.782-191.996v0l-90.508-90.508c-145.056 145.056-337.92 224.942-543.058 224.942-205.14 0-398-79.886-543.058-224.942l-90.51 90.51c82.268 82.266 178.082 146.862 284.784 191.994 110.504 46.738 227.852 70.438 348.784 70.438s238.278-23.7 348.784-70.438zM576 64c0 35.346 28.654 64 64 64s64-28.654 64-64c0-35.346-28.654-64-64-64s-64 28.654-64 64z" />
<glyph unicode="&#xe91f;" glyph-name="book" d="M896 832v-832h-672c-53.026 0-96 42.98-96 96s42.974 96 96 96h608v768h-640c-70.398 0-128-57.6-128-128v-768c0-70.4 57.602-128 128-128h768v896h-64zM224.056 128v0c-0.018-0.002-0.038 0-0.056 0-17.672 0-32-14.326-32-32s14.328-32 32-32c0.018 0 0.038 0.002 0.056 0.002v-0.002h607.89v64h-607.89z" />
<glyph unicode="&#xe920;" glyph-name="books" horiz-adv-x="1152" d="M224 832h-192c-17.6 0-32-14.4-32-32v-704c0-17.6 14.4-32 32-32h192c17.6 0 32 14.4 32 32v704c0 17.6-14.4 32-32 32zM192 640h-128v64h128v-64zM544 832h-192c-17.6 0-32-14.4-32-32v-704c0-17.6 14.4-32 32-32h192c17.6 0 32 14.4 32 32v704c0 17.6-14.4 32-32 32zM512 640h-128v64h128v-64zM765.088 782.52l-171.464-86.394c-15.716-7.918-22.096-27.258-14.178-42.976l287.978-571.548c7.918-15.718 27.258-22.098 42.976-14.178l171.464 86.392c15.716 7.92 22.096 27.26 14.178 42.974l-287.978 571.55c-7.92 15.718-27.26 22.1-42.976 14.18z" />
<glyph unicode="&#xe921;" glyph-name="library" horiz-adv-x="1088" d="M1024 0v64h-64v384h64v64h-192v-64h64v-384h-192v384h64v64h-192v-64h64v-384h-192v384h64v64h-192v-64h64v-384h-192v384h64v64h-192v-64h64v-384h-64v-64h-64v-64h1088v64h-64zM512 960h64l512-320v-64h-1088v64l512 320z" />
<glyph unicode="&#xe922;" glyph-name="file-text" d="M864 960h-768c-52.8 0-96-43.2-96-96v-832c0-52.8 43.2-96 96-96h768c52.8 0 96 43.2 96 96v832c0 52.8-43.2 96-96 96zM832 64h-704v768h704v-768zM256 512h448v-64h-448zM256 384h448v-64h-448zM256 256h448v-64h-448zM256 640h448v-64h-448z" />
<glyph unicode="&#xe923;" glyph-name="profile" d="M864 960h-768c-52.8 0-96-43.2-96-96v-832c0-52.8 43.2-96 96-96h768c52.8 0 96 43.2 96 96v832c0 52.8-43.2 96-96 96zM832 64h-704v768h704v-768zM256 384h448v-64h-448zM256 256h448v-64h-448zM320 672c0 53.019 42.981 96 96 96s96-42.981 96-96c0-53.019-42.981-96-96-96s-96 42.981-96 96zM480 576h-128c-52.8 0-96-28.8-96-64v-64h320v64c0 35.2-43.2 64-96 64z" />
<glyph unicode="&#xe925;" glyph-name="files-empty" d="M917.806 602.924c-22.21 30.292-53.174 65.7-87.178 99.704s-69.412 64.964-99.704 87.178c-51.574 37.82-76.592 42.194-90.924 42.194h-368c-44.114 0-80-35.888-80-80v-736c0-44.112 35.886-80 80-80h608c44.112 0 80 35.888 80 80v496c0 14.332-4.372 39.35-42.194 90.924zM785.374 657.374c30.7-30.7 54.8-58.398 72.58-81.374h-153.954v153.946c22.982-17.78 50.678-41.878 81.374-72.572v0zM896 16c0-8.672-7.328-16-16-16h-608c-8.672 0-16 7.328-16 16v736c0 8.672 7.328 16 16 16 0 0 367.956 0.002 368 0v-224c0-17.672 14.324-32 32-32h224v-496zM602.924 917.804c-51.574 37.822-76.592 42.196-90.924 42.196h-368c-44.112 0-80-35.888-80-80v-736c0-38.632 27.528-70.958 64-78.39v814.39c0 8.672 7.328 16 16 16h486.876c-9.646 7.92-19.028 15.26-27.952 21.804z" />
<glyph unicode="&#xe926;" glyph-name="file-text2" d="M917.806 730.924c-22.212 30.292-53.174 65.7-87.178 99.704s-69.412 64.964-99.704 87.178c-51.574 37.82-76.592 42.194-90.924 42.194h-496c-44.112 0-80-35.888-80-80v-864c0-44.112 35.888-80 80-80h736c44.112 0 80 35.888 80 80v624c0 14.332-4.372 39.35-42.194 90.924zM785.374 785.374c30.7-30.7 54.8-58.398 72.58-81.374h-153.954v153.946c22.984-17.78 50.678-41.878 81.374-72.572zM896 16c0-8.672-7.328-16-16-16h-736c-8.672 0-16 7.328-16 16v864c0 8.672 7.328 16 16 16 0 0 495.956 0.002 496 0v-224c0-17.672 14.326-32 32-32h224v-624zM736 128h-448c-17.672 0-32 14.326-32 32s14.328 32 32 32h448c17.674 0 32-14.326 32-32s-14.326-32-32-32zM736 256h-448c-17.672 0-32 14.326-32 32s14.328 32 32 32h448c17.674 0 32-14.326 32-32s-14.326-32-32-32zM736 384h-448c-17.672 0-32 14.326-32 32s14.328 32 32 32h448c17.674 0 32-14.326 32-32s-14.326-32-32-32z" />
<glyph unicode="&#xe92e;" glyph-name="stack" d="M1024 640l-512 256-512-256 512-256 512 256zM512 811.030l342.058-171.030-342.058-171.030-342.058 171.030 342.058 171.030zM921.444 499.278l102.556-51.278-512-256-512 256 102.556 51.278 409.444-204.722zM921.444 307.278l102.556-51.278-512-256-512 256 102.556 51.278 409.444-204.722z" />
<glyph unicode="&#xe930;" glyph-name="folder-open" d="M832 0l192 512h-832l-192-512zM128 576l-128-576v832h288l128-128h416v-128z" />
<glyph unicode="&#xe937;" glyph-name="barcode" d="M0 832h128v-640h-128zM192 832h64v-640h-64zM320 832h64v-640h-64zM512 832h64v-640h-64zM768 832h64v-640h-64zM960 832h64v-640h-64zM640 832h32v-640h-32zM448 832h32v-640h-32zM864 832h32v-640h-32zM0 128h64v-64h-64zM192 128h64v-64h-64zM320 128h64v-64h-64zM640 128h64v-64h-64zM960 128h64v-64h-64zM768 128h128v-64h-128zM448 128h128v-64h-128z" />
<glyph unicode="&#xe938;" glyph-name="qrcode" d="M320 896h-256v-256h256v256zM384 960v0-384h-384v384h384zM128 832h128v-128h-128zM960 896h-256v-256h256v256zM1024 960v0-384h-384v384h384zM768 832h128v-128h-128zM320 256h-256v-256h256v256zM384 320v0-384h-384v384h384zM128 192h128v-128h-128zM448 960h64v-64h-64zM512 896h64v-64h-64zM448 832h64v-64h-64zM512 768h64v-64h-64zM448 704h64v-64h-64zM512 640h64v-64h-64zM448 576h64v-64h-64zM448 448h64v-64h-64zM512 384h64v-64h-64zM448 320h64v-64h-64zM512 256h64v-64h-64zM448 192h64v-64h-64zM512 128h64v-64h-64zM448 64h64v-64h-64zM512 0h64v-64h-64zM960 448h64v-64h-64zM64 448h64v-64h-64zM128 512h64v-64h-64zM0 512h64v-64h-64zM256 512h64v-64h-64zM320 448h64v-64h-64zM384 512h64v-64h-64zM576 448h64v-64h-64zM640 512h64v-64h-64zM704 448h64v-64h-64zM768 512h64v-64h-64zM832 448h64v-64h-64zM896 512h64v-64h-64zM960 320h64v-64h-64zM576 320h64v-64h-64zM640 384h64v-64h-64zM704 320h64v-64h-64zM832 320h64v-64h-64zM896 384h64v-64h-64zM960 192h64v-64h-64zM576 192h64v-64h-64zM640 256h64v-64h-64zM768 256h64v-64h-64zM832 192h64v-64h-64zM896 256h64v-64h-64zM960 64h64v-64h-64zM640 128h64v-64h-64zM704 64h64v-64h-64zM768 128h64v-64h-64zM832 64h64v-64h-64zM640 0h64v-64h-64zM768 0h64v-64h-64zM896 0h64v-64h-64z" />
<glyph unicode="&#xe93b;" glyph-name="coin-dollar" d="M480 896c-265.096 0-480-214.904-480-480 0-265.098 214.904-480 480-480 265.098 0 480 214.902 480 480 0 265.096-214.902 480-480 480zM480 32c-212.078 0-384 171.922-384 384s171.922 384 384 384c212.078 0 384-171.922 384-384s-171.922-384-384-384zM512 448v128h128v64h-128v64h-64v-64h-128v-256h128v-128h-128v-64h128v-64h64v64h128.002l-0.002 256h-128zM448 448h-64v128h64v-128zM576.002 256h-64.002v128h64.002v-128z" />
<glyph unicode="&#xe93c;" glyph-name="coin-euro" d="M480 896c-265.096 0-480-214.904-480-480s214.904-480 480-480c265.098 0 480 214.902 480 480s-214.902 480-480 480zM480 32c-212.078 0-384 171.922-384 384s171.922 384 384 384c212.076 0 384-171.922 384-384s-171.924-384-384-384zM670.824 315.66c-15.27 8.884-34.862 3.708-43.75-11.57-17.256-29.662-49.088-48.090-83.074-48.090h-128c-41.716 0-77.286 26.754-90.496 64h154.496c17.672 0 32 14.326 32 32s-14.328 32-32 32h-160v64h160c17.672 0 32 14.328 32 32s-14.328 32-32 32h-154.496c13.21 37.246 48.78 64 90.496 64h128c33.986 0 65.818-18.426 83.074-48.090 8.888-15.276 28.478-20.456 43.752-11.568 15.276 8.888 20.456 28.476 11.568 43.752-28.672 49.288-81.702 79.906-138.394 79.906h-128c-77.268 0-141.914-55.056-156.78-128h-35.22c-17.672 0-32-14.328-32-32s14.328-32 32-32h32v-64h-32c-17.672 0-32-14.326-32-32s14.328-32 32-32h35.22c14.866-72.944 79.512-128 156.78-128h128c56.692 0 109.72 30.62 138.394 79.91 8.888 15.276 3.708 34.864-11.57 43.75z" />
<glyph unicode="&#xe93d;" glyph-name="coin-pound" d="M480 896c-265.096 0-480-214.904-480-480s214.904-480 480-480c265.098 0 480 214.902 480 480s-214.902 480-480 480zM480 32c-212.078 0-384 171.922-384 384s171.922 384 384 384c212.074 0 384-171.922 384-384s-171.926-384-384-384zM608 256h-224v128h96c17.672 0 32 14.326 32 32s-14.328 32-32 32h-96v32c0 52.934 43.066 96 96 96 34.17 0 66.042-18.404 83.18-48.030 8.85-15.298 28.426-20.526 43.722-11.676 15.296 8.848 20.526 28.424 11.676 43.722-28.538 49.336-81.638 79.984-138.578 79.984-88.224 0-160-71.776-160-160v-32h-32c-17.672 0-32-14.326-32-32s14.328-32 32-32h32v-192h288c17.674 0 32 14.326 32 32s-14.326 32-32 32z" />
<glyph unicode="&#xe93e;" glyph-name="coin-yen" d="M480 896c-265.096 0-480-214.904-480-480s214.904-480 480-480c265.098 0 480 214.902 480 480s-214.902 480-480 480zM480 32c-212.078 0-384 171.922-384 384s171.922 384 384 384c212.076 0 384-171.922 384-384s-171.924-384-384-384zM608 384c17.674 0 32 14.326 32 32s-14.326 32-32 32h-68.208l94.832 142.25c9.804 14.704 5.83 34.572-8.876 44.376-14.704 9.802-34.572 5.83-44.376-8.876l-101.372-152.062-101.374 152.062c-9.804 14.706-29.672 18.68-44.376 8.876-14.706-9.804-18.678-29.672-8.876-44.376l94.834-142.25h-68.208c-17.672 0-32-14.326-32-32s14.328-32 32-32h96v-64h-96c-17.672 0-32-14.326-32-32s14.328-32 32-32h96v-96c0-17.674 14.328-32 32-32s32 14.326 32 32v96h96c17.674 0 32 14.326 32 32s-14.326 32-32 32h-96v64h96z" />
<glyph unicode="&#xe93f;" glyph-name="credit-card" d="M928 832h-832c-52.8 0-96-43.2-96-96v-576c0-52.8 43.2-96 96-96h832c52.8 0 96 43.2 96 96v576c0 52.8-43.2 96-96 96zM96 768h832c17.346 0 32-14.654 32-32v-96h-896v96c0 17.346 14.654 32 32 32zM928 128h-832c-17.346 0-32 14.654-32 32v288h896v-288c0-17.346-14.654-32-32-32zM128 320h64v-128h-64zM256 320h64v-128h-64zM384 320h64v-128h-64z" />
<glyph unicode="&#xe940;" glyph-name="calculator" d="M384 896h-320c-35.2 0-64-28.8-64-64v-320c0-35.2 28.796-64 64-64h320c35.2 0 64 28.8 64 64v320c0 35.2-28.8 64-64 64zM384 640h-320v64h320v-64zM896 896h-320c-35.204 0-64-28.8-64-64v-832c0-35.2 28.796-64 64-64h320c35.2 0 64 28.8 64 64v832c0 35.2-28.8 64-64 64zM896 320h-320v64h320v-64zM896 512h-320v64h320v-64zM384 384h-320c-35.2 0-64-28.8-64-64v-320c0-35.2 28.796-64 64-64h320c35.2 0 64 28.8 64 64v320c0 35.2-28.8 64-64 64zM384 128h-128v-128h-64v128h-128v64h128v128h64v-128h128v-64z" />
<glyph unicode="&#xe941;" glyph-name="lifebuoy" d="M512 960c-282.77 0-512-229.23-512-512s229.23-512 512-512 512 229.23 512 512-229.23 512-512 512zM320 448c0 106.040 85.96 192 192 192s192-85.96 192-192-85.96-192-192-192-192 85.96-192 192zM925.98 276.524v0l-177.42 73.49c12.518 30.184 19.44 63.276 19.44 97.986s-6.922 67.802-19.44 97.986l177.42 73.49c21.908-52.822 34.020-110.73 34.020-171.476s-12.114-118.654-34.020-171.476v0zM683.478 861.98v0 0l-73.49-177.42c-30.184 12.518-63.276 19.44-97.988 19.44s-67.802-6.922-97.986-19.44l-73.49 177.422c52.822 21.904 110.732 34.018 171.476 34.018 60.746 0 118.654-12.114 171.478-34.020zM98.020 619.476l177.422-73.49c-12.518-30.184-19.442-63.276-19.442-97.986s6.922-67.802 19.44-97.986l-177.42-73.49c-21.906 52.822-34.020 110.73-34.020 171.476s12.114 118.654 34.020 171.476zM340.524 34.020l73.49 177.42c30.184-12.518 63.276-19.44 97.986-19.44s67.802 6.922 97.986 19.44l73.49-177.42c-52.822-21.904-110.73-34.020-171.476-34.020-60.744 0-118.654 12.114-171.476 34.020z" />
<glyph unicode="&#xe942;" glyph-name="phone" d="M704 320c-64-64-64-128-128-128s-128 64-192 128-128 128-128 192 64 64 128 128-128 256-192 256-192-192-192-192c0-128 131.5-387.5 256-512s384-256 512-256c0 0 192 128 192 192s-192 256-256 192z" />
<glyph unicode="&#xe943;" glyph-name="phone-hang-up" d="M1017.378 384.006c8.004-55.482 13.216-131.392-11.664-160.446-41.142-48.044-301.712-48.044-301.712 48.042 0 48.398 42.856 80.134 1.712 128.178-40.472 47.262-113.026 48.030-193.714 48.042-80.686-0.012-153.242-0.78-193.714-48.042-41.142-48.046 1.714-79.78 1.714-128.178 0-96.086-260.57-96.086-301.714-48.044-24.878 29.054-19.668 104.964-11.662 160.446 6.16 37.038 21.724 76.996 71.548 127.994 0 0.002 0.002 0.002 0.002 0.004 74.738 69.742 187.846 126.738 429.826 127.968v0.030c1.344 0 2.664-0.010 4-0.014 1.338 0.004 2.656 0.014 4 0.014v-0.028c241.98-1.23 355.088-58.226 429.826-127.968 0.002-0.002 0.002-0.004 0.002-0.004 49.824-50.996 65.39-90.954 71.55-127.994z" />
<glyph unicode="&#xe944;" glyph-name="address-book" d="M192 960v-1024h768v1024h-768zM576 703.67c70.51 0 127.67-57.16 127.67-127.67s-57.16-127.67-127.67-127.67-127.67 57.16-127.67 127.67 57.16 127.67 127.67 127.67v0zM768 192h-384v64c0 70.696 57.306 128 128 128v0h128c70.696 0 128-57.304 128-128v-64zM64 896h96v-192h-96v192zM64 640h96v-192h-96v192zM64 384h96v-192h-96v192zM64 128h96v-192h-96v192z" />
<glyph unicode="&#xe947;" glyph-name="location" d="M512 960c-176.732 0-320-143.268-320-320 0-320 320-704 320-704s320 384 320 704c0 176.732-143.27 320-320 320zM512 448c-106.040 0-192 85.96-192 192s85.96 192 192 192 192-85.96 192-192-85.96-192-192-192z" />
<glyph unicode="&#xe948;" glyph-name="location2" d="M512 960c-176.732 0-320-143.268-320-320 0-320 320-704 320-704s320 384 320 704c0 176.732-143.27 320-320 320zM512 444c-108.248 0-196 87.752-196 196s87.752 196 196 196 196-87.752 196-196-87.752-196-196-196zM388 640c0 68.483 55.517 124 124 124s124-55.517 124-124c0-68.483-55.517-124-124-124s-124 55.517-124 124z" />
<glyph unicode="&#xe949;" glyph-name="compass" d="M544.010-64.004c-2.296 0-4.622 0.25-6.94 0.764-14.648 3.25-25.070 16.238-25.070 31.24v480h-480c-15.002 0-27.992 10.422-31.24 25.070-3.25 14.646 4.114 29.584 17.708 35.928l960 448c12.196 5.688 26.644 3.144 36.16-6.372 9.516-9.514 12.060-23.966 6.372-36.16l-448-960c-5.342-11.44-16.772-18.47-28.99-18.47zM176.242 512h367.758c17.674 0 32-14.328 32-32v-367.758l349.79 749.546-749.548-349.788z" />
<glyph unicode="&#xe94e;" glyph-name="clock" d="M658.744 210.744l-210.744 210.746v282.51h128v-229.49l173.256-173.254zM512 960c-282.77 0-512-229.23-512-512s229.23-512 512-512 512 229.23 512 512-229.23 512-512 512zM512 64c-212.078 0-384 171.922-384 384s171.922 384 384 384c212.078 0 384-171.922 384-384s-171.922-384-384-384z" />
<glyph unicode="&#xe94f;" glyph-name="clock2" d="M512 960c-282.77 0-512-229.23-512-512s229.23-512 512-512 512 229.23 512 512-229.23 512-512 512zM658.744 210.744l-210.744 210.746v282.51h128v-229.49l173.256-173.254-90.512-90.512z" />
<glyph unicode="&#xe950;" glyph-name="alarm" d="M512 832c-247.424 0-448-200.576-448-448s200.576-448 448-448 448 200.576 448 448-200.576 448-448 448zM512 24c-198.824 0-360 161.178-360 360 0 198.824 161.176 360 360 360 198.822 0 360-161.176 360-360 0-198.822-161.178-360-360-360zM934.784 672.826c16.042 28.052 25.216 60.542 25.216 95.174 0 106.040-85.96 192-192 192-61.818 0-116.802-29.222-151.92-74.596 131.884-27.236 245.206-105.198 318.704-212.578v0zM407.92 885.404c-35.116 45.374-90.102 74.596-151.92 74.596-106.040 0-192-85.96-192-192 0-34.632 9.174-67.122 25.216-95.174 73.5 107.38 186.822 185.342 318.704 212.578zM512 384v256h-64v-320h256v64z" />
<glyph unicode="&#xe951;" glyph-name="bell" d="M1025.5 160c0 288-256 224-256 448 0 18.56-1.788 34.42-5.048 47.928-16.83 113.018-92.156 203.72-189.772 231.36 0.866 3.948 1.32 8.032 1.32 12.21 0 33.278-28.8 60.502-64 60.502s-64-27.224-64-60.5c0-4.18 0.456-8.264 1.32-12.21-109.47-30.998-190.914-141.298-193.254-273.442-0.040-1.92-0.066-3.864-0.066-5.846 0-224.002-256-160.002-256-448.002 0-76.226 170.59-139.996 398.97-156.080 21.524-40.404 64.056-67.92 113.030-67.92s91.508 27.516 113.030 67.92c228.38 16.084 398.97 79.854 398.97 156.080 0 0.228-0.026 0.456-0.028 0.682l1.528-0.682zM826.246 105.904c-54.23-14.47-118.158-24.876-186.768-30.648-5.704 65.418-60.582 116.744-127.478 116.744s-121.774-51.326-127.478-116.744c-68.608 5.772-132.538 16.178-186.768 30.648-74.63 19.914-110.31 42.19-123.368 54.096 13.058 11.906 48.738 34.182 123.368 54.096 86.772 23.152 198.372 35.904 314.246 35.904s227.474-12.752 314.246-35.904c74.63-19.914 110.31-42.19 123.368-54.096-13.058-11.906-48.738-34.182-123.368-54.096z" />
<glyph unicode="&#xe952;" glyph-name="stopwatch" d="M512.002 766.788v65.212h128v64c0 35.346-28.654 64-64.002 64h-191.998c-35.346 0-64-28.654-64-64v-64h128v-65.212c-214.798-16.338-384-195.802-384-414.788 0-229.75 186.25-416 416-416s416 186.25 416 416c0 218.984-169.202 398.448-384 414.788zM706.276 125.726c-60.442-60.44-140.798-93.726-226.274-93.726s-165.834 33.286-226.274 93.726c-60.44 60.44-93.726 140.8-93.726 226.274s33.286 165.834 93.726 226.274c58.040 58.038 134.448 91.018 216.114 93.548l-21.678-314.020c-1.86-26.29 12.464-37.802 31.836-37.802s33.698 11.512 31.836 37.802l-21.676 314.022c81.666-2.532 158.076-35.512 216.116-93.55 60.44-60.44 93.726-140.8 93.726-226.274s-33.286-165.834-93.726-226.274z" />
<glyph unicode="&#xe953;" glyph-name="calendar" d="M320 576h128v-128h-128zM512 576h128v-128h-128zM704 576h128v-128h-128zM128 192h128v-128h-128zM320 192h128v-128h-128zM512 192h128v-128h-128zM320 384h128v-128h-128zM512 384h128v-128h-128zM704 384h128v-128h-128zM128 384h128v-128h-128zM832 960v-64h-128v64h-448v-64h-128v64h-128v-1024h960v1024h-128zM896 0h-832v704h832v-704z" />
<glyph unicode="&#xe956;" glyph-name="display" d="M0 896v-640h1024v640h-1024zM960 320h-896v512h896v-512zM672 192h-320l-32-128-64-64h512l-64 64z" />
<glyph unicode="&#xe957;" glyph-name="laptop" d="M896 256v512c0 35.2-28.8 64-64 64h-640c-35.2 0-64-28.8-64-64v-512h-128v-192h1024v192h-128zM640 128h-256v64h256v-64zM832 256h-640v511.886c0.034 0.040 0.076 0.082 0.114 0.114h639.77c0.040-0.034 0.082-0.076 0.116-0.116v-511.884z" />
<glyph unicode="&#xe958;" glyph-name="mobile" d="M736 960h-448c-52.8 0-96-43.2-96-96v-832c0-52.8 43.2-96 96-96h448c52.8 0 96 43.2 96 96v832c0 52.8-43.2 96-96 96zM384 912h256v-32h-256v32zM512 0c-35.346 0-64 28.654-64 64s28.654 64 64 64 64-28.654 64-64-28.654-64-64-64zM768 192h-512v640h512v-640z" />
<glyph unicode="&#xe959;" glyph-name="mobile2" d="M768 960h-576c-35.2 0-64-28.798-64-64v-896c0-35.2 28.798-64 64-64h576c35.2 0 64 28.8 64 64v896c0 35.202-28.8 64-64 64zM480-17.782c-27.492 0-49.782 22.29-49.782 49.782s22.29 49.782 49.782 49.782 49.782-22.29 49.782-49.782-22.29-49.782-49.782-49.782zM768 128h-576v704h576v-704z" />
<glyph unicode="&#xe95a;" glyph-name="tablet" d="M800 960h-640c-52.8 0-96-43.2-96-96v-832c0-52.8 43.2-96 96-96h640c52.8 0 96 43.2 96 96v832c0 52.8-43.2 96-96 96zM480-32c-17.672 0-32 14.326-32 32s14.328 32 32 32 32-14.326 32-32-14.328-32-32-32zM768 64h-576v768h576v-768z" />
<glyph unicode="&#xe95b;" glyph-name="tv" d="M981.188 671.892c-88.808 12.768-183.382 22.016-282.076 27.22l164.888 164.888-64 64-224.558-224.556c-21.006 0.368-42.156 0.556-63.442 0.556v0l-256 256-64-64 194.196-194.196c-120.922-4.242-236.338-14.524-343.386-29.912-27.532-107.726-42.81-226.752-42.81-351.892s15.278-244.166 42.804-351.89c143.642-20.652 302.34-32.11 469.196-32.11s325.55 11.458 469.188 32.11c27.534 107.724 42.812 226.75 42.812 351.89s-15.278 244.166-42.812 351.892zM863.892 85.406c-107.73-13.766-226.75-21.406-351.892-21.406s-244.166 7.64-351.892 21.406c-20.648 71.816-32.108 151.166-32.108 234.594 0 83.43 11.458 162.78 32.108 234.596 107.726 13.766 226.75 21.404 351.892 21.404 125.136 0 244.162-7.638 351.886-21.404 20.656-71.816 32.114-151.166 32.114-234.596 0-83.428-11.458-162.778-32.108-234.594z" />
<glyph unicode="&#xe95c;" glyph-name="drawer" d="M1016.988 307.99l-256 320c-6.074 7.592-15.266 12.010-24.988 12.010h-448c-9.72 0-18.916-4.418-24.988-12.010l-256-320c-4.538-5.674-7.012-12.724-7.012-19.99v-288c0-35.346 28.654-64 64-64h896c35.348 0 64 28.654 64 64v288c0 7.266-2.472 14.316-7.012 19.99zM960 256h-224l-128-128h-192l-128 128h-224v20.776l239.38 299.224h417.24l239.38-299.224v-20.776zM736 448h-448c-17.672 0-32 14.328-32 32s14.328 32 32 32h448c17.674 0 32-14.328 32-32s-14.326-32-32-32zM800 320h-576c-17.672 0-32 14.326-32 32s14.328 32 32 32h576c17.674 0 32-14.326 32-32s-14.326-32-32-32z" />
<glyph unicode="&#xe95d;" glyph-name="drawer2" d="M1016.988 307.99l-256 320c-6.074 7.592-15.266 12.010-24.988 12.010h-448c-9.72 0-18.916-4.418-24.988-12.010l-256-320c-4.538-5.674-7.012-12.724-7.012-19.99v-288c0-35.346 28.654-64 64-64h896c35.348 0 64 28.654 64 64v288c0 7.266-2.472 14.316-7.012 19.99zM960 256h-224l-128-128h-192l-128 128h-224v20.776l239.38 299.224h417.24l239.38-299.224v-20.776z" />
<glyph unicode="&#xe964;" glyph-name="database" d="M512 960c-282.77 0-512-71.634-512-160v-128c0-88.366 229.23-160 512-160s512 71.634 512 160v128c0 88.366-229.23 160-512 160zM512 416c-282.77 0-512 71.634-512 160v-192c0-88.366 229.23-160 512-160s512 71.634 512 160v192c0-88.366-229.23-160-512-160zM512 128c-282.77 0-512 71.634-512 160v-192c0-88.366 229.23-160 512-160s512 71.634 512 160v192c0-88.366-229.23-160-512-160z" />
<glyph unicode="&#xe971;" glyph-name="user" d="M576 253.388v52.78c70.498 39.728 128 138.772 128 237.832 0 159.058 0 288-192 288s-192-128.942-192-288c0-99.060 57.502-198.104 128-237.832v-52.78c-217.102-17.748-384-124.42-384-253.388h896c0 128.968-166.898 235.64-384 253.388z" />
<glyph unicode="&#xe972;" glyph-name="users" horiz-adv-x="1152" d="M768 189.388v52.78c70.498 39.728 128 138.772 128 237.832 0 159.058 0 288-192 288s-192-128.942-192-288c0-99.060 57.502-198.104 128-237.832v-52.78c-217.102-17.748-384-124.42-384-253.388h896c0 128.968-166.898 235.64-384 253.388zM327.196 164.672c55.31 36.15 124.080 63.636 199.788 80.414-15.054 17.784-28.708 37.622-40.492 59.020-30.414 55.234-46.492 116.058-46.492 175.894 0 86.042 0 167.31 30.6 233.762 29.706 64.504 83.128 104.496 159.222 119.488-16.914 76.48-61.94 126.75-181.822 126.75-192 0-192-128.942-192-288 0-99.060 57.502-198.104 128-237.832v-52.78c-217.102-17.748-384-124.42-384-253.388h279.006c14.518 12.91 30.596 25.172 48.19 36.672z" />
<glyph unicode="&#xe976;" glyph-name="user-tie" d="M320 768c0 106.039 85.961 192 192 192s192-85.961 192-192c0-106.039-85.961-192-192-192s-192 85.961-192 192zM768.078 512h-35.424l-199.104-404.244 74.45 372.244-96 96-96-96 74.45-372.244-199.102 404.244h-35.424c-127.924 0-127.924-85.986-127.924-192v-320h768v320c0 106.014 0 192-127.922 192z" />
<glyph unicode="&#xe97a;" glyph-name="spinner" d="M384 832c0 70.692 57.308 128 128 128s128-57.308 128-128c0-70.692-57.308-128-128-128s-128 57.308-128 128zM655.53 719.53c0 70.692 57.308 128 128 128s128-57.308 128-128c0-70.692-57.308-128-128-128s-128 57.308-128 128zM832 448c0 35.346 28.654 64 64 64s64-28.654 64-64c0-35.346-28.654-64-64-64s-64 28.654-64 64zM719.53 176.47c0 35.346 28.654 64 64 64s64-28.654 64-64c0-35.346-28.654-64-64-64s-64 28.654-64 64zM448.002 64c0 0 0 0 0 0 0 35.346 28.654 64 64 64s64-28.654 64-64c0 0 0 0 0 0 0-35.346-28.654-64-64-64s-64 28.654-64 64zM176.472 176.47c0 0 0 0 0 0 0 35.346 28.654 64 64 64s64-28.654 64-64c0 0 0 0 0 0 0-35.346-28.654-64-64-64s-64 28.654-64 64zM144.472 719.53c0 0 0 0 0 0 0 53.019 42.981 96 96 96s96-42.981 96-96c0 0 0 0 0 0 0-53.019-42.981-96-96-96s-96 42.981-96 96zM56 448c0 39.765 32.235 72 72 72s72-32.235 72-72c0-39.765-32.235-72-72-72s-72 32.235-72 72z" />
<glyph unicode="&#xe97b;" glyph-name="spinner2" d="M1024 448c-1.278 66.862-15.784 133.516-42.576 194.462-26.704 61-65.462 116.258-113.042 161.92-47.552 45.696-103.944 81.82-164.984 105.652-61.004 23.924-126.596 35.352-191.398 33.966-64.81-1.282-129.332-15.374-188.334-41.356-59.048-25.896-112.542-63.47-156.734-109.576-44.224-46.082-79.16-100.708-102.186-159.798-23.114-59.062-34.128-122.52-32.746-185.27 1.286-62.76 14.964-125.148 40.134-182.206 25.088-57.1 61.476-108.828 106.11-151.548 44.61-42.754 97.472-76.504 154.614-98.72 57.118-22.304 118.446-32.902 179.142-31.526 60.708 1.29 120.962 14.554 176.076 38.914 55.15 24.282 105.116 59.48 146.366 102.644 41.282 43.14 73.844 94.236 95.254 149.43 13.034 33.458 21.88 68.4 26.542 103.798 1.246-0.072 2.498-0.12 3.762-0.12 35.346 0 64 28.652 64 64 0 1.796-0.094 3.572-0.238 5.332h0.238zM922.306 278.052c-23.472-53.202-57.484-101.4-99.178-141.18-41.67-39.81-91-71.186-144.244-91.79-53.228-20.678-110.29-30.452-166.884-29.082-56.604 1.298-112.596 13.736-163.82 36.474-51.25 22.666-97.684 55.49-135.994 95.712-38.338 40.198-68.528 87.764-88.322 139.058-19.87 51.284-29.228 106.214-27.864 160.756 1.302 54.552 13.328 108.412 35.254 157.69 21.858 49.3 53.498 93.97 92.246 130.81 38.73 36.868 84.53 65.87 133.874 84.856 49.338 19.060 102.136 28.006 154.626 26.644 52.5-1.306 104.228-12.918 151.562-34.034 47.352-21.050 90.256-51.502 125.624-88.782 35.396-37.258 63.21-81.294 81.39-128.688 18.248-47.392 26.782-98.058 25.424-148.496h0.238c-0.144-1.76-0.238-3.536-0.238-5.332 0-33.012 24.992-60.174 57.086-63.624-6.224-34.822-16.53-68.818-30.78-100.992z" />
<glyph unicode="&#xe97c;" glyph-name="spinner3" d="M512 656.904c-32.964 0-59.686 26.724-59.686 59.686v179.060c0 32.964 26.722 59.686 59.686 59.686 32.962 0 59.688-26.722 59.688-59.686v-179.060c0-32.964-26.726-59.686-59.688-59.686zM512-36.956c-20.602 0-37.304 16.702-37.304 37.304v179.060c0 20.602 16.702 37.304 37.304 37.304 20.604 0 37.304-16.704 37.304-37.304v-179.060c0-20.602-16.7-37.304-37.304-37.304zM377.756 624.64c-19.34 0-38.146 10.034-48.512 27.988l-89.53 155.070c-15.452 26.764-6.282 60.986 20.482 76.438 26.762 15.45 60.986 6.284 76.438-20.482l89.53-155.072c15.452-26.764 6.282-60.986-20.482-76.438-8.81-5.084-18.432-7.504-27.926-7.504zM735.856 26.744c-11.602 0-22.886 6.022-29.108 16.792l-89.53 155.070c-9.27 16.056-3.77 36.592 12.29 45.864 16.056 9.264 36.59 3.77 45.864-12.292l89.532-155.068c9.27-16.058 3.768-36.592-12.292-45.864-5.286-3.048-11.060-4.502-16.756-4.502zM279.344 530.060c-8.86 0-17.838 2.256-26.064 7.006l-155.072 89.53c-24.978 14.422-33.538 46.362-19.116 71.342 14.42 24.978 46.364 33.538 71.342 19.116l155.070-89.53c24.98-14.422 33.538-46.362 19.116-71.34-9.668-16.756-27.226-26.124-45.276-26.124zM899.648 194.326c-5.064 0-10.196 1.29-14.894 4.004l-155.068 89.53c-14.274 8.24-19.164 26.494-10.924 40.768 8.242 14.276 26.496 19.166 40.766 10.924l155.070-89.532c14.274-8.24 19.164-26.492 10.924-40.766-5.53-9.574-15.562-14.928-25.874-14.928zM243.41 399.504h-179.060c-26.784 0-48.496 21.712-48.496 48.496s21.712 48.496 48.496 48.496h179.060c26.784 0 48.496-21.712 48.496-48.496s-21.712-48.496-48.496-48.496zM959.65 418.156c-0.002 0 0 0 0 0h-179.060c-16.482 0.002-29.844 13.364-29.844 29.844s13.364 29.844 29.844 29.844c0.002 0 0 0 0 0h179.060c16.482 0 29.844-13.362 29.844-29.844 0-16.48-13.364-29.844-29.844-29.844zM124.366 179.402c-15.472 0-30.518 8.028-38.81 22.39-12.362 21.41-5.026 48.79 16.384 61.148l155.072 89.532c21.41 12.368 48.79 5.028 61.15-16.384 12.362-21.412 5.026-48.79-16.384-61.15l-155.072-89.53c-7.050-4.070-14.748-6.006-22.34-6.006zM744.632 552.448c-10.314 0-20.346 5.352-25.874 14.926-8.24 14.274-3.35 32.526 10.924 40.768l155.070 89.528c14.272 8.236 32.526 3.352 40.768-10.922 8.24-14.274 3.35-32.526-10.924-40.768l-155.070-89.528c-4.7-2.714-9.83-4.004-14.894-4.004zM288.136 19.284c-6.962 0-14.016 1.774-20.48 5.504-19.626 11.332-26.35 36.428-15.020 56.054l89.53 155.070c11.33 19.628 36.426 26.352 56.054 15.022 19.626-11.332 26.35-36.43 15.020-56.054l-89.53-155.072c-7.598-13.166-21.392-20.524-35.574-20.524zM646.266 650.758c-5.062 0-10.196 1.29-14.894 4.002-14.274 8.242-19.164 26.494-10.924 40.766l89.534 155.070c8.24 14.274 26.492 19.166 40.766 10.922 14.274-8.242 19.164-26.494 10.924-40.766l-89.532-155.070c-5.53-9.57-15.56-14.924-25.874-14.924z" />
<glyph unicode="&#xe984;" glyph-name="spinner11" d="M1024 576h-384l143.53 143.53c-72.53 72.526-168.96 112.47-271.53 112.47s-199-39.944-271.53-112.47c-72.526-72.53-112.47-168.96-112.47-271.53s39.944-199 112.47-271.53c72.53-72.526 168.96-112.47 271.53-112.47s199 39.944 271.528 112.472c6.056 6.054 11.86 12.292 17.456 18.668l96.32-84.282c-93.846-107.166-231.664-174.858-385.304-174.858-282.77 0-512 229.23-512 512s229.23 512 512 512c141.386 0 269.368-57.326 362.016-149.984l149.984 149.984v-384z" />
<glyph unicode="&#xe985;" glyph-name="binoculars" d="M64 960h384v-64h-384zM576 960h384v-64h-384zM952 640h-56v256h-256v-256h-256v256h-256v-256h-56c-39.6 0-72-32.4-72-72v-560c0-39.6 32.4-72 72-72h304c39.6 0 72 32.4 72 72v376h128v-376c0-39.6 32.4-72 72-72h304c39.6 0 72 32.4 72 72v560c0 39.6-32.4 72-72 72zM348 0h-248c-19.8 0-36 14.4-36 32s16.2 32 36 32h248c19.8 0 36-14.4 36-32s-16.2-32-36-32zM544 448h-64c-17.6 0-32 14.4-32 32s14.4 32 32 32h64c17.6 0 32-14.4 32-32s-14.4-32-32-32zM924 0h-248c-19.8 0-36 14.4-36 32s16.2 32 36 32h248c19.8 0 36-14.4 36-32s-16.2-32-36-32z" />
<glyph unicode="&#xe986;" glyph-name="search" d="M992.262 88.604l-242.552 206.294c-25.074 22.566-51.89 32.926-73.552 31.926 57.256 67.068 91.842 154.078 91.842 249.176 0 212.078-171.922 384-384 384-212.076 0-384-171.922-384-384s171.922-384 384-384c95.098 0 182.108 34.586 249.176 91.844-1-21.662 9.36-48.478 31.926-73.552l206.294-242.552c35.322-39.246 93.022-42.554 128.22-7.356s31.892 92.898-7.354 128.22zM384 320c-141.384 0-256 114.616-256 256s114.616 256 256 256 256-114.616 256-256-114.614-256-256-256z" />
<glyph unicode="&#xe98f;" glyph-name="lock" d="M592 512h-16v192c0 105.87-86.13 192-192 192h-128c-105.87 0-192-86.13-192-192v-192h-16c-26.4 0-48-21.6-48-48v-480c0-26.4 21.6-48 48-48h544c26.4 0 48 21.6 48 48v480c0 26.4-21.6 48-48 48zM192 704c0 35.29 28.71 64 64 64h128c35.29 0 64-28.71 64-64v-192h-256v192z" />
<glyph unicode="&#xe990;" glyph-name="unlocked" d="M768 896c105.87 0 192-86.13 192-192v-192h-128v192c0 35.29-28.71 64-64 64h-128c-35.29 0-64-28.71-64-64v-192h16c26.4 0 48-21.6 48-48v-480c0-26.4-21.6-48-48-48h-544c-26.4 0-48 21.6-48 48v480c0 26.4 21.6 48 48 48h400v192c0 105.87 86.13 192 192 192h128z" />
<glyph unicode="&#xe991;" glyph-name="wrench" d="M1002.934 142.124l-460.552 394.76c21.448 40.298 33.618 86.282 33.618 135.116 0 159.058-128.942 288-288 288-29.094 0-57.172-4.332-83.646-12.354l166.39-166.39c24.89-24.89 24.89-65.62 0-90.51l-101.49-101.49c-24.89-24.89-65.62-24.89-90.51 0l-166.39 166.39c-8.022-26.474-12.354-54.552-12.354-83.646 0-159.058 128.942-288 288-288 48.834 0 94.818 12.17 135.116 33.62l394.76-460.552c22.908-26.724 62.016-28.226 86.904-3.338l101.492 101.492c24.888 24.888 23.386 63.994-3.338 86.902z" />
<glyph unicode="&#xe992;" glyph-name="equalizer" d="M448 832v16c0 26.4-21.6 48-48 48h-160c-26.4 0-48-21.6-48-48v-16h-192v-128h192v-16c0-26.4 21.6-48 48-48h160c26.4 0 48 21.6 48 48v16h576v128h-576zM256 704v128h128v-128h-128zM832 528c0 26.4-21.6 48-48 48h-160c-26.4 0-48-21.6-48-48v-16h-576v-128h576v-16c0-26.4 21.6-48 48-48h160c26.4 0 48 21.6 48 48v16h192v128h-192v16zM640 384v128h128v-128h-128zM448 208c0 26.4-21.6 48-48 48h-160c-26.4 0-48-21.6-48-48v-16h-192v-128h192v-16c0-26.4 21.6-48 48-48h160c26.4 0 48 21.6 48 48v16h576v128h-576v16zM256 64v128h128v-128h-128z" />
<glyph unicode="&#xe993;" glyph-name="equalizer2" d="M896 512h16c26.4 0 48 21.6 48 48v160c0 26.4-21.6 48-48 48h-16v192h-128v-192h-16c-26.4 0-48-21.6-48-48v-160c0-26.4 21.6-48 48-48h16v-576h128v576zM768 704h128v-128h-128v128zM592 128c26.4 0 48 21.6 48 48v160c0 26.4-21.6 48-48 48h-16v576h-128v-576h-16c-26.4 0-48-21.6-48-48v-160c0-26.4 21.6-48 48-48h16v-192h128v192h16zM448 320h128v-128h-128v128zM272 512c26.4 0 48 21.6 48 48v160c0 26.4-21.6 48-48 48h-16v192h-128v-192h-16c-26.4 0-48-21.6-48-48v-160c0-26.4 21.6-48 48-48h16v-576h128v576h16zM128 704h128v-128h-128v128z" />
<glyph unicode="&#xe994;" glyph-name="cog" d="M933.79 349.75c-53.726 93.054-21.416 212.304 72.152 266.488l-100.626 174.292c-28.75-16.854-62.176-26.518-97.846-26.518-107.536 0-194.708 87.746-194.708 195.99h-201.258c0.266-33.41-8.074-67.282-25.958-98.252-53.724-93.056-173.156-124.702-266.862-70.758l-100.624-174.292c28.97-16.472 54.050-40.588 71.886-71.478 53.638-92.908 21.512-211.92-71.708-266.224l100.626-174.292c28.65 16.696 61.916 26.254 97.4 26.254 107.196 0 194.144-87.192 194.7-194.958h201.254c-0.086 33.074 8.272 66.57 25.966 97.218 53.636 92.906 172.776 124.594 266.414 71.012l100.626 174.29c-28.78 16.466-53.692 40.498-71.434 71.228zM512 240.668c-114.508 0-207.336 92.824-207.336 207.334 0 114.508 92.826 207.334 207.336 207.334 114.508 0 207.332-92.826 207.332-207.334-0.002-114.51-92.824-207.334-207.332-207.334z" />
<glyph unicode="&#xe995;" glyph-name="cogs" d="M363.722 237.948l41.298 57.816-45.254 45.256-57.818-41.296c-10.722 5.994-22.204 10.774-34.266 14.192l-11.682 70.084h-64l-11.68-70.086c-12.062-3.418-23.544-8.198-34.266-14.192l-57.818 41.298-45.256-45.256 41.298-57.816c-5.994-10.72-10.774-22.206-14.192-34.266l-70.086-11.682v-64l70.086-11.682c3.418-12.060 8.198-23.544 14.192-34.266l-41.298-57.816 45.254-45.256 57.818 41.296c10.722-5.994 22.204-10.774 34.266-14.192l11.682-70.084h64l11.68 70.086c12.062 3.418 23.544 8.198 34.266 14.192l57.818-41.296 45.254 45.256-41.298 57.816c5.994 10.72 10.774 22.206 14.192 34.266l70.088 11.68v64l-70.086 11.682c-3.418 12.060-8.198 23.544-14.192 34.266zM224 96c-35.348 0-64 28.654-64 64s28.652 64 64 64 64-28.654 64-64-28.652-64-64-64zM1024 576v64l-67.382 12.25c-1.242 8.046-2.832 15.978-4.724 23.79l57.558 37.1-24.492 59.128-66.944-14.468c-4.214 6.91-8.726 13.62-13.492 20.13l39.006 56.342-45.256 45.254-56.342-39.006c-6.512 4.766-13.22 9.276-20.13 13.494l14.468 66.944-59.128 24.494-37.1-57.558c-7.812 1.892-15.744 3.482-23.79 4.724l-12.252 67.382h-64l-12.252-67.382c-8.046-1.242-15.976-2.832-23.79-4.724l-37.098 57.558-59.128-24.492 14.468-66.944c-6.91-4.216-13.62-8.728-20.13-13.494l-56.342 39.006-45.254-45.254 39.006-56.342c-4.766-6.51-9.278-13.22-13.494-20.13l-66.944 14.468-24.492-59.128 57.558-37.1c-1.892-7.812-3.482-15.742-4.724-23.79l-67.384-12.252v-64l67.382-12.25c1.242-8.046 2.832-15.978 4.724-23.79l-57.558-37.1 24.492-59.128 66.944 14.468c4.216-6.91 8.728-13.618 13.494-20.13l-39.006-56.342 45.254-45.256 56.342 39.006c6.51-4.766 13.22-9.276 20.13-13.492l-14.468-66.944 59.128-24.492 37.102 57.558c7.81-1.892 15.742-3.482 23.788-4.724l12.252-67.384h64l12.252 67.382c8.044 1.242 15.976 2.832 23.79 4.724l37.1-57.558 59.128 24.492-14.468 66.944c6.91 4.216 13.62 8.726 20.13 13.492l56.342-39.006 45.256 45.256-39.006 56.342c4.766 6.512 9.276 13.22 13.492 20.13l66.944-14.468 24.492 59.13-57.558 37.1c1.892 7.812 3.482 15.742 4.724 23.79l67.382 12.25zM672 468.8c-76.878 0-139.2 62.322-139.2 139.2s62.32 139.2 139.2 139.2 139.2-62.322 139.2-139.2c0-76.878-62.32-139.2-139.2-139.2z" />
<glyph unicode="&#xe99a;" glyph-name="pie-chart" d="M448 384v448c-247.424 0-448-200.576-448-448s200.576-448 448-448 448 200.576 448 448c0 72.034-17.028 140.084-47.236 200.382l-400.764-200.382zM912.764 712.382c-73.552 146.816-225.374 247.618-400.764 247.618v-448l400.764 200.382z" />
<glyph unicode="&#xe99b;" glyph-name="stats-dots" d="M128 64h896v-128h-1024v1024h128zM288 128c-53.020 0-96 42.98-96 96s42.98 96 96 96c2.828 0 5.622-0.148 8.388-0.386l103.192 171.986c-9.84 15.070-15.58 33.062-15.58 52.402 0 53.020 42.98 96 96 96s96-42.98 96-96c0-19.342-5.74-37.332-15.58-52.402l103.192-171.986c2.766 0.238 5.56 0.386 8.388 0.386 2.136 0 4.248-0.094 6.35-0.23l170.356 298.122c-10.536 15.408-16.706 34.036-16.706 54.11 0 53.020 42.98 96 96 96s96-42.98 96-96c0-53.020-42.98-96-96-96-2.14 0-4.248 0.094-6.35 0.232l-170.356-298.124c10.536-15.406 16.706-34.036 16.706-54.11 0-53.020-42.98-96-96-96s-96 42.98-96 96c0 19.34 5.74 37.332 15.578 52.402l-103.19 171.984c-2.766-0.238-5.56-0.386-8.388-0.386s-5.622 0.146-8.388 0.386l-103.192-171.986c9.84-15.068 15.58-33.060 15.58-52.4 0-53.020-42.98-96-96-96z" />
<glyph unicode="&#xe99c;" glyph-name="stats-bars" d="M0 128h1024v-128h-1024zM128 384h128v-192h-128zM320 640h128v-448h-128zM512 448h128v-256h-128zM704 832h128v-640h-128z" />
<glyph unicode="&#xe99d;" glyph-name="stats-bars2" d="M288 576h-192c-17.6 0-32-14.4-32-32v-576c0-17.6 14.4-32 32-32h192c17.6 0 32 14.4 32 32v576c0 17.6-14.4 32-32 32zM288 0h-192v256h192v-256zM608 704h-192c-17.6 0-32-14.4-32-32v-704c0-17.6 14.4-32 32-32h192c17.6 0 32 14.4 32 32v704c0 17.6-14.4 32-32 32zM608 0h-192v320h192v-320zM928 832h-192c-17.6 0-32-14.4-32-32v-832c0-17.6 14.4-32 32-32h192c17.6 0 32 14.4 32 32v832c0 17.6-14.4 32-32 32zM928 0h-192v384h192v-384z" />
<glyph unicode="&#xe9a4;" glyph-name="leaf" d="M1011.328 825.504c-110.752 83.928-281.184 134.034-455.91 134.034-216.12 0-392.226-75.456-483.16-207.020-42.708-61.79-66.33-134.958-70.208-217.474-3.454-73.474 8.884-154.726 36.684-242.146 94.874 284.384 359.82 507.102 665.266 507.102 0 0-285.826-75.232-465.524-308.192-0.112-0.138-2.494-3.090-6.614-8.698-36.080-48.278-67.538-103.162-91.078-165.328-39.87-94.83-76.784-224.948-76.784-381.782h128c0 0-19.43 122.222 14.36 262.79 55.89-7.556 105.858-11.306 150.852-11.306 117.678 0 201.37 25.46 263.388 80.124 55.568 48.978 86.198 114.786 118.624 184.456 49.524 106.408 105.654 227.010 268.654 320.152 9.33 5.332 15.362 14.992 16.056 25.716s-4.040 21.080-12.606 27.572z" />
<glyph unicode="&#xe9aa;" glyph-name="lab" d="M956.29 155.518l-316.29 527.024v213.458h32c17.6 0 32 14.4 32 32s-14.4 32-32 32h-320c-17.6 0-32-14.4-32-32s14.4-32 32-32h32v-213.458l-316.288-527.024c-72.442-120.734-16.512-219.518 124.288-219.518h640c140.8 0 196.73 98.784 124.29 219.518zM241.038 320l206.962 344.938v231.062h128v-231.062l206.964-344.938h-541.926z" />
<glyph unicode="&#xe9ac;" glyph-name="bin" d="M128 640v-640c0-35.2 28.8-64 64-64h576c35.2 0 64 28.8 64 64v640h-704zM320 64h-64v448h64v-448zM448 64h-64v448h64v-448zM576 64h-64v448h64v-448zM704 64h-64v448h64v-448zM848 832h-208v80c0 26.4-21.6 48-48 48h-224c-26.4 0-48-21.6-48-48v-80h-208c-26.4 0-48-21.6-48-48v-80h832v80c0 26.4-21.6 48-48 48zM576 832h-192v63.198h192v-63.198z" />
<glyph unicode="&#xe9ad;" glyph-name="bin2" d="M192-64h640l64 704h-768zM640 832v128h-256v-128h-320v-192l64 64h768l64-64v192h-320zM576 832h-128v64h128v-64z" />
<glyph unicode="&#xe9ae;" glyph-name="briefcase" d="M960 704h-256v64c0 35.2-28.8 64-64 64h-256c-35.204 0-64-28.8-64-64v-64h-256c-35.2 0-64-28.8-64-64v-576c0-35.202 28.796-64 64-64h896c35.2 0 64 28.798 64 64v576c0 35.2-28.8 64-64 64zM384 767.884c0.034 0.040 0.074 0.082 0.114 0.116h255.772c0.042-0.034 0.082-0.076 0.118-0.116v-63.884h-256.004v63.884zM960 448h-128v-96c0-17.602-14.4-32-32-32h-64c-17.604 0-32 14.398-32 32v96h-384v-96c0-17.602-14.4-32-32-32h-64c-17.602 0-32 14.398-32 32v96h-128v64h896v-64z" />
<glyph unicode="&#xe9bc;" glyph-name="tree" d="M976 192h-16v208c0 61.756-50.242 112-112 112h-272v128h16c26.4 0 48 21.6 48 48v160c0 26.4-21.6 48-48 48h-160c-26.4 0-48-21.6-48-48v-160c0-26.4 21.6-48 48-48h16v-128h-272c-61.756 0-112-50.244-112-112v-208h-16c-26.4 0-48-21.6-48-48v-160c0-26.4 21.6-48 48-48h160c26.4 0 48 21.6 48 48v160c0 26.4-21.6 48-48 48h-16v192h256v-192h-16c-26.4 0-48-21.6-48-48v-160c0-26.4 21.6-48 48-48h160c26.4 0 48 21.6 48 48v160c0 26.4-21.6 48-48 48h-16v192h256v-192h-16c-26.4 0-48-21.6-48-48v-160c0-26.4 21.6-48 48-48h160c26.4 0 48 21.6 48 48v160c0 26.4-21.6 48-48 48zM192 0h-128v128h128v-128zM576 0h-128v128h128v-128zM448 704v128h128v-128h-128zM960 0h-128v128h128v-128z" />
<glyph unicode="&#xe9ca;" glyph-name="earth" d="M512 960c-282.77 0-512-229.23-512-512s229.23-512 512-512 512 229.23 512 512-229.23 512-512 512zM512-0.002c-62.958 0-122.872 13.012-177.23 36.452l233.148 262.29c5.206 5.858 8.082 13.422 8.082 21.26v96c0 17.674-14.326 32-32 32-112.99 0-232.204 117.462-233.374 118.626-6 6.002-14.14 9.374-22.626 9.374h-128c-17.672 0-32-14.328-32-32v-192c0-12.122 6.848-23.202 17.69-28.622l110.31-55.156v-187.886c-116.052 80.956-192 215.432-192 367.664 0 68.714 15.49 133.806 43.138 192h116.862c8.488 0 16.626 3.372 22.628 9.372l128 128c6 6.002 9.372 14.14 9.372 22.628v77.412c40.562 12.074 83.518 18.588 128 18.588 70.406 0 137.004-16.26 196.282-45.2-4.144-3.502-8.176-7.164-12.046-11.036-36.266-36.264-56.236-84.478-56.236-135.764s19.97-99.5 56.236-135.764c36.434-36.432 85.218-56.264 135.634-56.26 3.166 0 6.342 0.080 9.518 0.236 13.814-51.802 38.752-186.656-8.404-372.334-0.444-1.744-0.696-3.488-0.842-5.224-81.324-83.080-194.7-134.656-320.142-134.656z" />
<glyph unicode="&#xe9cc;" glyph-name="flag" d="M0 960h128v-1024h-128v1024zM832 316.998c82.624 0 154.57 19.984 192 49.5v512c-37.43-29.518-109.376-49.502-192-49.502s-154.57 19.984-192 49.502v-512c37.43-29.516 109.376-49.5 192-49.5zM608 927.472c-46.906 19.94-115.52 32.528-192 32.528-96.396 0-180.334-19.984-224-49.502v-512c43.666 29.518 127.604 49.502 224 49.502 76.48 0 145.094-12.588 192-32.528v512z" />
<glyph unicode="&#xe9cd;" glyph-name="attachment" d="M665.832 632.952l-64.952 64.922-324.81-324.742c-53.814-53.792-53.814-141.048 0-194.844 53.804-53.792 141.060-53.792 194.874 0l389.772 389.708c89.714 89.662 89.714 235.062 0 324.726-89.666 89.704-235.112 89.704-324.782 0l-409.23-409.178c-0.29-0.304-0.612-0.576-0.876-0.846-125.102-125.096-125.102-327.856 0-452.906 125.054-125.056 327.868-125.056 452.988 0 0.274 0.274 0.516 0.568 0.82 0.876l0.032-0.034 279.332 279.292-64.986 64.92-279.33-279.262c-0.296-0.268-0.564-0.57-0.846-0.844-89.074-89.058-233.98-89.058-323.076 0-89.062 89.042-89.062 233.922 0 322.978 0.304 0.304 0.604 0.582 0.888 0.846l-0.046 0.060 409.28 409.166c53.712 53.738 141.144 53.738 194.886 0 53.712-53.734 53.712-141.148 0-194.84l-389.772-389.7c-17.936-17.922-47.054-17.922-64.972 0-17.894 17.886-17.894 47.032 0 64.92l324.806 324.782z" />
<glyph unicode="&#xe9d7;" glyph-name="star-empty" d="M1024 562.95l-353.78 51.408-158.22 320.582-158.216-320.582-353.784-51.408 256-249.538-60.432-352.352 316.432 166.358 316.432-166.358-60.434 352.352 256.002 249.538zM512 206.502l-223.462-117.48 42.676 248.83-180.786 176.222 249.84 36.304 111.732 226.396 111.736-226.396 249.836-36.304-180.788-176.222 42.678-248.83-223.462 117.48z" />
<glyph unicode="&#xe9d8;" glyph-name="star-half" d="M1024 562.95l-353.78 51.408-158.22 320.582-158.216-320.582-353.784-51.408 256-249.538-60.432-352.352 316.432 166.358 316.432-166.358-60.434 352.352 256.002 249.538zM512 206.502l-0.942-0.496 0.942 570.768 111.736-226.396 249.836-36.304-180.788-176.222 42.678-248.83-223.462 117.48z" />
<glyph unicode="&#xe9d9;" glyph-name="star-full" d="M1024 562.95l-353.78 51.408-158.22 320.582-158.216-320.582-353.784-51.408 256-249.538-60.432-352.352 316.432 166.358 316.432-166.358-60.434 352.352 256.002 249.538z" />
<glyph unicode="&#xea07;" glyph-name="warning" d="M512 867.226l429.102-855.226h-858.206l429.104 855.226zM512 960c-22.070 0-44.14-14.882-60.884-44.648l-437.074-871.112c-33.486-59.532-5-108.24 63.304-108.24h869.308c68.3 0 96.792 48.708 63.3 108.24h0.002l-437.074 871.112c-16.742 29.766-38.812 44.648-60.882 44.648v0zM576 128c0-35.346-28.654-64-64-64s-64 28.654-64 64c0 35.346 28.654 64 64 64s64-28.654 64-64zM512 256c-35.346 0-64 28.654-64 64v192c0 35.346 28.654 64 64 64s64-28.654 64-64v-192c0-35.346-28.654-64-64-64z" />
<glyph unicode="&#xea08;" glyph-name="notification" d="M512 864c-111.118 0-215.584-43.272-294.156-121.844s-121.844-183.038-121.844-294.156c0-111.118 43.272-215.584 121.844-294.156s183.038-121.844 294.156-121.844c111.118 0 215.584 43.272 294.156 121.844s121.844 183.038 121.844 294.156c0 111.118-43.272 215.584-121.844 294.156s-183.038 121.844-294.156 121.844zM512 960v0c282.77 0 512-229.23 512-512s-229.23-512-512-512c-282.77 0-512 229.23-512 512s229.23 512 512 512zM448 256h128v-128h-128zM448 768h128v-384h-128z" />
<glyph unicode="&#xea09;" glyph-name="question" d="M448 256h128v-128h-128zM704 704c35.346 0 64-28.654 64-64v-192l-192-128h-128v64l192 128v64h-320v128h384zM512 864c-111.118 0-215.584-43.272-294.156-121.844s-121.844-183.038-121.844-294.156c0-111.118 43.272-215.584 121.844-294.156s183.038-121.844 294.156-121.844c111.118 0 215.584 43.272 294.156 121.844s121.844 183.038 121.844 294.156c0 111.118-43.272 215.584-121.844 294.156s-183.038 121.844-294.156 121.844zM512 960v0c282.77 0 512-229.23 512-512s-229.23-512-512-512c-282.77 0-512 229.23-512 512s229.23 512 512 512z" />
<glyph unicode="&#xea0a;" glyph-name="plus" d="M992 576h-352v352c0 17.672-14.328 32-32 32h-192c-17.672 0-32-14.328-32-32v-352h-352c-17.672 0-32-14.328-32-32v-192c0-17.672 14.328-32 32-32h352v-352c0-17.672 14.328-32 32-32h192c17.672 0 32 14.328 32 32v352h352c17.672 0 32 14.328 32 32v192c0 17.672-14.328 32-32 32z" />
<glyph unicode="&#xea0b;" glyph-name="minus" d="M0 544v-192c0-17.672 14.328-32 32-32h960c17.672 0 32 14.328 32 32v192c0 17.672-14.328 32-32 32h-960c-17.672 0-32-14.328-32-32z" />
<glyph unicode="&#xea0c;" glyph-name="info" d="M448 656c0 26.4 21.6 48 48 48h32c26.4 0 48-21.6 48-48v-32c0-26.4-21.6-48-48-48h-32c-26.4 0-48 21.6-48 48v32zM640 192h-256v64h64v192h-64v64h192v-256h64zM512 960c-282.77 0-512-229.23-512-512s229.23-512 512-512 512 229.23 512 512-229.23 512-512 512zM512 32c-229.75 0-416 186.25-416 416s186.25 416 416 416 416-186.25 416-416-186.25-416-416-416z" />
<glyph unicode="&#xea0d;" glyph-name="cancel-circle" d="M512 960c-282.77 0-512-229.23-512-512s229.23-512 512-512 512 229.23 512 512-229.23 512-512 512zM512 32c-229.75 0-416 186.25-416 416s186.25 416 416 416 416-186.25 416-416-186.25-416-416-416zM672 704l-160-160-160 160-96-96 160-160-160-160 96-96 160 160 160-160 96 96-160 160 160 160z" />
<glyph unicode="&#xea0f;" glyph-name="cross" d="M1014.662 137.34c-0.004 0.004-0.008 0.008-0.012 0.010l-310.644 310.65 310.644 310.65c0.004 0.004 0.008 0.006 0.012 0.010 3.344 3.346 5.762 7.254 7.312 11.416 4.246 11.376 1.824 24.682-7.324 33.83l-146.746 146.746c-9.148 9.146-22.45 11.566-33.828 7.32-4.16-1.55-8.070-3.968-11.418-7.31 0-0.004-0.004-0.006-0.008-0.010l-310.648-310.652-310.648 310.65c-0.004 0.004-0.006 0.006-0.010 0.010-3.346 3.342-7.254 5.76-11.414 7.31-11.38 4.248-24.682 1.826-33.83-7.32l-146.748-146.748c-9.148-9.148-11.568-22.452-7.322-33.828 1.552-4.16 3.97-8.072 7.312-11.416 0.004-0.002 0.006-0.006 0.010-0.010l310.65-310.648-310.65-310.652c-0.002-0.004-0.006-0.006-0.008-0.010-3.342-3.346-5.76-7.254-7.314-11.414-4.248-11.376-1.826-24.682 7.322-33.83l146.748-146.746c9.15-9.148 22.452-11.568 33.83-7.322 4.16 1.552 8.070 3.97 11.416 7.312 0.002 0.004 0.006 0.006 0.010 0.010l310.648 310.65 310.648-310.65c0.004-0.002 0.008-0.006 0.012-0.008 3.348-3.344 7.254-5.762 11.414-7.314 11.378-4.246 24.684-1.826 33.828 7.322l146.746 146.748c9.148 9.148 11.57 22.454 7.324 33.83-1.552 4.16-3.97 8.068-7.314 11.414z" />
<glyph unicode="&#xea10;" glyph-name="checkmark" d="M864 832l-480-480-224 224-160-160 384-384 640 640z" />
<glyph unicode="&#xea11;" glyph-name="checkmark2" d="M397.434 42.304l-397.868 391.6 197.378 194.27 200.49-197.332 429.62 422.852 197.378-194.27-626.998-617.12zM107.912 433.904l289.524-284.962 518.656 510.482-89.036 87.632-429.62-422.852-200.49 197.334-89.034-87.634z" />
<glyph unicode="&#xea2e;" glyph-name="loop2" d="M889.68 793.68c-93.608 102.216-228.154 166.32-377.68 166.32-282.77 0-512-229.23-512-512h96c0 229.75 186.25 416 416 416 123.020 0 233.542-53.418 309.696-138.306l-149.696-149.694h352v352l-134.32-134.32zM928 448c0-229.75-186.25-416-416-416-123.020 0-233.542 53.418-309.694 138.306l149.694 149.694h-352v-352l134.32 134.32c93.608-102.216 228.154-166.32 377.68-166.32 282.77 0 512 229.23 512 512h-96z" />
<glyph unicode="&#xea30;" glyph-name="shuffle" d="M768 256h-101.49l-160 160 160 160h101.49v-160l224 224-224 224v-160h-128c-16.974 0-33.252-6.744-45.254-18.746l-178.746-178.744-178.746 178.746c-12 12-28.28 18.744-45.254 18.744h-192v-128h165.49l160-160-160-160h-165.49v-128h192c16.974 0 33.252 6.742 45.254 18.746l178.746 178.744 178.746-178.744c12.002-12.004 28.28-18.746 45.254-18.746h128v-160l224 224-224 224v-160z" />
<glyph unicode="&#xea3c;" glyph-name="arrow-right2" d="M621.254 82.746l320 320c24.994 24.992 24.994 65.516 0 90.51l-320 320c-24.994 24.992-65.516 24.992-90.51 0-24.994-24.994-24.994-65.516 0-90.51l210.746-210.746h-613.49c-35.346 0-64-28.654-64-64s28.654-64 64-64h613.49l-210.746-210.746c-12.496-12.496-18.744-28.876-18.744-45.254s6.248-32.758 18.744-45.254c24.994-24.994 65.516-24.994 90.51 0z" />
<glyph unicode="&#xea40;" glyph-name="arrow-left2" d="M402.746 82.746l-320 320c-24.994 24.992-24.994 65.516 0 90.51l320 320c24.994 24.992 65.516 24.992 90.51 0 24.994-24.994 24.994-65.516 0-90.51l-210.746-210.746h613.49c35.346 0 64-28.654 64-64s-28.654-64-64-64h-613.49l210.746-210.746c12.496-12.496 18.744-28.876 18.744-45.254s-6.248-32.758-18.744-45.254c-24.994-24.994-65.516-24.994-90.51 0z" />
<glyph unicode="&#xea48;" glyph-name="sort-alpha-asc" d="M320 192v768h-128v-768h-160l224-224 224 224h-160zM928-64h-256c-11.8 0-22.644 6.496-28.214 16.9-5.566 10.404-4.958 23.030 1.59 32.85l222.832 334.25h-196.208c-17.672 0-32 14.328-32 32s14.328 32 32 32h256c11.8 0 22.644-6.496 28.214-16.9 5.566-10.404 4.958-23.030-1.59-32.85l-222.83-334.25h196.206c17.672 0 32-14.328 32-32s-14.328-32-32-32zM1020.622 558.314l-192.002 384c-5.42 10.842-16.502 17.69-28.622 17.69-12.122 0-23.202-6.848-28.624-17.69l-191.996-384c-7.904-15.806-1.496-35.030 14.31-42.932 4.594-2.296 9.476-3.386 14.288-3.386 11.736 0 23.040 6.484 28.644 17.698l55.156 110.31h216.446l55.156-110.31c7.902-15.806 27.124-22.21 42.932-14.31 15.808 7.902 22.216 27.124 14.312 42.93zM723.778 704.004l76.22 152.446 76.224-152.446h-152.444z" />
<glyph unicode="&#xea49;" glyph-name="sort-alpha-desc" d="M320 192v768h-128v-768h-160l224-224 224 224h-160zM928 512h-256c-11.8 0-22.644 6.496-28.214 16.9-5.566 10.406-4.958 23.030 1.59 32.85l222.832 334.25h-196.208c-17.672 0-32 14.328-32 32s14.328 32 32 32h256c11.8 0 22.644-6.496 28.214-16.9 5.566-10.406 4.958-23.030-1.59-32.85l-222.83-334.25h196.206c17.672 0 32-14.328 32-32s-14.328-32-32-32zM1020.622-17.69l-192.002 384c-5.42 10.842-16.502 17.69-28.622 17.69-12.122 0-23.202-6.848-28.624-17.69l-191.996-384c-7.904-15.806-1.496-35.030 14.31-42.932 4.594-2.296 9.476-3.386 14.288-3.386 11.736 0 23.040 6.484 28.644 17.698l55.158 110.31h216.446l55.156-110.31c7.902-15.806 27.124-22.21 42.932-14.31 15.806 7.902 22.214 27.124 14.31 42.93zM723.778 128l76.22 152.446 76.226-152.446h-152.446z" />
<glyph unicode="&#xea4a;" glyph-name="sort-numeric-asc" d="M320 192v768h-128v-768h-160l224-224 224 224h-160zM864 512c-17.674 0-32 14.328-32 32v352h-32c-17.674 0-32 14.328-32 32s14.326 32 32 32h64c17.674 0 32-14.328 32-32v-384c0-17.672-14.326-32-32-32zM928 384h-192c-17.674 0-32-14.326-32-32v-192c0-17.674 14.326-32 32-32h160v-128h-160c-17.674 0-32-14.326-32-32s14.326-32 32-32h192c17.674 0 32 14.326 32 32v384c0 17.674-14.326 32-32 32zM768 320h128v-128h-128v128z" />
<glyph unicode="&#xea4b;" glyph-name="sort-numberic-desc" d="M320 192v768h-128v-768h-160l224-224 224 224h-160zM864-64c-17.674 0-32 14.328-32 32v352h-32c-17.674 0-32 14.328-32 32s14.326 32 32 32h64c17.674 0 32-14.328 32-32v-384c0-17.672-14.326-32-32-32zM928 960h-192c-17.674 0-32-14.326-32-32v-192c0-17.674 14.326-32 32-32h160v-128h-160c-17.674 0-32-14.326-32-32s14.326-32 32-32h192c17.674 0 32 14.326 32 32v384c0 17.674-14.326 32-32 32zM768 896h128v-128h-128v128z" />
<glyph unicode="&#xea4c;" glyph-name="sort-amount-asc" d="M320 192v768h-128v-768h-160l224-224 224 224h-160zM448 384h576v-128h-576v128zM448 576h448v-128h-448v128zM448 768h320v-128h-320v128zM448 960h192v-128h-192v128z" />
<glyph unicode="&#xea4d;" glyph-name="sort-amount-desc" d="M320 192v768h-128v-768h-160l224-224 224 224h-160zM448 960h576v-128h-576v128zM448 768h448v-128h-448v128zM448 576h320v-128h-320v128zM448 384h192v-128h-192v128z" />
<glyph unicode="&#xea4e;" glyph-name="command" d="M736 64c-88.224 0-160 71.776-160 160v96h-128v-96c0-88.224-71.776-160-160-160s-160 71.776-160 160 71.776 160 160 160h96v128h-96c-88.224 0-160 71.776-160 160s71.776 160 160 160 160-71.776 160-160v-96h128v96c0 88.224 71.776 160 160 160s160-71.776 160-160-71.776-160-160-160h-96v-128h96c88.224 0 160-71.776 160-160s-71.774-160-160-160zM640 320v-96c0-52.934 43.066-96 96-96s96 43.066 96 96-43.066 96-96 96h-96zM288 320c-52.934 0-96-43.066-96-96s43.066-96 96-96 96 43.066 96 96v96h-96zM448 384h128v128h-128v-128zM640 576h96c52.934 0 96 43.066 96 96s-43.066 96-96 96-96-43.066-96-96v-96zM288 768c-52.934 0-96-43.066-96-96s43.066-96 96-96h96v96c0 52.934-43.064 96-96 96z" />
<glyph unicode="&#xea5b;" glyph-name="filter" d="M512 960c-282.77 0-512-71.634-512-160v-96l384-384v-320c0-35.346 57.306-64 128-64 70.692 0 128 28.654 128 64v320l384 384v96c0 88.366-229.23 160-512 160zM94.384 821.176c23.944 13.658 57.582 26.62 97.278 37.488 87.944 24.076 201.708 37.336 320.338 37.336 118.628 0 232.394-13.26 320.338-37.336 39.696-10.868 73.334-23.83 97.28-37.488 15.792-9.006 24.324-16.624 28.296-21.176-3.972-4.552-12.506-12.168-28.296-21.176-23.946-13.658-57.584-26.62-97.28-37.488-87.942-24.076-201.708-37.336-320.338-37.336s-232.394 13.26-320.338 37.336c-39.696 10.868-73.334 23.83-97.278 37.488-15.792 9.008-24.324 16.624-28.298 21.176 3.974 4.552 12.506 12.168 28.298 21.176z" />
<glyph unicode="&#xea88;" glyph-name="google" d="M522.2 521.2v-175.6h290.4c-11.8-75.4-87.8-220.8-290.4-220.8-174.8 0-317.4 144.8-317.4 323.2s142.6 323.2 317.4 323.2c99.4 0 166-42.4 204-79l139 133.8c-89.2 83.6-204.8 134-343 134-283 0-512-229-512-512s229-512 512-512c295.4 0 491.6 207.8 491.6 500.2 0 33.6-3.6 59.2-8 84.8l-483.6 0.2z" />
<glyph unicode="&#xea89;" glyph-name="google2" d="M928 960h-832c-52.8 0-96-43.2-96-96v-832c0-52.8 43.2-96 96-96h832c52.8 0 96 43.2 96 96v832c0 52.8-43.2 96-96 96zM519.6 64c-212.2 0-384 171.8-384 384s171.8 384 384 384c103.6 0 190.4-37.8 257.2-100.4l-104.2-100.4c-28.6 27.4-78.4 59.2-153 59.2-131.2 0-238-108.6-238-242.4s107-242.4 238-242.4c152 0 209 109.2 217.8 165.6h-217.8v131.6h362.6c3.2-19.2 6-38.4 6-63.6 0.2-219.4-146.8-375.2-368.6-375.2z" />
<glyph unicode="&#xea90;" glyph-name="facebook" d="M608 768h160v192h-160c-123.514 0-224-100.486-224-224v-96h-128v-192h128v-512h192v512h160l32 192h-192v96c0 17.346 14.654 32 32 32z" />
<glyph unicode="&#xea91;" glyph-name="facebook2" d="M928 960h-832c-52.8 0-96-43.2-96-96v-832c0-52.8 43.2-96 96-96h416v448h-128v128h128v64c0 105.8 86.2 192 192 192h128v-128h-128c-35.2 0-64-28.8-64-64v-64h192l-32-128h-160v-448h288c52.8 0 96 43.2 96 96v832c0 52.8-43.2 96-96 96z" />
<glyph unicode="&#xea92;" glyph-name="instagram" d="M512 867.8c136.8 0 153-0.6 206.8-3 50-2.2 77-10.6 95-17.6 23.8-9.2 41-20.4 58.8-38.2 18-18 29-35 38.4-58.8 7-18 15.4-45.2 17.6-95 2.4-54 3-70.2 3-206.8s-0.6-153-3-206.8c-2.2-50-10.6-77-17.6-95-9.2-23.8-20.4-41-38.2-58.8-18-18-35-29-58.8-38.4-18-7-45.2-15.4-95-17.6-54-2.4-70.2-3-206.8-3s-153 0.6-206.8 3c-50 2.2-77 10.6-95 17.6-23.8 9.2-41 20.4-58.8 38.2-18 18-29 35-38.4 58.8-7 18-15.4 45.2-17.6 95-2.4 54-3 70.2-3 206.8s0.6 153 3 206.8c2.2 50 10.6 77 17.6 95 9.2 23.8 20.4 41 38.2 58.8 18 18 35 29 58.8 38.4 18 7 45.2 15.4 95 17.6 53.8 2.4 70 3 206.8 3zM512 960c-139 0-156.4-0.6-211-3-54.4-2.4-91.8-11.2-124.2-23.8-33.8-13.2-62.4-30.6-90.8-59.2-28.6-28.4-46-57-59.2-90.6-12.6-32.6-21.4-69.8-23.8-124.2-2.4-54.8-3-72.2-3-211.2s0.6-156.4 3-211c2.4-54.4 11.2-91.8 23.8-124.2 13.2-33.8 30.6-62.4 59.2-90.8 28.4-28.4 57-46 90.6-59 32.6-12.6 69.8-21.4 124.2-23.8 54.6-2.4 72-3 211-3s156.4 0.6 211 3c54.4 2.4 91.8 11.2 124.2 23.8 33.6 13 62.2 30.6 90.6 59s46 57 59 90.6c12.6 32.6 21.4 69.8 23.8 124.2 2.4 54.6 3 72 3 211s-0.6 156.4-3 211c-2.4 54.4-11.2 91.8-23.8 124.2-12.6 34-30 62.6-58.6 91-28.4 28.4-57 46-90.6 59-32.6 12.6-69.8 21.4-124.2 23.8-54.8 2.6-72.2 3.2-211.2 3.2v0zM512 711c-145.2 0-263-117.8-263-263s117.8-263 263-263 263 117.8 263 263c0 145.2-117.8 263-263 263zM512 277.4c-94.2 0-170.6 76.4-170.6 170.6s76.4 170.6 170.6 170.6c94.2 0 170.6-76.4 170.6-170.6s-76.4-170.6-170.6-170.6zM846.8 721.4c0-33.91-27.49-61.4-61.4-61.4s-61.4 27.49-61.4 61.4c0 33.91 27.49 61.4 61.4 61.4s61.4-27.49 61.4-61.4z" />
<glyph unicode="&#xea93;" glyph-name="whatsapp" d="M873 811.2c-95.8 96-223.2 148.8-359 148.8-279.6 0-507.2-227.6-507.2-507.4 0-89.4 23.4-176.8 67.8-253.6l-72-263 269 70.6c74.2-40.4 157.6-61.8 242.4-61.8h0.2c0 0 0 0 0 0 279.6 0 507.4 227.6 507.4 507.4 0 135.6-52.8 263-148.6 359zM514.2 30.4v0c-75.8 0-150 20.4-214.8 58.8l-15.4 9.2-159.6-41.8 42.6 155.6-10 16c-42.4 67-64.6 144.6-64.6 224.4 0 232.6 189.2 421.8 422 421.8 112.6 0 218.6-44 298.2-123.6 79.6-79.8 123.4-185.6 123.4-298.4-0.2-232.8-189.4-422-421.8-422zM745.4 346.4c-12.6 6.4-75 37-86.6 41.2s-20 6.4-28.6-6.4c-8.4-12.6-32.8-41.2-40.2-49.8-7.4-8.4-14.8-9.6-27.4-3.2s-53.6 19.8-102 63c-37.6 33.6-63.2 75.2-70.6 87.8s-0.8 19.6 5.6 25.8c5.8 5.6 12.6 14.8 19 22.2s8.4 12.6 12.6 21.2c4.2 8.4 2.2 15.8-1 22.2s-28.6 68.8-39 94.2c-10.2 24.8-20.8 21.4-28.6 21.8-7.4 0.4-15.8 0.4-24.2 0.4s-22.2-3.2-33.8-15.8c-11.6-12.6-44.4-43.4-44.4-105.8s45.4-122.6 51.8-131.2c6.4-8.4 89.4-136.6 216.6-191.4 30.2-13 53.8-20.8 72.2-26.8 30.4-9.6 58-8.2 79.8-5 24.4 3.6 75 30.6 85.6 60.2s10.6 55 7.4 60.2c-3 5.6-11.4 8.8-24.2 15.2z" />
<glyph unicode="&#xea96;" glyph-name="twitter" d="M1024 733.6c-37.6-16.8-78.2-28-120.6-33 43.4 26 76.6 67.2 92.4 116.2-40.6-24-85.6-41.6-133.4-51-38.4 40.8-93 66.2-153.4 66.2-116 0-210-94-210-210 0-16.4 1.8-32.4 5.4-47.8-174.6 8.8-329.4 92.4-433 219.6-18-31-28.4-67.2-28.4-105.6 0-72.8 37-137.2 93.4-174.8-34.4 1-66.8 10.6-95.2 26.2 0-0.8 0-1.8 0-2.6 0-101.8 72.4-186.8 168.6-206-17.6-4.8-36.2-7.4-55.4-7.4-13.6 0-26.6 1.4-39.6 3.8 26.8-83.4 104.4-144.2 196.2-146-72-56.4-162.4-90-261-90-17 0-33.6 1-50.2 3 93.2-59.8 203.6-94.4 322.2-94.4 386.4 0 597.8 320.2 597.8 597.8 0 9.2-0.2 18.2-0.6 27.2 41 29.4 76.6 66.4 104.8 108.6z" />
<glyph unicode="&#xea9d;" glyph-name="youtube" d="M1013.8 652.8c0 0-10 70.6-40.8 101.6-39 40.8-82.6 41-102.6 43.4-143.2 10.4-358.2 10.4-358.2 10.4h-0.4c0 0-215 0-358.2-10.4-20-2.4-63.6-2.6-102.6-43.4-30.8-31-40.6-101.6-40.6-101.6s-10.2-82.8-10.2-165.8v-77.6c0-82.8 10.2-165.8 10.2-165.8s10-70.6 40.6-101.6c39-40.8 90.2-39.4 113-43.8 82-7.8 348.2-10.2 348.2-10.2s215.2 0.4 358.4 10.6c20 2.4 63.6 2.6 102.6 43.4 30.8 31 40.8 101.6 40.8 101.6s10.2 82.8 10.2 165.8v77.6c-0.2 82.8-10.4 165.8-10.4 165.8zM406.2 315.2v287.8l276.6-144.4-276.6-143.4z" />
<glyph unicode="&#xeaa4;" glyph-name="flickr2" d="M800 544c-70.58 0-128-57.42-128-128s57.42-128 128-128c70.58 0 128 57.42 128 128s-57.42 128-128 128zM800 640v0c123.71 0 224-100.288 224-224 0-123.71-100.29-224-224-224s-224 100.29-224 224c0 123.712 100.29 224 224 224zM0 416c0 123.712 100.288 224 224 224s224-100.288 224-224c0-123.712-100.288-224-224-224s-224 100.288-224 224z" />
<glyph unicode="&#xeabe;" glyph-name="appleinc" d="M791.498 415.908c-1.294 129.682 105.758 191.876 110.542 194.966-60.152 88.020-153.85 100.078-187.242 101.472-79.742 8.074-155.596-46.948-196.066-46.948-40.368 0-102.818 45.754-168.952 44.552-86.916-1.292-167.058-50.538-211.812-128.38-90.304-156.698-23.126-388.84 64.89-515.926 43.008-62.204 94.292-132.076 161.626-129.58 64.842 2.588 89.362 41.958 167.756 41.958s100.428-41.958 169.050-40.67c69.774 1.296 113.982 63.398 156.692 125.796 49.39 72.168 69.726 142.038 70.924 145.626-1.548 0.706-136.060 52.236-137.408 207.134zM662.562 796.478c35.738 43.358 59.86 103.512 53.28 163.522-51.478-2.096-113.878-34.29-150.81-77.55-33.142-38.376-62.148-99.626-54.374-158.436 57.466-4.484 116.128 29.204 151.904 72.464z" />
<glyph unicode="&#xeac0;" glyph-name="android" d="M896 576c-35.2 0-64-28.8-64-64v-256c0-35.2 28.8-64 64-64s64 28.8 64 64v256c0 35.2-28.8 64-64 64zM128 576c-35.2 0-64-28.8-64-64v-256c0-35.2 28.8-64 64-64s64 28.8 64 64v256c0 35.2-28.802 64-64 64zM224 224c0-53.020 42.98-96 96-96v0-128c0-35.2 28.8-64 64-64s64 28.8 64 64v128h128v-128c0-35.2 28.8-64 64-64s64 28.8 64 64v128c53.020 0 96 42.98 96 96v352h-576v-352zM798.216 639.998c-9.716 87.884-59.004 163.792-129.62 209.646l32.024 64.046c7.904 15.806 1.496 35.028-14.31 42.932s-35.030 1.496-42.932-14.312l-32.142-64.286-8.35 3.316c-28.568 9.502-59.122 14.66-90.886 14.66-31.762 0-62.316-5.158-90.888-14.656l-8.348-3.316-32.142 64.282c-7.904 15.808-27.128 22.212-42.932 14.312-15.808-7.904-22.214-27.126-14.312-42.932l32.022-64.046c-70.616-45.852-119.904-121.762-129.622-209.644v-32h574.222v31.998h-1.784zM416 704c-17.674 0-32 14.328-32 32 0 17.648 14.288 31.958 31.93 31.996 0.032 0 0.062-0.002 0.094-0.002 0.018 0 0.036 0.002 0.052 0.002 17.638-0.042 31.924-14.35 31.924-31.996 0-17.672-14.326-32-32-32zM608 704c-17.674 0-32 14.328-32 32 0 17.646 14.286 31.954 31.924 31.996 0.016 0 0.034-0.002 0.050-0.002 0.032 0 0.064 0.002 0.096 0.002 17.64-0.038 31.93-14.348 31.93-31.996 0-17.672-14.326-32-32-32z" />
<glyph unicode="&#xeac9;" glyph-name="linkedin" d="M928 960h-832c-52.8 0-96-43.2-96-96v-832c0-52.8 43.2-96 96-96h832c52.8 0 96 43.2 96 96v832c0 52.8-43.2 96-96 96zM384 128h-128v448h128v-448zM320 640c-35.4 0-64 28.6-64 64s28.6 64 64 64c35.4 0 64-28.6 64-64s-28.6-64-64-64zM832 128h-128v256c0 35.4-28.6 64-64 64s-64-28.6-64-64v-256h-128v448h128v-79.4c26.4 36.2 66.8 79.4 112 79.4 79.6 0 144-71.6 144-160v-288z" />
<glyph unicode="&#xeaca;" glyph-name="linkedin2" d="M384 576h177.106v-90.782h2.532c24.64 44.194 84.958 90.782 174.842 90.782 186.946 0 221.52-116.376 221.52-267.734v-308.266h-184.61v273.278c0 65.184-1.334 149.026-96.028 149.026-96.148 0-110.82-70.986-110.82-144.292v-278.012h-184.542v576zM64 576h192v-576h-192v576zM256 736c0-53.019-42.981-96-96-96s-96 42.981-96 96c0 53.019 42.981 96 96 96s96-42.981 96-96z" />
<glyph unicode="&#xead0;" glyph-name="stackoverflow" d="M1024 320v-384h-1024v384h128v-256h768v256zM192 256h640v-128h-640zM207.152 394.534l27.698 124.964 624.832-138.496-27.698-124.964zM279.658 651.442l54.092 116.006 580.032-270.464-54.092-116.006zM991.722 598.524l-77.922-101.55-507.746 389.608 56.336 73.418h58.244z" />
<glyph unicode="&#xeadf;" glyph-name="file-pdf" d="M842.012 370.52c-13.648 13.446-43.914 20.566-89.972 21.172-31.178 0.344-68.702-2.402-108.17-7.928-17.674 10.198-35.892 21.294-50.188 34.658-38.462 35.916-70.568 85.772-90.576 140.594 1.304 5.12 2.414 9.62 3.448 14.212 0 0 21.666 123.060 15.932 164.666-0.792 5.706-1.276 7.362-2.808 11.796l-1.882 4.834c-5.894 13.592-17.448 27.994-35.564 27.208l-10.916 0.344c-20.202 0-36.664-10.332-40.986-25.774-13.138-48.434 0.418-120.892 24.98-214.738l-6.288-15.286c-17.588-42.876-39.63-86.060-59.078-124.158l-2.528-4.954c-20.46-40.040-39.026-74.028-55.856-102.822l-17.376-9.188c-1.264-0.668-31.044-16.418-38.028-20.644-59.256-35.38-98.524-75.542-105.038-107.416-2.072-10.17-0.53-23.186 10.014-29.212l16.806-8.458c7.292-3.652 14.978-5.502 22.854-5.502 42.206 0 91.202 52.572 158.698 170.366 77.93 25.37 166.652 46.458 244.412 58.090 59.258-33.368 132.142-56.544 178.142-56.544 8.168 0 15.212 0.78 20.932 2.294 8.822 2.336 16.258 7.368 20.792 14.194 8.926 13.432 10.734 31.932 8.312 50.876-0.72 5.622-5.21 12.574-10.068 17.32zM211.646 145.952c7.698 21.042 38.16 62.644 83.206 99.556 2.832 2.296 9.808 8.832 16.194 14.902-47.104-75.124-78.648-105.066-99.4-114.458zM478.434 760.314c13.566 0 21.284-34.194 21.924-66.254s-6.858-54.56-16.158-71.208c-7.702 24.648-11.426 63.5-11.426 88.904 0 0-0.566 48.558 5.66 48.558v0zM398.852 322.506c9.45 16.916 19.282 34.756 29.33 53.678 24.492 46.316 39.958 82.556 51.478 112.346 22.91-41.684 51.444-77.12 84.984-105.512 4.186-3.542 8.62-7.102 13.276-10.65-68.21-13.496-127.164-29.91-179.068-49.862v0zM828.902 326.348c-4.152-2.598-16.052-4.1-23.708-4.1-24.708 0-55.272 11.294-98.126 29.666 16.468 1.218 31.562 1.838 45.102 1.838 24.782 0 32.12 0.108 56.35-6.072 24.228-6.18 24.538-18.734 20.382-21.332v0zM917.806 730.924c-22.21 30.292-53.174 65.7-87.178 99.704s-69.412 64.964-99.704 87.178c-51.574 37.82-76.592 42.194-90.924 42.194h-496c-44.112 0-80-35.888-80-80v-864c0-44.112 35.886-80 80-80h736c44.112 0 80 35.888 80 80v624c0 14.332-4.372 39.35-42.194 90.924v0zM785.374 785.374c30.7-30.7 54.8-58.398 72.58-81.374h-153.954v153.946c22.982-17.78 50.678-41.878 81.374-72.572v0zM896 16c0-8.672-7.328-16-16-16h-736c-8.672 0-16 7.328-16 16v864c0 8.672 7.328 16 16 16 0 0 495.956 0.002 496 0v-224c0-17.672 14.324-32 32-32h224v-624z" />
<glyph unicode="&#xeae1;" glyph-name="file-word" d="M639.778 484.108h44.21l-51.012-226.178-66.324 318.010h-106.55l-77.114-318.010-57.816 318.010h-111.394l113.092-511.88h108.838l76.294 302.708 68.256-302.708h100.336l129.628 511.88h-170.446v-91.832zM917.806 730.924c-22.21 30.292-53.174 65.7-87.178 99.704s-69.412 64.964-99.704 87.178c-51.574 37.82-76.592 42.194-90.924 42.194h-496c-44.112 0-80-35.888-80-80v-864c0-44.112 35.886-80 80-80h736c44.112 0 80 35.888 80 80v624c0 14.332-4.372 39.35-42.194 90.924v0zM785.374 785.374c30.7-30.7 54.8-58.398 72.58-81.374h-153.954v153.946c22.982-17.78 50.678-41.878 81.374-72.572v0zM896 16c0-8.672-7.328-16-16-16h-736c-8.672 0-16 7.328-16 16v864c0 8.672 7.328 16 16 16 0 0 495.956 0.002 496 0v-224c0-17.672 14.324-32 32-32h224v-624z" />
<glyph unicode="&#xeae2;" glyph-name="file-excel" d="M743.028 576h-135.292l-95.732-141.032-95.742 141.032h-135.29l162.162-242.464-182.972-269.536h251.838v91.576h-50.156l50.156 74.994 111.396-166.57h140.444l-182.976 269.536 162.164 242.464zM917.806 730.924c-22.21 30.292-53.174 65.7-87.178 99.704s-69.412 64.964-99.704 87.178c-51.574 37.82-76.592 42.194-90.924 42.194h-496c-44.112 0-80-35.888-80-80v-864c0-44.112 35.886-80 80-80h736c44.112 0 80 35.888 80 80v624c0 14.332-4.372 39.35-42.194 90.924v0zM785.374 785.374c30.7-30.7 54.8-58.398 72.58-81.374h-153.954v153.946c22.982-17.78 50.678-41.878 81.374-72.572v0zM896 16c0-8.672-7.328-16-16-16h-736c-8.672 0-16 7.328-16 16v864c0 8.672 7.328 16 16 16 0 0 495.956 0.002 496 0v-224c0-17.672 14.324-32 32-32h224v-624z" />
</font></defs></svg>