<svg xmlns="http://www.w3.org/2000/svg" width="80" height="80" viewBox="0 0 80 80">
  <g id="Group_20" data-name="Group 20" transform="translate(-733 -396)">
    <path id="Path_37" data-name="Path 37" d="M40,0A40,40,0,1,1,0,40,40,40,0,0,1,40,0Z" transform="translate(733 396)" fill="#ddd"/>
    <path id="Path_18" data-name="Path 18" d="M133.094,209.083a5.47,5.47,0,0,1,1.127,1.785,5.405,5.405,0,0,1,.471,2.067v27.054a2.245,2.245,0,0,1-2.255,2.255H100.873a2.243,2.243,0,0,1-2.255-2.255V202.413a2.245,2.245,0,0,1,2.255-2.255h21.042a5.421,5.421,0,0,1,2.067.47,5.5,5.5,0,0,1,1.785,1.127Zm-1.409,30.155V215.189h-9.77a2.243,2.243,0,0,1-2.254-2.254v-9.771H101.624v36.074Zm-24.049-20.291a.726.726,0,0,1,.752-.752h16.533a.726.726,0,0,1,.752.752v1.5a.724.724,0,0,1-.752.751H108.388a.724.724,0,0,1-.752-.751Zm17.285,5.26a.726.726,0,0,1,.752.752v1.5a.726.726,0,0,1-.752.752H108.388a.726.726,0,0,1-.752-.752v-1.5a.726.726,0,0,1,.752-.752Zm0,6.013a.724.724,0,0,1,.752.751v1.5a.724.724,0,0,1-.752.751H108.388a.724.724,0,0,1-.752-.751v-1.5a.724.724,0,0,1,.752-.751Zm-2.254-26.867v8.83h8.83a2.543,2.543,0,0,0-.517-.963l-7.35-7.35A2.543,2.543,0,0,0,122.667,203.353Z" transform="translate(656.382 214.842)" fill="#255c9d"/>
  </g>
</svg>
