<svg xmlns="http://www.w3.org/2000/svg" xmlns:xlink="http://www.w3.org/1999/xlink" width="1085" height="1100" viewBox="0 0 1085 1100">
  <defs>
    <linearGradient id="linear-gradient" x1="0.5" x2="0.5" y2="1" gradientUnits="objectBoundingBox">
      <stop offset="0" stop-opacity="0.251"/>
      <stop offset="1" stop-color="#fff" stop-opacity="0"/>
    </linearGradient>
    <clipPath id="clip-grid-design-smartphone-results">
      <rect width="1085" height="1100"/>
    </clipPath>
  </defs>
  <g id="grid-design-smartphone-results" clip-path="url(#clip-grid-design-smartphone-results)">
    <rect width="1085" height="1100" fill="#fff"/>
    <g id="Grupo_94" data-name="Grupo 94" transform="translate(-154 -20)">
      <g id="Grupo_96" data-name="Grupo 96">
        <g id="Grupo_88" data-name="Grupo 88" transform="translate(517.432 83)">
          <g id="Rectángulo_314" data-name="Rectángulo 314" transform="translate(0 0)" fill="#4977ac" stroke="#95989a" stroke-width="1">
            <rect width="356.581" height="74.583" stroke="none"/>
            <rect x="0.5" y="0.5" width="355.581" height="73.583" fill="none"/>
          </g>
        </g>
        <g id="Rectángulo_459" data-name="Rectángulo 459" transform="translate(517 169.613)" fill="#4977ac" stroke="#707070" stroke-width="1">
          <rect width="357.445" height="207.705" stroke="none"/>
          <rect x="0.5" y="0.5" width="356.445" height="206.705" fill="none"/>
        </g>
        <g id="Rectángulo_460" data-name="Rectángulo 460" transform="translate(517 389.753)" fill="#4977ac" stroke="#707070" stroke-width="1">
          <rect width="357.445" height="473.705" stroke="none"/>
          <rect x="0.5" y="0.5" width="356.445" height="472.705" fill="none"/>
        </g>
        <rect id="Rectángulo_2106" data-name="Rectángulo 2106" width="357.445" height="207.705" transform="translate(517 877.034)" fill="#395c84"/>
        <text id="A" transform="translate(695.517 131.015)" fill="#fff" font-size="38" font-family="Arial-Black, Arial Black" font-weight="800"><tspan x="-14.779" y="0">A</tspan></text>
        <text id="B" transform="translate(695.72 287.602)" fill="#fff" font-size="37" font-family="Arial-Black, Arial Black" font-weight="800"><tspan x="-14.39" y="0">B</tspan></text>
        <text id="C" transform="translate(695.72 641.742)" fill="#fff" font-size="37" font-family="Arial-Black, Arial Black" font-weight="800"><tspan x="-14.39" y="0">C</tspan></text>
        <text id="D" transform="translate(695.517 996.023)" fill="#fff" font-size="37" font-family="Arial-Black, Arial Black" font-weight="800"><tspan x="-14.39" y="0">D</tspan></text>
      </g>
    </g>
    <g id="Grupo_95" data-name="Grupo 95" transform="translate(249 -20)">
      <g id="Grupo_92" data-name="Grupo 92" transform="translate(-2050 -3971)">
        <g id="Rectángulo_462" data-name="Rectángulo 462" transform="translate(2143.055 4033)" fill="#fff" stroke="#cecece" stroke-width="2">
          <rect width="400.06" height="814.778" rx="40" stroke="none"/>
          <rect x="1" y="1" width="398.06" height="812.778" rx="39" fill="none"/>
        </g>
        <path id="Intersección_2" data-name="Intersección 2" d="M-90.568-3228.533a26,26,0,0,1-25.932-24.1v-441.112H239.945v445.608a26.009,26.009,0,0,1-25.207,19.606ZM-116.5-3707.182v-206.706H239.945v206.706Zm.432-219.735v-52.806a26.019,26.019,0,0,1,22.95-20.777H217.287a26.023,26.023,0,0,1,22.225,17.97v55.613Z" transform="translate(2281 8055)" fill="#4977ac"/>
        <path id="Unión_1" data-name="Unión 1" d="M22.1,32.067a16,16,0,0,1-16-16V5.952h0A6.072,6.072,0,0,0,4.259,1.741,6.076,6.076,0,0,0-.006,0H201.55V16.067a16,16,0,0,1-16,16ZM201.55,6.153V0h6.171a6.323,6.323,0,0,0-6.169,6.152Z" transform="translate(2239.259 4054.224)" fill="#fff"/>
        <path id="Unión_2" data-name="Unión 2" d="M4,190.868a4,4,0,0,1-4-4v-51.55a4,4,0,0,1,4-4H6.107v59.551Zm402.015-19.85V79.4h2.108a4,4,0,0,1,4,4v83.616a4,4,0,0,1-4,4ZM4,117.575a4,4,0,0,1-4-4V62.024a4,4,0,0,1,4-4H6.107v59.551ZM4,32.066a4,4,0,0,1-4-4V4A4,4,0,0,1,4,0H6.107V32.066Z" transform="translate(2137.1 4141.413)" fill="#fff"/>
        <g id="Grupo_89" data-name="Grupo 89" transform="translate(2305.625 4056.115)">
          <rect id="Rectángulo_2101" data-name="Rectángulo 2101" width="48.862" height="7.137" rx="3.568" transform="translate(0 3.568)" opacity="0.054"/>
          <ellipse id="Elipse_1096" data-name="Elipse 1096" cx="7.137" cy="7.137" rx="7.137" ry="7.137" transform="translate(60.176)" fill="url(#linear-gradient)"/>
          <ellipse id="Elipse_1097" data-name="Elipse 1097" cx="3.059" cy="3.059" rx="3.059" ry="3.059" transform="translate(64.254 4.078)" fill="#035a81" opacity="0.257"/>
        </g>
        <rect id="Rectángulo_473" data-name="Rectángulo 473" width="132.844" height="6.108" rx="2" transform="translate(2277.426 4802.58)" fill="#fff"/>
      </g>
      <text id="A-2" data-name="A" transform="translate(293 149)" fill="#fff" font-size="38" font-family="Arial-Black, Arial Black" font-weight="800"><tspan x="-14.779" y="0">A</tspan></text>
      <text id="B-2" data-name="B" transform="translate(293 284)" fill="#fff" font-size="38" font-family="Arial-Black, Arial Black" font-weight="800"><tspan x="-14.779" y="0">B</tspan></text>
      <text id="C-2" data-name="C" transform="translate(293 639)" fill="#fff" font-size="38" font-family="Arial-Black, Arial Black" font-weight="800"><tspan x="-14.779" y="0">C</tspan></text>
    </g>
  </g>
</svg>
