<?xml version="1.0" encoding="utf-8"?>
<!-- Generator: Adobe Illustrator 23.0.3, SVG Export Plug-In . SVG Version: 6.00 Build 0)  -->
<svg version="1.1" id="Capa_1" xmlns="http://www.w3.org/2000/svg" xmlns:xlink="http://www.w3.org/1999/xlink" x="0px" y="0px"
	 viewBox="0 0 792 117.3" style="enable-background:new 0 0 792 117.3;" xml:space="preserve">
<style type="text/css">
	.st0{fill:#FFFFFF;}
	.st1{fill:#239DAA;}
	.st2{fill:#11437F;}
	.st3{fill:#5E9FAD;}
	.st4{fill:#4C7FA8;}
	.st5{fill:#505C79;}
	.st6{fill:#4D80A8;}
</style>
<g>
	<path class="st0" d="M201.8,68.2c-0.3-0.7-0.4-1.4-1.4-1v1c0,2.8,0,5.5,0,8.2c0,1.3,0,1.3,1.5,1.2c0-2.4,0-4.7,0-7.1
		c0-1.2,1-2.2,2.2-2.2c0.5,0,1,0.1,1.5,0.2c0.2-0.4,0.3-0.9,0.5-1.3C204.4,66.5,203,66.9,201.8,68.2 M159,75.9
		c-0.5,0.2-0.8,0.3-1.2,0.4c-1.3,0.4-2.4-0.1-2.5-1.4c-0.2-2.1,0-4.2,0-6.4h2.7V67c-0.7,0-1.4,0-2.1,0c-0.6,0-0.9-0.2-0.8-0.8
		c0-0.4,0-0.9,0-1.4c-0.6,0.1-1.2,0.1-1.3,0.3c-0.2,0.5-0.2,1.1-0.3,1.8c-0.3,0.1-0.6,0.1-1,0.2v1.3c0.4,0,0.7,0.1,1.1,0.1
		c0,1.9,0,3.8,0,5.7c0.1,4,3.6,4.2,5.8,2.8C159.3,76.7,159.2,76.3,159,75.9 M213.8,75.9c-0.2,0.1-0.3,0.1-0.5,0.2
		c-2.2,0.8-3.3,0.2-3.4-2.2c-0.1-1.6,0-3.1,0-4.7c0-0.5,0.2-0.7,0.7-0.7c0.7,0,1.4,0,2.2,0V67c-0.8,0-1.5,0-2.2,0
		c-0.5,0-0.7-0.2-0.7-0.6c0-0.5,0-1,0-1.5c-0.7,0.3-1.6-0.1-1.5,0.9c0.1,0.8,0,1.5-1.1,1.3v1.4c0.4,0.1,0.7,0.1,1.1,0.2
		c0,0.4,0,0.7,0,1c0,1.6,0,3.2,0,4.8c0.1,1.3,0.5,2.6,1.8,3.2c1.4,0.6,2.7,0.2,4-0.4C214.1,76.7,213.9,76.3,213.8,75.9 M93.2,75.9
		C93,75.9,92.9,76,92.7,76c-2.1,0.9-3.3,0.2-3.4-2.1c-0.1-1.6,0-3.2-0.1-4.8c0-0.6,0.3-0.7,0.7-0.7c0.7,0,1.4,0,2.2,0V67h-1.7
		c-1.2,0-1.2,0-1.2-1.2c0-0.3,0-0.6,0-1.1c-0.6,0.3-1.6-0.1-1.5,1c0.1,0.9-0.1,1.4-1.1,1.2v1.4c0.4,0.1,0.7,0.1,1.1,0.2
		c0,0.3,0,0.7,0,1c0,1.7,0,3.3,0,5c0.1,1.3,0.6,2.5,1.9,3c1.4,0.6,2.7,0.2,4-0.4C93.5,76.7,93.4,76.3,93.2,75.9 M111.4,75.9
		c-0.2,0.1-0.3,0.1-0.4,0.1c-2.3,0.9-3.4,0.2-3.5-2.3c0-1.4,0-2.9,0-4.3c0-0.6,0.2-0.9,0.8-0.9c0.7,0.1,1.4,0,2.1,0V67h-2.9v-2.1
		c-0.7,0.2-1.6-0.1-1.5,1c0.1,0.9-0.2,1.3-1.1,1.2v1.4c0.4,0,0.7,0.1,1.1,0.1c0,0.4,0,0.7,0,1.1c0,1.7,0,3.4,0.1,5
		c0.1,1.8,1.2,3,2.7,3.1c1,0,2-0.2,3.1-0.4C111.6,76.7,111.5,76.3,111.4,75.9 M37.7,33.9c-2.5-1.9-5.3-1.5-8.2-1
		c0.7,1,1.3,1.9,1.9,2.8c0.9,1.3,2.1,2.1,3.7,2.2c0.6,0.1,1.3,0.2,1.9,0.3c1.3,0.3,1.3,0.3,1.2,1.6c0,0.3,0.2,0.7,0.4,1
		c0.3,0.4,0.7,0.4,0.9-0.2C40.2,38.5,39.4,35.2,37.7,33.9 M35.7,37c-1,0.1-1.8-0.1-2.5-0.9c-0.5-0.7-0.4-1.3,0.2-1.8
		c0.2-0.2,0.4-0.5,0.7-0.6c0.4-0.2,0.9-0.3,1.4-0.4c0.2,0,0.5,0.3,0.5,0.4c-0.1,0.2-0.3,0.4-0.4,0.6c-0.1,0.1-0.4,0-0.5,0.1
		c-0.2,0.2-0.4,0.4-0.6,0.6c0.3,0.1,0.6,0.4,0.8,0.4c0.6-0.1,1.2-0.3,1.8-0.5C37.2,36.2,36.7,36.9,35.7,37 M144.5,64.3
		c0.6,0,1.3,0.2,1.9,0.2c0.1-0.4,0.2-0.8,0.4-1.3c-0.8-0.1-1.6-0.3-2.3-0.4c-1.8-0.1-2.9,0.7-3.2,2.5c-0.2,1.2-0.3,2.1-1.9,1.7v1.4
		c1.7,0.2,1.7,0.2,1.7,1.8v7.3h1.6v-9.1h1.2c1.3,0,1.4-0.1,1-1.5c-0.5,0-1.1,0-1.6,0c-0.2,0-0.5-0.2-0.5-0.3
		C142.5,65.7,143.5,64.3,144.5,64.3 M17.1,22.7c-0.9,1.8-2.5,2.6-3.9,3.5c-3.1,2.1-4.4,5.5-3.3,8.6c0.1-0.2,0.3-0.4,0.4-0.5
		c1-1.7,2.4-3.1,4.1-4.2C17.1,28.4,17.9,26.1,17.1,22.7 M46,13l-0.4,0.1c9.8,28.3,19.6,56.7,29.4,85c0.1,0,0.3-0.1,0.4-0.1
		C65.6,69.7,55.8,41.4,46,13 M83.3,70.8c-1-0.5-2-1.1-3-1.6c-0.6-0.3-1-0.9-1-1.6c0-1.3,0.7-2.1,2.3-2.2c0.9,0,1.7,0.1,2.6,0.1
		c0.2-1.2,0.2-1.4-0.9-1.5c-0.8-0.1-1.7-0.1-2.6,0c-1.6,0.2-2.5,1.2-2.8,2.8c-0.3,1.6,0.3,2.9,1.8,3.7c1,0.5,2,1,2.9,1.6
		c0.9,0.5,1.4,1.2,1.3,2.3c-0.1,0.9-0.8,1.6-2,1.7c-1.3,0.1-2.6-0.1-4-0.1c-0.2,1.2-0.1,1.3,1.1,1.5c1.3,0.3,2.5,0.2,3.7-0.2
		c1.5-0.6,2.4-1.6,2.6-3.3C85.5,72.6,84.7,71.5,83.3,70.8 M138.3,71.6c-0.2-2.1-1.5-4-3.3-4.5c-1.9-0.6-3.9,0-5.1,1.5
		c-1.6,2-1.7,5.2-0.2,7.3c1.4,2,4.2,2.6,6.3,1.2c1.7-1.1,2.3-2.8,2.3-4.8C138.3,72.1,138.3,71.9,138.3,71.6 M136.5,74.4
		c-0.4,1.3-1.4,2-2.8,2c-1.4,0.1-2.4-0.6-3-1.8c-0.7-1.4-0.7-2.8-0.2-4.3c0.5-1.3,1.6-2.1,3-2c1.4,0,2.4,0.7,2.9,2.1
		c0.2,0.6,0.3,1.3,0.5,2C136.8,73.1,136.7,73.7,136.5,74.4 M175.5,76.1c-1.3-0.5-2.2-2-2-3.4h6.5c-0.1-1.3-0.1-2.6-0.4-3.7
		c-0.2-0.6-0.7-1.3-1.3-1.7c-1.8-1.2-4.8-0.4-5.7,1.6c-0.5,1.2-0.8,2.6-0.8,3.9c0,3.8,3.1,5.9,6.7,4.8c1.2-0.4,1.3-0.5,1-1.8
		C178.2,76.2,176.9,76.7,175.5,76.1 M176.5,68.3c1.3,0.1,2,1.2,1.8,2.9h-4.8C173.6,69.4,174.9,68.2,176.5,68.3 M114.5,72.7h6.5
		c-0.1-1.4-0.2-2.5-0.4-3.7c-0.2-1-0.9-1.7-1.8-2c-2.7-0.9-5.3,0.5-5.8,3.3c-0.2,0.8-0.2,1.6-0.2,2.5c0.2,4,3.5,6.1,7.1,4.6
		c0.9-0.3,1-0.7,0.5-1.7C117,77.1,114.3,75.8,114.5,72.7 M117.4,68.3c1.3,0,2.1,1.1,1.9,2.9h-4.8C114.6,69.6,115.9,68.3,117.4,68.3
		 M102.4,73.8c0-1.3,0-2.6,0-3.9c0-1.2-0.4-2.4-1.7-2.8c-1.9-0.6-3.7-0.3-5.4,0.6c0.1,0.4,0.3,0.8,0.4,1.1c1.2-0.2,2.4-0.4,3.5-0.5
		c0.9-0.1,1.5,0.5,1.7,1.4c0.1,0.6,0,1.2,0,2c-1.3,0-2.5-0.1-3.7,0c-1.5,0.2-2.4,1.2-2.4,2.6c-0.1,1.8,0.7,2.9,2.2,3.4
		c1.7,0.5,3.1,0,4.4-1.1c0.6,0.5,1.1,0.9,1.6,1.4c0.4-0.6,0.6-1.1,0.9-1.5C102.7,75.9,102.4,74.9,102.4,73.8 M100.7,75
		c-0.5,1.3-2.5,1.8-3.6,1.1c-0.6-0.4-0.9-1-0.8-1.7c0.1-0.7,0.6-1.1,1.2-1.2c0.6-0.1,1.3-0.2,1.9-0.2C100.9,73,101.3,73.6,100.7,75
		 M169.3,70.1c-0.1-1.9-1.3-3.1-3-3.2c-0.9,0-1.8,0.3-2.7,0.5c-0.3,0.1-0.5,0.2-1,0.4v-5c-0.6,0.1-1,0.2-1.5,0.3v14.6h1.5v-1
		c0-2.1,0-4.3,0-6.4c0-0.7,0.2-1.1,0.8-1.3c0.5-0.2,0.9-0.4,1.4-0.5c1.7-0.4,2.8,0.5,2.9,2.3c0,1.3,0,2.7,0,4v2.9h1.5
		C169.4,75,169.4,72.6,169.3,70.1 M198.3,76.6c-1.3-3.8-2.7-7.7-4-11.5c-0.2-0.7-0.5-0.8-1.2-0.9c-1-0.1-1.5,0.3-1.6,1.2
		c-0.1,0.3-0.2,0.6-0.3,1c-1.3,3.7-2.5,7.4-3.8,11.2c1.5,0.2,1.5,0.2,2-1c0.2-0.5,0.3-1,0.5-1.4c0.2-0.3,0.5-0.6,0.8-0.6
		c1-0.1,2.1,0,3.1,0c2.2,0,2.2,0,2.9,2.1c0.4,1.2,0.6,1.3,1.9,0.9C198.4,77.2,198.4,76.9,198.3,76.6 M190.5,73
		c0.8-2.3,1.6-4.6,2.3-6.8c0.1,0,0.2,0,0.2,0c0.8,2.3,1.6,4.5,2.4,6.9H190.5z M18.8,29.6c-0.7,1.1-1.1,2.3-1.9,3.2
		c-1.6,1.8-3.4,3.4-5.1,5c-1.6,1.4-3.2,2.8-4,4.9c-1,2.4,0.2,5.5,2.4,6.3c-0.4-1.9,0-3.6,1-5.1c0.7-1,1.5-2,2.3-2.9
		c1.5-1.5,3.1-2.8,4.5-4.3c1.1-1.1,2.1-2.4,2.4-4.1C20.7,31.1,20,29.9,18.8,29.6 M177.4,37.1c-0.4-0.5-0.6-1.1-1-1.2
		c-0.9-0.2-1.8,0-2.8,0v4.3c0,3.9,0,7.8,0,11.8c0,0.4-0.2,0.9,0.5,0.9c1.1,0,2.1,0,3.3,0v-1.2c0-3.4,0-6.8,0-10.2
		c0-0.7,0.2-1.1,0.8-1.5c1.5-0.8,3-0.9,4.5-0.3c0.3,0.1,0.6,0.2,1,0.4c0.4-1.3,0.8-2.5,1.2-3.8C182.1,35.2,179.6,35.3,177.4,37.1
		 M98.4,30.1c0-0.8-0.2-1-1-0.9c-0.6,0.1-1.3,0.2-1.9,0.2c-0.7,0-0.9,0.3-0.9,1c0,7.1,0,14.3,0,21.4c0,0.3,0,0.6,0,0.9h3.7v-5.6
		C98.4,41.5,98.4,35.8,98.4,30.1 M21.3,38.1c-0.9,2.4-2.5,4.3-4,6.3c-0.9,1.1-1.8,2.1-2.6,3.2c-3.3,4.9-4.6,10.1-2.2,15.8
		c0.8,1.9,1.3,3.9,1.1,6c0,0,0.1,0.1,0.2,0.2c0.9-0.5,1.4-1.4,1.5-2.4c0.1-1.8,0.2-3.7,0.1-5.5c-0.2-3.4,0-6.7,1.6-9.8
		c1-2,2.1-4,3.3-5.9C21.7,43.5,22,40.9,21.3,38.1 M196.9,47.1c-0.1-2-1.1-3.3-2.8-4c-1-0.4-1.9-0.7-2.9-1.1
		c-0.7-0.3-1.3-0.6-1.2-1.5c0.1-0.8,0.8-1.1,1.5-1.3c0.2,0,0.4-0.1,0.5-0.1c1.2,0.1,2.4,0.3,3.7,0.4c0-0.8,0-1.7,0-2.6
		c0-0.6-0.2-0.9-0.8-0.9c-1.6-0.1-3.2-0.4-4.7-0.2c-2.4,0.3-3.9,2-4.1,4.1c-0.2,2.7,0.6,4,3.2,5c0.9,0.3,1.8,0.6,2.7,1
		c0.7,0.3,1.1,0.9,1.1,1.8c-0.1,0.8-0.6,1.4-1.3,1.6c-0.8,0.2-1.6,0.3-2.4,0.1c-1.1-0.2-2.1-0.6-3.3-1c0,1.1,0,2.1,0,3.2
		c0,0.3,0.3,0.6,0.6,0.7c2.6,1.1,5.2,1.2,7.8-0.2C196.3,51,196.9,49.2,196.9,47.1 M29.8,81.2c-0.7-1.3-1.4-2.6-2.3-3.9
		c-0.8-1.1-1.8-2.1-2.6-3.2c-1.9-2.8-2.4-5.9-2.2-9.2c0.2-2.3,0.7-4.6,1.1-7c0.4-2.6,0.6-5.2-0.2-7.8c-0.2-0.8-0.6-1.5-1-2.3
		c-0.1,0-0.2,0.1-0.3,0.1c0,3.4-0.9,6.6-2,9.8c-0.9,2.8-1.7,5.6-1.8,8.5c-0.3,4.2,0.7,8,3.8,10.9c1.8,1.7,3.9,3.1,5.8,4.6
		c0.6,0.4,1.1,0.9,1.6,1.4C30,83,30,83,30.1,83C30,82.4,30,81.7,29.8,81.2 M134.5,41.5c0-3.6-2.2-5.9-5.9-5.9c-2,0-3.8,0.5-5.6,1.6
		c0-1.6-1.1-1.3-2-1.3c-0.5,0-0.9,0-1.5,0v16.8h3.7v-10c0-2.9,0.1-3,3-3.4c0.1,0,0.2,0,0.3,0c2.5-0.3,4.2,1.2,4.2,3.8
		c0,2.9,0,5.9,0,8.8c0,0.3,0,0.6,0,1c1,0,1.8,0,2.7,0c0.8,0.1,1.1-0.2,1-1C134.5,48.3,134.5,44.9,134.5,41.5 M92.1,34.9v-3.6
		c-4.1,0-8.1,0-12.1,0c-0.8,0-1,0.3-1,1c0,6.5,0,12.9,0,19.4c0,0.3,0,0.7,0,1h3.8v-8.8h9.1c0-1,0-1.9,0-2.7c0-0.7-0.2-0.9-0.9-0.9
		c-2.2,0-4.4,0-6.6,0h-1.6v-5.4H92.1z M170.4,42.7c0-1.5-0.3-3-1.2-4.4c-2.1-3.4-7.3-3.8-10.5-0.9c-3.4,3.1-3.6,9.7-0.5,13.1
		c2.9,3,7.6,3,10.9,1.8c0.2-0.1,0.4-0.3,0.4-0.5c0-1.1,0-2.2,0-3.4c-1.9,0.8-3.6,1.4-5.5,1c-2.1-0.4-3.7-1.9-3.7-3.6h10.1
		C170.4,44.6,170.4,43.7,170.4,42.7 M160.3,42.7c0-2,1.7-3.5,3.4-3.5c1.8-0.1,3.1,1.4,3.2,3.5H160.3z M114.7,46.1
		c0.1-1.7,0-3.5,0-5.2c0-2.7-1.4-4.6-4.1-5.1c-1.6-0.3-3.3-0.1-5,0.1c-1.1,0.1-2.2,0.6-3.3,1c0.3,1.2,0.6,2.3,0.9,3.2
		c1.6-0.3,3-0.8,4.5-0.9c2.5-0.2,3.7,1.4,3.3,3.9H110c-1.3,0-2.6-0.1-3.9,0c-3.3,0.2-4.7,1.9-4.5,5.1c0.1,2.6,1.4,4.2,4,4.8
		c2.2,0.5,4.2,0,5.9-1.4c1.1,0.6,2.1,1.1,3.1,1.5c0.3,0.1,0.9,0,1.1-0.3c0.6-0.8,1-1.8,1.6-2.8C114.9,49.6,114.6,48,114.7,46.1
		 M107.4,50c-1.2-0.1-2-0.9-2-2c-0.1-1.1,0.5-1.8,1.8-1.9c1.2-0.1,2.4,0,3.7,0C111.2,48.7,109.9,50.2,107.4,50 M152.9,31.9
		c0-2.8,0-2.8-2.8-2.5c-0.7,0.1-1,0.3-1,1.1c0.1,1.7,0,3.4,0,5.1c-1.2,0-2.1,0-3.1,0c-3.3,0.2-6,1.5-7.4,4.7
		c-1.1,2.4-1.3,4.9-0.6,7.4c1.3,5.1,6.4,7.1,10.8,4.4c0.2-0.1,0.4-0.2,0.7-0.4c0.3,1.4,1.3,1.2,2.3,1.2c0,0,0.1,0,0.1,0
		c0.8,0.1,1.1-0.2,1.1-1C152.8,45.1,152.9,38.5,152.9,31.9 M149.1,44L149.1,44c0,1.3,0,2.5,0,3.8c0,0.3-0.3,0.8-0.6,1
		c-3.5,1.9-6.7,0-6.9-3.9c0-0.8,0-1.7,0.3-2.5c0.4-1.8,1.9-3,3.8-3.1c0.9-0.1,1.9,0.1,2.8,0.1c0.6,0,0.7,0.3,0.7,0.8
		C149.1,41.4,149.1,42.7,149.1,44 M45.8,80.6c-3.5-0.2-6.8-1.4-9.8-3.1c-0.5-0.3-0.8-0.7-0.6-1.3c0.2-0.9,0.3-1.8,0.6-2.6
		c1.1-2.9,3.1-4.2,6.2-4c0.9,0,1.7,0.2,2.5,0.3c0.7,0.1,1.4,0.2,2.2,0.3V55.8c0-1.1-0.4-1.6-1.5-1.7c-0.5,0-1,0-1.4,0.2
		c-1.3,0.6-2.3,0.4-3.3-0.5c-0.4-0.4-1-1-1.7-0.4c-0.6,0.5-0.4,1.2-0.1,1.9c0.1,0.2,0.2,0.4,0.3,0.6c0.9,1.6,2.4,2.4,4,3.1
		c2.2,1,3,3.7,1.7,5.7c-1.3,2-3.4,3-5.8,2.9c-1.9-0.1-3.8-2.1-4.5-4.2c-0.6-1.8-1.2-3.5-2.1-5.2c-1.2-2.3-2-4.7-2.6-7.2
		c-1.3-5.4-2.7-10.9-4.3-16.2c-0.5-1.9-1.6-3.6-2.5-5.3c-0.2-0.4-0.7-0.7-1-1.1c0.1,0.9,0.3,1.7,0.5,2.4c1.6,7.1,3.1,14.2,4.6,21.3
		c0.8,3.5,1.5,7.1,3.5,10.2c2.2,3.4,3.4,7.1,3.4,11.2c0,1.6,0,3.3,1,4.7c2.2,3,4.9,5.4,8.4,6.7c1,0.4,2.1,0.5,3.3,0.8
		c0-1.4-0.1-2.6,0-3.8C47,80.9,46.7,80.7,45.8,80.6"/>
	<path class="st0" d="M46.9,85.6c-1.2-0.3-2.3-0.4-3.3-0.8c-3.5-1.3-6.3-3.7-8.4-6.7c-1-1.4-1-3.1-1-4.7c0-4.1-1.1-7.7-3.4-11.2
		c-2-3.1-2.8-6.6-3.5-10.2c-1.5-7.1-3.1-14.2-4.6-21.3c-0.2-0.8-0.4-1.5-0.5-2.4c0.3,0.4,0.8,0.7,1,1.1c0.9,1.7,1.9,3.5,2.5,5.3
		c1.6,5.4,3,10.8,4.3,16.2c0.6,2.5,1.4,4.9,2.6,7.2c0.9,1.6,1.5,3.4,2.1,5.2c0.7,2.1,2.6,4.1,4.5,4.2c2.4,0.2,4.5-0.8,5.8-2.9
		c1.3-2,0.5-4.7-1.7-5.7c-1.6-0.7-3.1-1.5-4-3.1c-0.1-0.2-0.2-0.4-0.3-0.6c-0.3-0.6-0.5-1.3,0.1-1.9c0.7-0.6,1.2,0,1.7,0.4
		c1,1,2.1,1.2,3.3,0.5c0.4-0.2,1-0.2,1.4-0.2c1.1,0.1,1.5,0.6,1.5,1.7c0,4.4,0,8.8,0,13.2v1.2c-0.8-0.1-1.5-0.2-2.2-0.3
		c-0.8-0.1-1.7-0.3-2.5-0.3c-3.1-0.2-5.1,1.2-6.2,4c-0.3,0.8-0.4,1.7-0.6,2.6c-0.2,0.7,0.1,1,0.6,1.3c3.1,1.7,6.3,2.9,9.8,3.1
		c0.9,0.1,1.2,0.3,1.1,1.2C46.9,83,46.9,84.1,46.9,85.6"/>
	<path class="st0" d="M152.9,31.9c0-2.8,0-2.8-2.8-2.5c-0.7,0.1-1,0.3-1,1.1c0.1,1.7,0,3.4,0,5.1c-1.2,0-2.1,0-3.1,0
		c-3.3,0.2-6,1.5-7.4,4.7c-1.1,2.4-1.3,4.9-0.6,7.4c1.3,5.1,6.4,7.1,10.8,4.4c0.2-0.1,0.4-0.2,0.7-0.4c0.3,1.4,1.3,1.2,2.3,1.2
		c0,0,0.1,0,0.1,0c0.8,0.1,1.1-0.2,1.1-1C152.8,45.1,152.9,38.5,152.9,31.9 M149.1,44L149.1,44c0,1.3,0,2.5,0,3.8
		c0,0.3-0.3,0.8-0.6,1c-3.5,1.9-6.7,0-6.9-3.9c0-0.8,0-1.7,0.3-2.5c0.4-1.8,1.9-3,3.8-3.1c0.9-0.1,1.9,0.1,2.8,0.1
		c0.6,0,0.7,0.3,0.7,0.8C149.1,41.4,149.1,42.7,149.1,44"/>
	<path class="st0" d="M114.7,46.1c0.1-1.7,0-3.5,0-5.2c0-2.7-1.4-4.6-4.1-5.1c-1.6-0.3-3.3-0.1-5,0.1c-1.1,0.1-2.2,0.6-3.3,1
		c0.3,1.2,0.6,2.3,0.9,3.2c1.6-0.3,3-0.8,4.5-0.9c2.5-0.2,3.7,1.4,3.3,3.9H110c-1.3,0-2.6-0.1-3.9,0c-3.3,0.2-4.7,1.9-4.5,5.1
		c0.1,2.6,1.4,4.2,4,4.8c2.2,0.5,4.2,0,5.9-1.4c1.1,0.6,2.1,1.1,3.1,1.5c0.3,0.1,0.9,0,1.1-0.3c0.6-0.8,1-1.8,1.6-2.8
		C114.9,49.6,114.6,48,114.7,46.1 M107.4,50c-1.2-0.1-2-0.9-2-2c-0.1-1.1,0.5-1.8,1.8-1.9c1.2-0.1,2.4,0,3.7,0
		C111.2,48.7,109.9,50.2,107.4,50"/>
	<path class="st0" d="M170.4,42.7c0-1.5-0.3-3-1.2-4.4c-2.1-3.4-7.3-3.8-10.5-0.9c-3.4,3.1-3.6,9.7-0.5,13.1c2.9,3,7.6,3,10.9,1.8
		c0.2-0.1,0.4-0.3,0.4-0.5c0-1.1,0-2.2,0-3.4c-1.9,0.7-3.6,1.4-5.5,1c-2.1-0.4-3.7-1.9-3.7-3.6h10.1
		C170.4,44.6,170.4,43.7,170.4,42.7 M160.3,42.7c0-2,1.7-3.5,3.4-3.5c1.8-0.1,3.1,1.4,3.2,3.5H160.3z"/>
	<path class="st0" d="M82.9,34.9v5.4h1.6c2.2,0,4.4,0,6.6,0c0.7,0,0.9,0.2,0.9,0.9c0,0.9,0,1.8,0,2.7h-9.1v8.8h-3.8c0-0.4,0-0.7,0-1
		c0-6.5,0-12.9,0-19.4c0-0.8,0.2-1.1,1-1c4,0,8,0,12.1,0v3.6H82.9z"/>
	<path class="st0" d="M119.5,35.9c0.5,0,1,0,1.5,0c0.9,0,2-0.3,2,1.3c1.8-1.1,3.6-1.6,5.6-1.6c3.7,0.1,5.9,2.3,5.9,5.9
		c0,3.4,0,6.9,0,10.3c0,0.8-0.3,1.1-1,1c-0.9-0.1-1.7,0-2.7,0c0-0.4,0-0.7,0-1c0-2.9,0-5.9,0-8.8c0-2.5-1.7-4-4.2-3.8
		c-0.1,0-0.2,0-0.3,0c-2.9,0.4-3,0.6-3,3.4c0,3.3,0,6.6,0,10h-3.7V35.9z"/>
	<path class="st0" d="M22.7,47.9c0.3,0.8,0.7,1.5,1,2.3c0.8,2.6,0.6,5.2,0.2,7.8c-0.4,2.3-0.9,4.6-1.1,7c-0.2,3.3,0.3,6.4,2.2,9.2
		c0.8,1.1,1.8,2.1,2.6,3.2c0.8,1.2,1.6,2.5,2.3,3.9c0.3,0.5,0.2,1.2,0.3,1.7C30,83,30,83,29.9,83.1c-0.5-0.5-1.1-0.9-1.6-1.4
		c-2-1.5-4-2.9-5.8-4.6c-3.2-2.9-4.1-6.7-3.8-10.9c0.2-2.9,0.9-5.7,1.8-8.5c1.1-3.2,2-6.4,2-9.8C22.5,47.9,22.6,47.9,22.7,47.9"/>
	<path class="st0" d="M186.1,48.4c1.2,0.4,2.2,0.8,3.3,1c0.8,0.1,1.6,0,2.4-0.1c0.8-0.2,1.3-0.7,1.3-1.6c0.1-0.8-0.3-1.4-1.1-1.8
		c-0.9-0.4-1.8-0.7-2.7-1c-2.6-1-3.5-2.3-3.3-5c0.2-2.1,1.7-3.8,4.1-4.1c1.5-0.2,3.1,0.1,4.7,0.2c0.5,0,0.8,0.4,0.8,0.9
		c0,0.9,0,1.8,0,2.6c-1.3-0.1-2.5-0.3-3.7-0.4c-0.2,0-0.4,0-0.5,0.1c-0.7,0.2-1.4,0.4-1.5,1.3c-0.1,0.9,0.6,1.2,1.2,1.5
		c1,0.4,2,0.7,2.9,1.1c1.7,0.8,2.7,2.1,2.8,4c0.1,2.1-0.5,3.9-2.4,5c-2.5,1.4-5.1,1.4-7.8,0.2c-0.3-0.1-0.5-0.5-0.6-0.7
		C186,50.5,186.1,49.5,186.1,48.4"/>
	<path class="st0" d="M21.3,38.1c0.7,2.8,0.5,5.5-1.1,8c-1.2,1.9-2.3,3.9-3.3,5.9c-1.5,3.1-1.8,6.4-1.6,9.8c0.1,1.8,0,3.7-0.1,5.5
		c-0.1,1-0.5,1.9-1.5,2.4c-0.1-0.1-0.2-0.1-0.2-0.2c0.3-2.1-0.3-4-1.1-6c-2.3-5.7-1.1-10.9,2.2-15.8c0.8-1.1,1.7-2.2,2.6-3.2
		C18.8,42.4,20.4,40.5,21.3,38.1"/>
	<path class="st0" d="M98.4,52.7h-3.7c0-0.3,0-0.6,0-0.9c0-7.1,0-14.3,0-21.4c0-0.7,0.2-1,0.9-1c0.6,0,1.3-0.1,1.9-0.2
		c0.8-0.1,1,0.1,1,0.9c0,5.7,0,11.3,0,17C98.4,48.9,98.4,50.8,98.4,52.7"/>
	<path class="st0" d="M184.9,36.2c-0.4,1.3-0.8,2.5-1.2,3.8c-0.4-0.1-0.7-0.3-1-0.4c-1.6-0.6-3-0.5-4.5,0.3
		c-0.6,0.3-0.9,0.7-0.8,1.5c0,3.4,0,6.8,0,10.2v1.2c-1.2,0-2.2,0-3.3,0c-0.7,0-0.5-0.5-0.5-0.9c0-3.9,0-7.8,0-11.8v-4.3
		c1,0,1.9-0.1,2.8,0.1c0.4,0.1,0.6,0.7,1,1.2C179.6,35.3,182.1,35.1,184.9,36.2"/>
	<path class="st0" d="M18.8,29.6c1.2,0.3,1.9,1.5,1.6,3c-0.3,1.6-1.3,2.9-2.4,4.1c-1.5,1.5-3.1,2.8-4.5,4.3
		c-0.9,0.9-1.7,1.9-2.3,2.9c-1,1.5-1.4,3.2-1,5.1c-2.3-0.9-3.4-3.9-2.4-6.3c0.8-2,2.4-3.4,4-4.9c1.7-1.6,3.5-3.2,5.1-5
		C17.7,31.9,18.2,30.7,18.8,29.6"/>
	<path class="st0" d="M198.3,76.6c-1.3-3.8-2.7-7.7-4-11.5c-0.2-0.7-0.5-0.8-1.2-0.9c-1-0.1-1.5,0.3-1.6,1.2c-0.1,0.3-0.2,0.6-0.3,1
		c-1.3,3.7-2.5,7.4-3.8,11.2c1.5,0.2,1.5,0.2,2-1c0.2-0.5,0.3-1,0.5-1.4c0.2-0.3,0.5-0.6,0.8-0.6c1-0.1,2.1,0,3.1,0
		c2.2,0,2.2,0,2.9,2.1c0.4,1.2,0.6,1.3,1.9,0.9C198.4,77.2,198.4,76.9,198.3,76.6 M190.5,73c0.8-2.3,1.6-4.6,2.3-6.8
		c0.1,0,0.2,0,0.2,0c0.8,2.3,1.6,4.5,2.4,6.9H190.5z"/>
	<path class="st0" d="M161.2,63.1c0.5-0.1,0.9-0.2,1.5-0.3v5c0.4-0.2,0.7-0.4,1-0.4c0.9-0.2,1.8-0.5,2.7-0.5c1.7,0,2.9,1.3,3,3.2
		c0.1,2.5,0,4.9,0,7.5h-1.5c0-1,0-2,0-2.9c0-1.3,0-2.7,0-4c-0.1-1.8-1.2-2.6-2.9-2.3c-0.5,0.1-0.9,0.3-1.4,0.5
		c-0.6,0.2-0.9,0.6-0.8,1.3c0,2.1,0,4.3,0,6.4c0,0.3,0,0.7,0,1h-1.5V63.1z"/>
	<path class="st0" d="M102.4,73.8c0-1.3,0-2.6,0-3.9c0-1.2-0.4-2.4-1.7-2.8c-1.9-0.6-3.7-0.3-5.4,0.6c0.1,0.4,0.3,0.8,0.4,1.1
		c1.2-0.2,2.4-0.4,3.5-0.5c0.9-0.1,1.5,0.5,1.7,1.4c0.1,0.6,0,1.2,0,2c-1.3,0-2.5-0.1-3.7,0c-1.5,0.2-2.4,1.2-2.4,2.7
		c-0.1,1.8,0.7,2.9,2.2,3.4c1.7,0.5,3.1,0,4.4-1.1c0.6,0.5,1.1,0.9,1.6,1.4c0.4-0.6,0.6-1.1,0.9-1.5
		C102.7,75.9,102.4,74.9,102.4,73.8 M100.7,75c-0.5,1.3-2.5,1.8-3.6,1.1c-0.6-0.4-0.9-1-0.8-1.7c0.1-0.7,0.6-1.1,1.2-1.2
		c0.6-0.1,1.3-0.2,1.9-0.2C100.9,73,101.3,73.6,100.7,75"/>
	<path class="st0" d="M114.5,72.7h6.5c-0.1-1.4-0.2-2.5-0.4-3.7c-0.2-1-0.9-1.7-1.8-2c-2.7-0.9-5.3,0.5-5.8,3.3
		c-0.2,0.8-0.2,1.6-0.2,2.5c0.2,4,3.5,6.1,7.1,4.6c0.9-0.3,1-0.7,0.5-1.7C117,77.1,114.3,75.8,114.5,72.7 M117.4,68.3
		c1.3,0,2.1,1.1,1.9,2.9h-4.8C114.6,69.6,115.9,68.3,117.4,68.3"/>
	<path class="st0" d="M175.5,76.1c-1.3-0.5-2.2-2-2-3.4h6.5c-0.1-1.3-0.1-2.6-0.4-3.7c-0.2-0.6-0.7-1.3-1.3-1.7
		c-1.8-1.2-4.8-0.4-5.7,1.6c-0.5,1.2-0.8,2.6-0.8,3.9c0,3.8,3.1,5.9,6.7,4.8c1.2-0.4,1.3-0.5,1-1.8
		C178.2,76.2,176.9,76.7,175.5,76.1 M176.5,68.3c1.3,0.1,2,1.2,1.8,2.9h-4.8C173.6,69.4,174.9,68.2,176.5,68.3"/>
	<path class="st0" d="M138.3,71.6c-0.2-2.1-1.5-4-3.3-4.5c-1.9-0.6-3.9,0-5.1,1.5c-1.6,2-1.7,5.2-0.2,7.3c1.4,2,4.2,2.6,6.3,1.2
		c1.7-1.1,2.3-2.8,2.3-4.8C138.3,72.1,138.3,71.9,138.3,71.6 M136.5,74.4c-0.4,1.3-1.4,2-2.8,2c-1.4,0.1-2.4-0.6-3-1.8
		c-0.7-1.4-0.7-2.8-0.2-4.3c0.5-1.3,1.6-2.1,3-2c1.4,0,2.4,0.7,2.9,2.1c0.2,0.6,0.3,1.3,0.5,2C136.8,73.1,136.7,73.7,136.5,74.4"/>
	<path class="st0" d="M77.9,76.2c1.4,0,2.7,0.2,4,0.1c1.2-0.1,1.8-0.8,2-1.7c0.2-1.1-0.4-1.8-1.3-2.3c-1-0.5-2-1-2.9-1.6
		c-1.4-0.8-2-2.1-1.8-3.7c0.3-1.6,1.2-2.6,2.8-2.8c0.8-0.1,1.7-0.1,2.6,0c1.1,0.1,1.2,0.2,0.9,1.5c-0.9,0-1.7-0.2-2.6-0.1
		c-1.6,0.1-2.3,0.8-2.3,2.2c0,0.8,0.4,1.3,1,1.6c1,0.6,2,1.1,3,1.6c1.4,0.7,2.2,1.8,2,3.4c-0.2,1.6-1.1,2.7-2.6,3.3
		c-1.2,0.5-2.4,0.5-3.7,0.2C77.8,77.4,77.7,77.4,77.9,76.2"/>
	<path class="st0" d="M46,13c9.8,28.3,19.6,56.7,29.4,85c-0.1,0-0.3,0.1-0.4,0.1c-9.8-28.3-19.6-56.7-29.4-85
		C45.7,13.1,45.8,13.1,46,13"/>
	<path class="st0" d="M17.1,22.7c0.9,3.5,0,5.7-2.7,7.5c-1.7,1.1-3,2.5-4.1,4.2c-0.1,0.2-0.2,0.3-0.4,0.5c-1.1-3.1,0.2-6.6,3.3-8.6
		C14.6,25.2,16.2,24.5,17.1,22.7"/>
	<path class="st0" d="M139.5,68.4V67c1.6,0.4,1.7-0.5,1.9-1.7c0.2-1.8,1.4-2.6,3.2-2.5c0.7,0,1.4,0.2,2.3,0.4
		c-0.2,0.5-0.3,0.9-0.4,1.3c-0.7-0.1-1.3-0.2-1.9-0.2c-1.1,0-2,1.3-1.7,2.3c0,0.2,0.3,0.3,0.5,0.3c0.5,0,1.1,0,1.6,0
		c0.4,1.4,0.3,1.5-1,1.5c-0.4,0-0.7,0-1.2,0v9.1h-1.6v-6.6c0-0.2,0-0.4,0-0.6C141.2,68.6,141.2,68.6,139.5,68.4"/>
	<path class="st0" d="M37.7,33.9c-2.5-1.9-5.3-1.5-8.2-1c0.7,1,1.3,1.9,1.9,2.8c0.9,1.3,2.1,2.1,3.7,2.2c0.6,0.1,1.3,0.2,1.9,0.3
		c1.3,0.3,1.3,0.3,1.2,1.6c0,0.3,0.2,0.7,0.4,1c0.3,0.4,0.7,0.4,0.9-0.2C40.2,38.5,39.4,35.2,37.7,33.9 M35.7,37
		c-1,0.1-1.8-0.1-2.5-0.9c-0.5-0.7-0.4-1.3,0.2-1.8c0.2-0.2,0.4-0.5,0.7-0.6c0.4-0.2,0.9-0.3,1.4-0.4c0.2,0,0.5,0.3,0.5,0.4
		c-0.1,0.2-0.3,0.4-0.4,0.6c-0.1,0.1-0.4,0-0.5,0.1c-0.2,0.2-0.4,0.4-0.6,0.6c0.3,0.1,0.6,0.4,0.8,0.4c0.6-0.1,1.2-0.3,1.8-0.5
		C37.2,36.2,36.7,36.9,35.7,37"/>
	<path class="st0" d="M111.4,75.9c0.1,0.5,0.3,0.9,0.5,1.6c-1.1,0.2-2.1,0.4-3.1,0.4c-1.5-0.1-2.6-1.3-2.7-3.1
		c-0.1-1.7-0.1-3.4-0.1-5c0-0.4,0-0.7,0-1.1c-0.4-0.1-0.7-0.1-1.1-0.1v-1.4c0.9,0.1,1.2-0.3,1.1-1.2c-0.1-1.1,0.8-0.8,1.5-1V67h2.9
		v1.5c-0.7,0-1.4,0-2.1,0c-0.7,0-0.8,0.2-0.8,0.9c0,1.4,0,2.9,0,4.3c0.1,2.5,1.2,3.2,3.5,2.3C111,76,111.2,75.9,111.4,75.9"/>
	<path class="st0" d="M87.8,68.6c-0.4-0.1-0.7-0.1-1.1-0.2v-1.4c1,0.1,1.2-0.4,1.1-1.2c-0.1-1.2,0.8-0.7,1.5-1c0,0.5,0,0.8,0,1.1
		c0,1.2,0,1.2,1.2,1.2h1.7v1.5c-0.7,0-1.5,0-2.2,0c-0.5,0-0.7,0.1-0.7,0.7c0,1.6,0,3.2,0.1,4.8c0.1,2.3,1.3,3,3.4,2.1
		c0.1-0.1,0.3-0.1,0.5-0.2c0.1,0.4,0.3,0.8,0.4,1.4c-1.3,0.6-2.6,1-4,0.4c-1.3-0.6-1.8-1.7-1.9-3c-0.1-1.7,0-3.3,0-5
		C87.8,69.3,87.8,68.9,87.8,68.6"/>
	<path class="st0" d="M213.8,75.9c0.2,0.4,0.3,0.8,0.5,1.3c-1.3,0.6-2.7,1-4,0.4c-1.3-0.6-1.8-1.8-1.8-3.2c-0.1-1.6,0-3.2,0-4.8
		c0-0.3,0-0.7,0-1c-0.4-0.1-0.7-0.1-1.1-0.2v-1.4c1.1,0.2,1.2-0.5,1.1-1.3c-0.1-1.1,0.8-0.7,1.5-0.9c0,0.6,0,1.1,0,1.5
		c0,0.5,0.2,0.7,0.7,0.6c0.7,0,1.5,0,2.2,0v1.5c-0.7,0-1.5,0-2.2,0c-0.5,0-0.7,0.1-0.7,0.7c0,1.6,0,3.1,0,4.7c0.1,2.4,1.2,3,3.4,2.2
		C213.4,76,213.6,75.9,213.8,75.9"/>
	<path class="st0" d="M153.6,68.6c-0.4-0.1-0.7-0.1-1.1-0.1v-1.3c0.4-0.1,0.7-0.1,1-0.2c0.1-0.6,0.1-1.3,0.3-1.8
		c0.1-0.2,0.7-0.2,1.3-0.3c0,0.5,0,1,0,1.4c-0.1,0.6,0.2,0.8,0.8,0.8c0.7,0,1.3,0,2.1,0v1.5h-2.7c0,2.2-0.1,4.3,0,6.4
		c0.1,1.3,1.2,1.8,2.5,1.4c0.4-0.1,0.7-0.3,1.2-0.4c0.1,0.4,0.3,0.8,0.4,1.2c-2.2,1.4-5.7,1.1-5.8-2.8
		C153.5,72.4,153.6,70.5,153.6,68.6"/>
	<path class="st0" d="M201.9,77.6c-1.5,0.2-1.5,0.2-1.5-1.2c0-2.7,0-5.5,0-8.2v-1c1-0.5,1.1,0.3,1.4,1c1.2-1.3,2.6-1.7,4.3-1
		c-0.2,0.4-0.3,0.9-0.5,1.3c-0.5-0.1-1-0.2-1.5-0.2c-1.2,0-2.2,0.9-2.2,2.2C201.9,72.8,201.9,75.2,201.9,77.6"/>
</g>
<g>
	<rect x="278.4" y="56.9" class="st0" width="47.9" height="2"/>
	<rect x="275.7" y="60.3" class="st0" width="53.2" height="2"/>
	<rect x="273.2" y="63.7" class="st0" width="58.3" height="2"/>
	<rect x="278.4" y="31.9" class="st0" width="47.9" height="2"/>
	<polyline class="st0" points="288.1,30.2 302.3,26 316.3,30.2 322.1,30.2 302.3,24.1 282.3,30.2 	"/>
	<polyline class="st0" points="278.4,30.2 302.2,23 326.3,30.2 326.3,28.1 302.3,20.7 278.4,28.1 	"/>
	<path class="st0" d="M281.2,54.2c0,0,0,1.5,1.7,1.5c1.7,0,1.6-1.5,1.6-1.5V34.7h-1.3v19.5c0,0,0,0.4-0.5,0.4
		c-0.5,0-0.4-0.5-0.4-0.5V34.7h-1.3"/>
	<polyline class="st0" points="289.1,55.7 290.1,55.7 290.1,43.7 291.3,55.7 292.4,55.7 292.4,34.7 291.3,34.7 291.3,44.8 
		290.6,34.7 289.1,34.7 	"/>
	<polyline class="st0" points="297.1,55.7 300.3,55.7 300.3,54.6 298.5,54.6 298.5,45.1 299.8,45.1 299.8,44 298.5,44 298.5,35.8 
		299.8,35.8 299.8,34.7 297.1,34.7 	"/>
	<path class="st0" d="M315.5,40.9v-4.7c0,0,0-1.5-1.7-1.5c-1.6,0-1.6,1.5-1.6,1.5v18c0,0-0.1,1.5,1.6,1.5c1.7,0,1.7-1.5,1.7-1.5
		v-5.3h-1.3v5.3c0,0,0,0.4-0.4,0.4c-0.4,0-0.5-0.4-0.5-0.4v-18c0,0,0-0.5,0.5-0.5c0.4,0,0.4,0.5,0.4,0.5v4.7"/>
	<path class="st0" d="M322.3,54.2c0,0,0,0.4-0.5,0.4c-0.5,0-0.5-0.4-0.5-0.4v-18c0,0,0-0.5,0.5-0.5c0.5,0,0.5,0.5,0.5,0.5V54.2z
		 M323.5,44.8v-8.6c0,0,0.1-1.5-1.7-1.5c-1.8,0-1.8,1.5-1.8,1.5v18c0,0,0,1.5,1.7,1.5c1.8,0,1.8-1.5,1.8-1.5v-6.6"/>
	<path class="st0" d="M306.4,54.2c0,0,0,0.4-0.3,0.4c-0.3,0-0.3-0.4-0.3-0.4v-5.3h-1.3v5.3c0,0-0.1,1.5,1.6,1.5
		c1.7,0,1.7-1.5,1.7-1.5v-3.7c0,0,0,0.2,0-0.8c0-2.5-2-7.2-2-8.7v-0.4v-4.3c0,0,0-0.5,0.3-0.5s0.4,0.5,0.4,0.5v4.7h1.3v-4.7
		c0,0,0-1.6-1.6-1.5c-1.7,0.1-1.7,1.5-1.7,1.5v4c0,2.6,2,7.1,2,9.1v0.5"/>
	<path class="st0" d="M341.7,14.7c0.2,0.2,0.2,0.4,0.2,0.6c0,0.2-0.1,0.4-0.2,0.6c-0.2,0.2-0.4,0.2-0.6,0.2c-0.2,0-0.4-0.1-0.6-0.2
		c-0.2-0.2-0.2-0.4-0.2-0.6c0-0.2,0.1-0.4,0.2-0.6c0.2-0.2,0.4-0.2,0.6-0.2C341.4,14.5,341.6,14.6,341.7,14.7"/>
	<path class="st0" d="M341.7,17.7c0.2,0.2,0.2,0.4,0.2,0.6c0,0.2-0.1,0.4-0.2,0.6c-0.2,0.2-0.4,0.2-0.6,0.2c-0.2,0-0.4-0.1-0.6-0.2
		c-0.2-0.2-0.2-0.4-0.2-0.6c0-0.2,0.1-0.4,0.2-0.6c0.2-0.2,0.4-0.2,0.6-0.2C341.4,17.4,341.6,17.5,341.7,17.7"/>
	<path class="st0" d="M341.7,20.8c0.2,0.2,0.2,0.4,0.2,0.6c0,0.2-0.1,0.4-0.2,0.6c-0.2,0.2-0.4,0.2-0.6,0.2c-0.2,0-0.4-0.1-0.6-0.2
		c-0.2-0.2-0.2-0.4-0.2-0.6c0-0.2,0.1-0.4,0.2-0.6c0.2-0.2,0.4-0.2,0.6-0.2C341.4,20.6,341.6,20.6,341.7,20.8"/>
	<path class="st0" d="M341.7,23.9c0.2,0.2,0.2,0.4,0.2,0.6c0,0.2-0.1,0.4-0.2,0.6c-0.2,0.2-0.4,0.2-0.6,0.2c-0.2,0-0.4-0.1-0.6-0.2
		c-0.2-0.2-0.2-0.4-0.2-0.6c0-0.2,0.1-0.4,0.2-0.6c0.2-0.2,0.4-0.2,0.6-0.2C341.4,23.7,341.6,23.8,341.7,23.9"/>
	<path class="st0" d="M341.7,27.3c0.2,0.2,0.2,0.4,0.2,0.6c0,0.2-0.1,0.4-0.2,0.6c-0.2,0.2-0.4,0.2-0.6,0.2c-0.2,0-0.4-0.1-0.6-0.2
		c-0.2-0.2-0.2-0.4-0.2-0.6c0-0.2,0.1-0.4,0.2-0.6c0.2-0.2,0.4-0.2,0.6-0.2C341.4,27.1,341.6,27.2,341.7,27.3"/>
	<path class="st0" d="M341.7,30.7c0.2,0.2,0.2,0.4,0.2,0.6c0,0.2-0.1,0.4-0.2,0.6c-0.2,0.2-0.4,0.2-0.6,0.2c-0.2,0-0.4-0.1-0.6-0.2
		c-0.2-0.2-0.2-0.4-0.2-0.6c0-0.2,0.1-0.4,0.2-0.6c0.2-0.2,0.4-0.2,0.6-0.2C341.4,30.5,341.6,30.6,341.7,30.7"/>
	<path class="st0" d="M341.7,34.2c0.2,0.2,0.2,0.4,0.2,0.6c0,0.2-0.1,0.4-0.2,0.6c-0.2,0.2-0.4,0.2-0.6,0.2c-0.2,0-0.4-0.1-0.6-0.2
		c-0.2-0.2-0.2-0.4-0.2-0.6c0-0.2,0.1-0.4,0.2-0.6c0.2-0.2,0.4-0.2,0.6-0.2C341.4,34,341.6,34,341.7,34.2"/>
	<path class="st0" d="M341.7,37.7c0.2,0.2,0.2,0.4,0.2,0.6s-0.1,0.4-0.2,0.6c-0.2,0.2-0.4,0.2-0.6,0.2c-0.2,0-0.4-0.1-0.6-0.2
		c-0.2-0.2-0.2-0.4-0.2-0.6s0.1-0.4,0.2-0.6c0.2-0.2,0.4-0.2,0.6-0.2C341.4,37.5,341.6,37.5,341.7,37.7"/>
	<path class="st0" d="M341.7,41.5c0.2,0.2,0.2,0.4,0.2,0.6c0,0.2-0.1,0.4-0.2,0.6c-0.2,0.2-0.4,0.2-0.6,0.2c-0.2,0-0.4-0.1-0.6-0.2
		c-0.2-0.2-0.2-0.4-0.2-0.6c0-0.2,0.1-0.4,0.2-0.6c0.2-0.2,0.4-0.2,0.6-0.2C341.4,41.2,341.6,41.3,341.7,41.5"/>
	<path class="st0" d="M341.7,45.2c0.2,0.2,0.2,0.4,0.2,0.6c0,0.2-0.1,0.4-0.2,0.6c-0.2,0.2-0.4,0.2-0.6,0.2c-0.2,0-0.4-0.1-0.6-0.2
		c-0.2-0.2-0.2-0.4-0.2-0.6c0-0.2,0.1-0.4,0.2-0.6c0.2-0.2,0.4-0.2,0.6-0.2C341.4,45,341.6,45.1,341.7,45.2"/>
	<path class="st0" d="M341.7,49.2c0.2,0.2,0.2,0.4,0.2,0.6c0,0.2-0.1,0.4-0.2,0.6c-0.2,0.2-0.4,0.2-0.6,0.2c-0.2,0-0.4-0.1-0.6-0.2
		c-0.2-0.2-0.2-0.4-0.2-0.6c0-0.2,0.1-0.4,0.2-0.6c0.2-0.2,0.4-0.2,0.6-0.2C341.4,49,341.6,49.1,341.7,49.2"/>
	<path class="st0" d="M341.7,53.3c0.2,0.2,0.2,0.4,0.2,0.6c0,0.2-0.1,0.4-0.2,0.6c-0.2,0.2-0.4,0.2-0.6,0.2c-0.2,0-0.4-0.1-0.6-0.2
		c-0.2-0.2-0.2-0.4-0.2-0.6c0-0.2,0.1-0.4,0.2-0.6c0.2-0.2,0.4-0.2,0.6-0.2C341.4,53,341.6,53.1,341.7,53.3"/>
	<path class="st0" d="M341.7,57.5c0.2,0.2,0.2,0.4,0.2,0.6c0,0.2-0.1,0.4-0.2,0.6c-0.2,0.2-0.4,0.2-0.6,0.2c-0.2,0-0.4-0.1-0.6-0.2
		c-0.2-0.2-0.2-0.4-0.2-0.6c0-0.2,0.1-0.4,0.2-0.6c0.2-0.2,0.4-0.2,0.6-0.2C341.4,57.3,341.6,57.4,341.7,57.5"/>
	<path class="st0" d="M341.7,62.4c0.2,0.2,0.2,0.4,0.2,0.6c0,0.2-0.1,0.4-0.2,0.6c-0.2,0.2-0.4,0.2-0.6,0.2c-0.2,0-0.4-0.1-0.6-0.2
		c-0.2-0.2-0.2-0.4-0.2-0.6c0-0.2,0.1-0.4,0.2-0.6c0.2-0.2,0.4-0.2,0.6-0.2C341.4,62.1,341.6,62.2,341.7,62.4"/>
	<path class="st0" d="M341.7,67.7c0.2,0.2,0.2,0.4,0.2,0.6c0,0.2-0.1,0.4-0.2,0.6c-0.2,0.2-0.4,0.2-0.6,0.2c-0.2,0-0.4-0.1-0.6-0.2
		c-0.2-0.2-0.2-0.4-0.2-0.6c0-0.2,0.1-0.4,0.2-0.6c0.2-0.2,0.4-0.2,0.6-0.2C341.4,67.5,341.6,67.6,341.7,67.7"/>
	<path class="st0" d="M341.7,74c0.2,0.2,0.2,0.4,0.2,0.6c0,0.2-0.1,0.4-0.2,0.6c-0.2,0.2-0.4,0.2-0.6,0.2c-0.2,0-0.4-0.1-0.6-0.2
		c-0.2-0.2-0.2-0.4-0.2-0.6c0-0.2,0.1-0.4,0.2-0.6c0.2-0.2,0.4-0.2,0.6-0.2C341.4,73.8,341.6,73.8,341.7,74"/>
	<path class="st0" d="M341.7,80.8c0.2,0.2,0.2,0.4,0.2,0.6c0,0.2-0.1,0.4-0.2,0.6c-0.2,0.2-0.4,0.2-0.6,0.2c-0.2,0-0.4-0.1-0.6-0.2
		c-0.2-0.2-0.2-0.4-0.2-0.6c0-0.2,0.1-0.4,0.2-0.6c0.2-0.2,0.4-0.2,0.6-0.2C341.4,80.5,341.6,80.6,341.7,80.8"/>
	<path class="st0" d="M341.7,88.5c0.2,0.2,0.2,0.4,0.2,0.6c0,0.2-0.1,0.4-0.2,0.6c-0.2,0.2-0.4,0.2-0.6,0.2c-0.2,0-0.4-0.1-0.6-0.2
		c-0.2-0.2-0.2-0.4-0.2-0.6c0-0.2,0.1-0.4,0.2-0.6c0.2-0.2,0.4-0.2,0.6-0.2C341.4,88.3,341.6,88.4,341.7,88.5"/>
	<path class="st0" d="M341.7,97.2c0.2,0.2,0.2,0.4,0.2,0.6c0,0.2-0.1,0.4-0.2,0.6c-0.2,0.2-0.4,0.2-0.6,0.2c-0.2,0-0.4-0.1-0.6-0.2
		c-0.2-0.2-0.2-0.4-0.2-0.6c0-0.2,0.1-0.4,0.2-0.6c0.2-0.2,0.4-0.2,0.6-0.2C341.4,97,341.6,97.1,341.7,97.2"/>
	<path class="st0" d="M341.7,106.9c0.2,0.2,0.2,0.4,0.2,0.6c0,0.2-0.1,0.4-0.2,0.6c-0.2,0.2-0.4,0.2-0.6,0.2c-0.2,0-0.4-0.1-0.6-0.2
		c-0.2-0.2-0.2-0.4-0.2-0.6c0-0.2,0.1-0.4,0.2-0.6c0.2-0.2,0.4-0.2,0.6-0.2C341.4,106.7,341.6,106.8,341.7,106.9"/>
	<path class="st0" d="M284.6,73.8h0.7V77c0,0.5-0.1,1-0.2,1.3c-0.1,0.3-0.3,0.6-0.7,0.8c-0.3,0.2-0.7,0.3-1.3,0.3
		c-0.5,0-0.9-0.1-1.3-0.3c-0.3-0.2-0.6-0.4-0.7-0.8c-0.1-0.3-0.2-0.8-0.2-1.4v-3.1h0.7V77c0,0.5,0,0.8,0.1,1
		c0.1,0.2,0.2,0.4,0.5,0.5c0.2,0.1,0.5,0.2,0.8,0.2c0.5,0,0.9-0.1,1.1-0.4c0.2-0.2,0.3-0.7,0.3-1.4"/>
	<path class="st0" d="M286.5,79.3v-3.9h0.6v0.6c0.3-0.4,0.7-0.6,1.3-0.6c0.2,0,0.5,0,0.7,0.1c0.2,0.1,0.4,0.2,0.5,0.3
		c0.1,0.1,0.2,0.3,0.2,0.5c0,0.1,0,0.3,0,0.6v2.4H289v-2.4c0-0.3,0-0.5-0.1-0.6c-0.1-0.1-0.1-0.2-0.3-0.3c-0.1-0.1-0.3-0.1-0.5-0.1
		c-0.3,0-0.5,0.1-0.7,0.3c-0.2,0.2-0.3,0.5-0.3,1v2.1"/>
	<path class="st0" d="M290.7,75.3h0.7v3.9h-0.7V75.3z M290.7,73.8h0.7v0.8h-0.7V73.8z"/>
	<path class="st0" d="M293.9,78.7l0.1,0.6c-0.2,0-0.4,0.1-0.5,0.1c-0.2,0-0.4,0-0.6-0.1c-0.1-0.1-0.2-0.2-0.3-0.3
		c-0.1-0.1-0.1-0.4-0.1-0.8v-2.3H292v-0.5h0.5v-1l0.7-0.4v1.4h0.7v0.5h-0.7v2.3c0,0.2,0,0.3,0,0.4c0,0.1,0.1,0.1,0.1,0.1
		c0.1,0,0.1,0,0.2,0C293.6,78.7,293.7,78.7,293.9,78.7"/>
	<path class="st0" d="M295,76.9h2.2c0-0.3-0.1-0.6-0.3-0.7c-0.2-0.3-0.5-0.4-0.8-0.4c-0.3,0-0.6,0.1-0.8,0.3
		C295.2,76.3,295,76.6,295,76.9 M297.2,78l0.7,0.1c-0.1,0.4-0.3,0.7-0.6,0.9c-0.3,0.2-0.7,0.3-1.1,0.3c-0.6,0-1-0.2-1.4-0.5
		c-0.3-0.4-0.5-0.9-0.5-1.5c0-0.7,0.2-1.2,0.5-1.5c0.3-0.4,0.8-0.5,1.3-0.5c0.5,0,1,0.2,1.3,0.5c0.3,0.4,0.5,0.9,0.5,1.5
		c0,0,0,0.1,0,0.2H295c0,0.4,0.1,0.8,0.4,1c0.2,0.2,0.5,0.3,0.8,0.3c0.2,0,0.5-0.1,0.6-0.2C297,78.5,297.1,78.3,297.2,78"/>
	<path class="st0" d="M299.2,77.3c0,0.5,0.1,0.9,0.3,1.1c0.2,0.2,0.5,0.4,0.8,0.4c0.3,0,0.5-0.1,0.7-0.4c0.2-0.2,0.3-0.6,0.3-1.1
		c0-0.5-0.1-0.9-0.3-1.2c-0.2-0.3-0.5-0.4-0.8-0.4c-0.3,0-0.5,0.1-0.7,0.4C299.3,76.4,299.2,76.8,299.2,77.3 M301.3,79.3v-0.5
		c-0.3,0.4-0.6,0.6-1.1,0.6c-0.3,0-0.6-0.1-0.9-0.3c-0.3-0.2-0.5-0.4-0.6-0.7c-0.1-0.3-0.2-0.7-0.2-1.1c0-0.4,0.1-0.7,0.2-1.1
		c0.1-0.3,0.3-0.6,0.6-0.7c0.3-0.2,0.6-0.3,0.9-0.3c0.2,0,0.5,0.1,0.6,0.2c0.2,0.1,0.3,0.2,0.5,0.4v-2h0.7v5.4"/>
	<polyline class="st0" points="305.2,79.3 305.2,73.8 305.9,73.8 308.8,78.1 308.8,73.8 309.5,73.8 309.5,79.3 308.7,79.3 305.9,75 
		305.9,79.3 	"/>
	<path class="st0" d="M313.1,77.3c-0.2,0.1-0.6,0.2-1.1,0.3c-0.3,0-0.5,0.1-0.6,0.1c-0.1,0-0.2,0.1-0.3,0.2
		c-0.1,0.1-0.1,0.2-0.1,0.3c0,0.2,0.1,0.3,0.2,0.4c0.1,0.1,0.3,0.2,0.6,0.2c0.3,0,0.5-0.1,0.7-0.2c0.2-0.1,0.4-0.3,0.4-0.5
		c0.1-0.2,0.1-0.4,0.1-0.7L313.1,77.3z M313.2,78.8c-0.2,0.2-0.5,0.4-0.7,0.5c-0.2,0.1-0.5,0.1-0.7,0.1c-0.4,0-0.8-0.1-1-0.3
		c-0.2-0.2-0.4-0.5-0.4-0.8c0-0.2,0-0.4,0.1-0.5c0.1-0.2,0.2-0.3,0.3-0.4c0.1-0.1,0.3-0.2,0.5-0.2c0.1,0,0.3-0.1,0.6-0.1
		c0.5-0.1,0.9-0.1,1.2-0.2c0-0.1,0-0.1,0-0.2c0-0.3-0.1-0.5-0.2-0.6c-0.2-0.1-0.4-0.2-0.8-0.2c-0.3,0-0.6,0.1-0.7,0.2
		c-0.2,0.1-0.3,0.3-0.3,0.6l-0.7-0.1c0.1-0.3,0.2-0.5,0.3-0.7c0.1-0.2,0.3-0.3,0.6-0.4c0.3-0.1,0.6-0.1,0.9-0.1c0.3,0,0.6,0,0.8,0.1
		c0.2,0.1,0.4,0.2,0.5,0.3c0.1,0.1,0.2,0.3,0.2,0.5c0,0.1,0,0.3,0,0.6v0.9c0,0.6,0,1,0,1.2c0,0.2,0.1,0.3,0.2,0.5h-0.7
		C313.2,79.1,313.2,79,313.2,78.8"/>
	<path class="st0" d="M316.3,78.7l0.1,0.6c-0.2,0-0.4,0.1-0.5,0.1c-0.2,0-0.4,0-0.6-0.1c-0.1-0.1-0.2-0.2-0.3-0.3
		c-0.1-0.1-0.1-0.4-0.1-0.8v-2.3h-0.5v-0.5h0.5v-1l0.7-0.4v1.4h0.7v0.5h-0.7v2.3c0,0.2,0,0.3,0,0.4c0,0.1,0.1,0.1,0.1,0.1
		c0.1,0,0.1,0,0.2,0C316.1,78.7,316.2,78.7,316.3,78.7"/>
	<path class="st0" d="M316.9,75.3h0.7v3.9h-0.7V75.3z M316.9,73.8h0.7v0.8h-0.7V73.8z"/>
	<path class="st0" d="M319.1,77.3c0,0.5,0.1,0.9,0.3,1.1c0.2,0.3,0.5,0.4,0.8,0.4c0.3,0,0.6-0.1,0.8-0.4c0.2-0.3,0.3-0.6,0.3-1.2
		c0-0.5-0.1-0.9-0.3-1.1c-0.2-0.3-0.5-0.4-0.8-0.4c-0.3,0-0.6,0.1-0.8,0.4C319.2,76.4,319.1,76.8,319.1,77.3 M318.4,77.3
		c0-0.7,0.2-1.3,0.6-1.6c0.3-0.3,0.8-0.4,1.2-0.4c0.5,0,1,0.2,1.3,0.5c0.3,0.4,0.5,0.8,0.5,1.5c0,0.5-0.1,0.9-0.2,1.2
		c-0.2,0.3-0.4,0.5-0.7,0.7c-0.3,0.2-0.6,0.2-1,0.2c-0.6,0-1-0.2-1.3-0.5C318.5,78.5,318.4,78,318.4,77.3"/>
	<path class="st0" d="M322.8,79.3v-3.9h0.6v0.6c0.3-0.4,0.7-0.6,1.3-0.6c0.2,0,0.5,0,0.7,0.1c0.2,0.1,0.3,0.2,0.4,0.3
		c0.1,0.1,0.2,0.3,0.2,0.5c0,0.1,0,0.3,0,0.6v2.4h-0.7v-2.4c0-0.3,0-0.5-0.1-0.6c-0.1-0.1-0.1-0.2-0.3-0.3c-0.1-0.1-0.3-0.1-0.5-0.1
		c-0.3,0-0.5,0.1-0.7,0.3c-0.2,0.2-0.3,0.5-0.3,1v2.1"/>
	<path class="st0" d="M326.8,78.1l0.7-0.1c0,0.3,0.1,0.5,0.3,0.6c0.2,0.1,0.4,0.2,0.7,0.2c0.3,0,0.5-0.1,0.7-0.2
		c0.1-0.1,0.2-0.3,0.2-0.4c0-0.2-0.1-0.3-0.2-0.4c-0.1-0.1-0.3-0.1-0.7-0.2c-0.5-0.1-0.8-0.2-1-0.3c-0.2-0.1-0.3-0.2-0.4-0.4
		c-0.1-0.2-0.1-0.3-0.1-0.5c0-0.2,0-0.3,0.1-0.5c0.1-0.1,0.2-0.3,0.3-0.4c0.1-0.1,0.2-0.1,0.4-0.2c0.2-0.1,0.4-0.1,0.6-0.1
		c0.3,0,0.6,0,0.8,0.1c0.2,0.1,0.4,0.2,0.5,0.4c0.1,0.2,0.2,0.4,0.2,0.6l-0.7,0.1c0-0.2-0.1-0.4-0.3-0.5c-0.1-0.1-0.3-0.2-0.6-0.2
		c-0.3,0-0.5,0.1-0.7,0.2c-0.1,0.1-0.2,0.2-0.2,0.4c0,0.1,0,0.2,0.1,0.2c0.1,0.1,0.1,0.1,0.3,0.2c0.1,0,0.3,0.1,0.6,0.2
		c0.5,0.1,0.8,0.2,1,0.3c0.2,0.1,0.3,0.2,0.4,0.4c0.1,0.2,0.2,0.3,0.2,0.6c0,0.2-0.1,0.4-0.2,0.6c-0.1,0.2-0.3,0.3-0.6,0.5
		c-0.2,0.1-0.5,0.2-0.8,0.2c-0.5,0-0.9-0.1-1.2-0.3C327.1,78.8,326.9,78.5,326.8,78.1"/>
	<polyline class="st0" points="241.8,87.6 241.8,82.1 245.7,82.1 245.7,82.8 242.5,82.8 242.5,84.4 245.5,84.4 245.5,85.1 
		242.5,85.1 242.5,86.9 245.8,86.9 245.8,87.6 	"/>
	<path class="st0" d="M247.2,85.6c0,0.5,0.1,0.9,0.3,1.1c0.2,0.3,0.5,0.4,0.8,0.4c0.3,0,0.5-0.1,0.7-0.4c0.2-0.2,0.3-0.6,0.3-1.1
		c0-0.5-0.1-0.9-0.3-1.2c-0.2-0.3-0.5-0.4-0.8-0.4c-0.3,0-0.5,0.1-0.7,0.4C247.3,84.7,247.2,85.1,247.2,85.6 M249.3,87.6v-0.5
		c-0.3,0.4-0.6,0.6-1.1,0.6c-0.3,0-0.6-0.1-0.9-0.3c-0.3-0.2-0.5-0.4-0.6-0.7c-0.1-0.3-0.2-0.7-0.2-1.1c0-0.4,0.1-0.7,0.2-1.1
		c0.1-0.3,0.3-0.6,0.6-0.7c0.3-0.2,0.6-0.3,0.9-0.3c0.2,0,0.4,0.1,0.6,0.1c0.2,0.1,0.3,0.2,0.5,0.4v-2h0.7v5.4"/>
	<path class="st0" d="M253.5,87.6V87c-0.3,0.4-0.7,0.7-1.3,0.7c-0.2,0-0.5,0-0.7-0.1c-0.2-0.1-0.4-0.2-0.4-0.3
		c-0.1-0.1-0.2-0.3-0.2-0.5c0-0.1,0-0.3,0-0.6v-2.4h0.7v2.2c0,0.3,0,0.6,0,0.7c0,0.2,0.1,0.3,0.3,0.4c0.1,0.1,0.3,0.2,0.5,0.2
		c0.2,0,0.4-0.1,0.6-0.2c0.2-0.1,0.3-0.2,0.4-0.4c0.1-0.2,0.1-0.4,0.1-0.8v-2.1h0.7v3.9"/>
	<path class="st0" d="M257.8,86.1l0.7,0.1c-0.1,0.5-0.3,0.8-0.6,1.1c-0.3,0.3-0.7,0.4-1.1,0.4c-0.5,0-1-0.2-1.3-0.5
		c-0.3-0.4-0.5-0.9-0.5-1.5c0-0.4,0.1-0.8,0.2-1.1c0.1-0.3,0.4-0.6,0.6-0.7c0.3-0.2,0.6-0.2,0.9-0.2c0.4,0,0.8,0.1,1,0.3
		c0.3,0.2,0.4,0.5,0.5,0.9l-0.6,0.1c-0.1-0.3-0.2-0.5-0.3-0.6c-0.2-0.1-0.3-0.2-0.6-0.2c-0.3,0-0.6,0.1-0.8,0.4
		c-0.2,0.2-0.3,0.6-0.3,1.1c0,0.5,0.1,0.9,0.3,1.2c0.2,0.2,0.5,0.4,0.8,0.4c0.3,0,0.5-0.1,0.7-0.2C257.6,86.7,257.7,86.5,257.8,86.1
		"/>
	<path class="st0" d="M261.5,85.6c-0.2,0.1-0.6,0.2-1.1,0.3c-0.3,0-0.5,0.1-0.6,0.1c-0.1,0.1-0.2,0.1-0.3,0.2
		c-0.1,0.1-0.1,0.2-0.1,0.3c0,0.2,0.1,0.3,0.2,0.4c0.1,0.1,0.3,0.2,0.6,0.2c0.3,0,0.5-0.1,0.7-0.2c0.2-0.1,0.4-0.3,0.4-0.5
		c0.1-0.2,0.1-0.4,0.1-0.7L261.5,85.6z M261.6,87.1c-0.2,0.2-0.5,0.4-0.7,0.5c-0.2,0.1-0.5,0.1-0.7,0.1c-0.4,0-0.8-0.1-1-0.3
		c-0.2-0.2-0.4-0.5-0.4-0.8c0-0.2,0-0.4,0.1-0.5c0.1-0.2,0.2-0.3,0.3-0.4c0.1-0.1,0.3-0.2,0.5-0.2c0.1,0,0.3-0.1,0.6-0.1
		c0.5-0.1,0.9-0.1,1.2-0.2c0-0.1,0-0.1,0-0.2c0-0.3-0.1-0.5-0.2-0.6c-0.2-0.2-0.4-0.2-0.8-0.2c-0.3,0-0.6,0.1-0.7,0.2
		c-0.2,0.1-0.3,0.3-0.3,0.6l-0.7-0.1c0.1-0.3,0.2-0.5,0.3-0.7c0.1-0.2,0.3-0.3,0.6-0.4c0.3-0.1,0.6-0.1,0.9-0.1c0.3,0,0.6,0,0.8,0.1
		c0.2,0.1,0.4,0.2,0.5,0.3c0.1,0.1,0.2,0.3,0.2,0.5c0,0.1,0,0.3,0,0.6v0.9c0,0.6,0,1,0,1.2c0,0.2,0.1,0.3,0.2,0.5h-0.7
		C261.6,87.4,261.6,87.3,261.6,87.1"/>
	<path class="st0" d="M264.7,87l0.1,0.6c-0.2,0-0.4,0.1-0.5,0.1c-0.2,0-0.4,0-0.6-0.1c-0.1-0.1-0.2-0.2-0.3-0.3
		c-0.1-0.1-0.1-0.4-0.1-0.8v-2.3h-0.5v-0.5h0.5v-1l0.7-0.4v1.4h0.7v0.5H264v2.3c0,0.2,0,0.3,0,0.4c0,0.1,0.1,0.1,0.1,0.1
		c0.1,0,0.1,0,0.2,0C264.5,87,264.6,87,264.7,87"/>
	<path class="st0" d="M265.3,83.6h0.7v3.9h-0.7V83.6z M265.3,82.1h0.7v0.8h-0.7V82.1z"/>
	<path class="st0" d="M267.5,85.6c0,0.5,0.1,0.9,0.3,1.1c0.2,0.2,0.5,0.4,0.8,0.4c0.3,0,0.6-0.1,0.8-0.4c0.2-0.3,0.3-0.6,0.3-1.2
		c0-0.5-0.1-0.9-0.3-1.1c-0.2-0.3-0.5-0.4-0.8-0.4c-0.3,0-0.6,0.1-0.8,0.4C267.6,84.7,267.5,85.1,267.5,85.6 M266.8,85.6
		c0-0.7,0.2-1.3,0.6-1.6c0.3-0.3,0.8-0.4,1.2-0.4c0.5,0,1,0.2,1.3,0.5c0.3,0.4,0.5,0.8,0.5,1.5c0,0.5-0.1,0.9-0.2,1.2
		c-0.2,0.3-0.4,0.5-0.7,0.7c-0.3,0.2-0.6,0.2-1,0.2c-0.6,0-1-0.2-1.3-0.5C266.9,86.8,266.8,86.3,266.8,85.6"/>
	<path class="st0" d="M271.3,87.6v-3.9h0.6v0.6c0.3-0.4,0.7-0.6,1.3-0.6c0.2,0,0.5,0,0.7,0.1c0.2,0.1,0.4,0.2,0.5,0.3
		c0.1,0.1,0.2,0.3,0.2,0.5c0,0.1,0,0.3,0,0.6v2.4h-0.7v-2.4c0-0.3,0-0.5-0.1-0.6c-0.1-0.1-0.1-0.2-0.3-0.3c-0.1-0.1-0.3-0.1-0.5-0.1
		c-0.3,0-0.5,0.1-0.7,0.3c-0.2,0.2-0.3,0.5-0.3,1v2.1"/>
	<path class="st0" d="M278,85.6c-0.2,0.1-0.6,0.2-1.1,0.3c-0.3,0-0.5,0.1-0.6,0.1c-0.1,0.1-0.2,0.1-0.3,0.2
		c-0.1,0.1-0.1,0.2-0.1,0.3c0,0.2,0.1,0.3,0.2,0.4c0.1,0.1,0.3,0.2,0.6,0.2c0.3,0,0.5-0.1,0.7-0.2c0.2-0.1,0.4-0.3,0.4-0.5
		c0.1-0.2,0.1-0.4,0.1-0.7L278,85.6z M278.1,87.1c-0.2,0.2-0.5,0.4-0.7,0.5c-0.2,0.1-0.5,0.1-0.7,0.1c-0.4,0-0.8-0.1-1-0.3
		c-0.2-0.2-0.4-0.5-0.4-0.8c0-0.2,0-0.4,0.1-0.5c0.1-0.2,0.2-0.3,0.3-0.4c0.1-0.1,0.3-0.2,0.5-0.2c0.1,0,0.3-0.1,0.6-0.1
		c0.5-0.1,0.9-0.1,1.2-0.2c0-0.1,0-0.1,0-0.2c0-0.3-0.1-0.5-0.2-0.6c-0.2-0.2-0.4-0.2-0.8-0.2c-0.3,0-0.6,0.1-0.7,0.2
		c-0.2,0.1-0.3,0.3-0.3,0.6l-0.7-0.1c0.1-0.3,0.2-0.5,0.3-0.7c0.1-0.2,0.3-0.3,0.6-0.4c0.3-0.1,0.6-0.1,0.9-0.1c0.3,0,0.6,0,0.8,0.1
		c0.2,0.1,0.4,0.2,0.5,0.3c0.1,0.1,0.2,0.3,0.2,0.5c0,0.1,0,0.3,0,0.6v0.9c0,0.6,0,1,0,1.2c0,0.2,0.1,0.3,0.2,0.5h-0.7
		C278.1,87.4,278.1,87.3,278.1,87.1"/>
	<rect x="279.7" y="82.1" class="st0" width="0.7" height="5.4"/>
	<path class="st0" d="M281.6,87.6v-0.8h0.8v0.8c0,0.3-0.1,0.5-0.2,0.7c-0.1,0.2-0.3,0.3-0.5,0.4l-0.2-0.3c0.1-0.1,0.2-0.2,0.3-0.3
		c0.1-0.1,0.1-0.3,0.1-0.5"/>
	<path class="st0" d="M285.5,85.8l0.7-0.1c0,0.3,0.1,0.5,0.2,0.7c0.1,0.2,0.3,0.3,0.5,0.4c0.2,0.1,0.5,0.2,0.8,0.2
		c0.3,0,0.5,0,0.7-0.1c0.2-0.1,0.4-0.2,0.5-0.3c0.1-0.1,0.2-0.3,0.2-0.5c0-0.2,0-0.3-0.1-0.4c-0.1-0.1-0.3-0.2-0.5-0.3
		c-0.1-0.1-0.5-0.1-1-0.3c-0.5-0.1-0.8-0.2-1-0.3c-0.3-0.1-0.5-0.3-0.6-0.5c-0.1-0.2-0.2-0.4-0.2-0.7c0-0.3,0.1-0.5,0.2-0.8
		c0.2-0.2,0.4-0.4,0.7-0.5c0.3-0.1,0.6-0.2,1-0.2c0.4,0,0.8,0.1,1.1,0.2c0.3,0.1,0.5,0.3,0.7,0.6c0.2,0.3,0.3,0.5,0.3,0.9l-0.7,0.1
		c0-0.3-0.2-0.6-0.4-0.8c-0.2-0.2-0.5-0.3-0.9-0.3c-0.4,0-0.8,0.1-1,0.2c-0.2,0.2-0.3,0.4-0.3,0.6c0,0.2,0.1,0.4,0.2,0.5
		c0.1,0.1,0.5,0.3,1.1,0.4c0.6,0.1,1,0.2,1.2,0.3c0.3,0.1,0.5,0.3,0.7,0.6c0.2,0.2,0.2,0.5,0.2,0.8c0,0.3-0.1,0.6-0.2,0.8
		c-0.2,0.3-0.4,0.5-0.7,0.6c-0.3,0.1-0.7,0.2-1,0.2c-0.5,0-0.9-0.1-1.2-0.2c-0.3-0.1-0.6-0.4-0.8-0.6
		C285.6,86.5,285.5,86.2,285.5,85.8"/>
	<path class="st0" d="M293.3,86.1l0.7,0.1c-0.1,0.5-0.3,0.8-0.6,1.1c-0.3,0.3-0.7,0.4-1.1,0.4c-0.5,0-1-0.2-1.3-0.5
		c-0.3-0.4-0.5-0.9-0.5-1.5c0-0.4,0.1-0.8,0.2-1.1c0.1-0.3,0.4-0.6,0.6-0.7c0.3-0.2,0.6-0.2,0.9-0.2c0.4,0,0.8,0.1,1,0.3
		c0.3,0.2,0.4,0.5,0.5,0.9l-0.6,0.1c-0.1-0.3-0.2-0.5-0.3-0.6c-0.2-0.1-0.3-0.2-0.6-0.2c-0.3,0-0.6,0.1-0.8,0.4
		c-0.2,0.2-0.3,0.6-0.3,1.1c0,0.5,0.1,0.9,0.3,1.2c0.2,0.2,0.5,0.4,0.8,0.4c0.3,0,0.5-0.1,0.7-0.2C293.1,86.7,293.2,86.5,293.3,86.1
		"/>
	<path class="st0" d="M294.5,83.6h0.7v3.9h-0.7V83.6z M294.5,82.1h0.7v0.8h-0.7V82.1z"/>
	<path class="st0" d="M296.7,85.2h2.2c0-0.3-0.1-0.6-0.3-0.7c-0.2-0.3-0.5-0.4-0.8-0.4c-0.3,0-0.6,0.1-0.8,0.3
		C296.8,84.6,296.7,84.9,296.7,85.2 M298.9,86.3l0.7,0.1c-0.1,0.4-0.3,0.7-0.6,0.9c-0.3,0.2-0.7,0.3-1.1,0.3c-0.6,0-1-0.2-1.4-0.5
		c-0.3-0.4-0.5-0.9-0.5-1.5c0-0.7,0.2-1.2,0.5-1.5c0.3-0.4,0.8-0.5,1.3-0.5c0.5,0,1,0.2,1.3,0.5c0.3,0.4,0.5,0.9,0.5,1.5
		c0,0,0,0.1,0,0.2h-2.9c0,0.4,0.1,0.8,0.4,1c0.2,0.2,0.5,0.3,0.8,0.3c0.2,0,0.5-0.1,0.6-0.2C298.7,86.8,298.8,86.6,298.9,86.3"/>
	<path class="st0" d="M300.4,87.6v-3.9h0.6v0.6c0.3-0.4,0.7-0.6,1.3-0.6c0.2,0,0.5,0,0.7,0.1c0.2,0.1,0.4,0.2,0.5,0.3
		c0.1,0.1,0.2,0.3,0.2,0.5c0,0.1,0,0.3,0,0.6v2.4H303v-2.4c0-0.3,0-0.5-0.1-0.6c-0.1-0.1-0.1-0.2-0.3-0.3c-0.1-0.1-0.3-0.1-0.5-0.1
		c-0.3,0-0.5,0.1-0.7,0.3c-0.2,0.2-0.3,0.5-0.3,1v2.1"/>
	<path class="st0" d="M306.1,87l0.1,0.6c-0.2,0-0.4,0.1-0.5,0.1c-0.2,0-0.4,0-0.6-0.1c-0.1-0.1-0.2-0.2-0.3-0.3
		c-0.1-0.1-0.1-0.4-0.1-0.8v-2.3h-0.5v-0.5h0.5v-1l0.7-0.4v1.4h0.7v0.5h-0.7v2.3c0,0.2,0,0.3,0,0.4c0,0.1,0.1,0.1,0.1,0.1
		c0.1,0,0.1,0,0.2,0C305.9,87,306,87,306.1,87"/>
	<path class="st0" d="M306.8,83.6h0.7v3.9h-0.7V83.6z M306.8,82.1h0.7v0.8h-0.7V82.1z"/>
	<path class="st0" d="M310.6,83.6h0.7v3.9h-0.7V83.6z M310.6,82.1h0.7v0.8h-0.7V82.1z M308.6,87.6v-3.4h-0.6v-0.5h0.6v-0.4
		c0-0.4,0.1-0.7,0.3-0.9c0.2-0.2,0.4-0.3,0.8-0.3c0.2,0,0.5,0,0.7,0.1l-0.1,0.6c-0.1,0-0.3,0-0.4,0c-0.2,0-0.4,0-0.5,0.1
		c-0.1,0.1-0.1,0.3-0.1,0.6v0.3h0.8v0.5h-0.8v3.4"/>
	<path class="st0" d="M314.8,86.1l0.7,0.1c-0.1,0.5-0.3,0.8-0.5,1.1c-0.3,0.3-0.7,0.4-1.1,0.4c-0.5,0-1-0.2-1.3-0.5
		c-0.3-0.4-0.5-0.9-0.5-1.5c0-0.4,0.1-0.8,0.2-1.1c0.1-0.3,0.4-0.6,0.6-0.7c0.3-0.2,0.6-0.2,0.9-0.2c0.4,0,0.8,0.1,1,0.3
		c0.3,0.2,0.4,0.5,0.5,0.9l-0.6,0.1c-0.1-0.3-0.2-0.5-0.3-0.6c-0.2-0.1-0.3-0.2-0.6-0.2c-0.3,0-0.6,0.1-0.8,0.4
		c-0.2,0.2-0.3,0.6-0.3,1.1c0,0.5,0.1,0.9,0.3,1.2c0.2,0.2,0.5,0.4,0.8,0.4c0.3,0,0.5-0.1,0.7-0.2C314.7,86.7,314.8,86.5,314.8,86.1
		"/>
	<path class="st0" d="M320.7,85.6c-0.2,0.1-0.6,0.2-1.1,0.3c-0.3,0-0.5,0.1-0.6,0.1c-0.1,0.1-0.2,0.1-0.3,0.2
		c-0.1,0.1-0.1,0.2-0.1,0.3c0,0.2,0.1,0.3,0.2,0.4c0.1,0.1,0.3,0.2,0.6,0.2c0.3,0,0.5-0.1,0.7-0.2c0.2-0.1,0.4-0.3,0.4-0.5
		c0.1-0.2,0.1-0.4,0.1-0.7L320.7,85.6z M320.8,87.1c-0.2,0.2-0.5,0.4-0.7,0.5c-0.2,0.1-0.5,0.1-0.7,0.1c-0.4,0-0.8-0.1-1-0.3
		c-0.2-0.2-0.4-0.5-0.4-0.8c0-0.2,0-0.4,0.1-0.5c0.1-0.2,0.2-0.3,0.3-0.4c0.1-0.1,0.3-0.2,0.5-0.2c0.1,0,0.3-0.1,0.6-0.1
		c0.5-0.1,0.9-0.1,1.2-0.2c0-0.1,0-0.1,0-0.2c0-0.3-0.1-0.5-0.2-0.6c-0.2-0.2-0.4-0.2-0.8-0.2c-0.3,0-0.6,0.1-0.7,0.2
		c-0.2,0.1-0.3,0.3-0.3,0.6l-0.7-0.1c0.1-0.3,0.2-0.5,0.3-0.7c0.1-0.2,0.3-0.3,0.6-0.4c0.3-0.1,0.6-0.1,0.9-0.1c0.3,0,0.6,0,0.8,0.1
		c0.2,0.1,0.4,0.2,0.5,0.3c0.1,0.1,0.2,0.3,0.2,0.5c0,0.1,0,0.3,0,0.6v0.9c0,0.6,0,1,0,1.2c0,0.2,0.1,0.3,0.2,0.5h-0.7
		C320.8,87.4,320.8,87.3,320.8,87.1"/>
	<path class="st0" d="M322.4,87.6v-3.9h0.6v0.6c0.3-0.4,0.7-0.6,1.3-0.6c0.2,0,0.5,0,0.7,0.1c0.2,0.1,0.4,0.2,0.5,0.3
		c0.1,0.1,0.2,0.3,0.2,0.5c0,0.1,0,0.3,0,0.6v2.4H325v-2.4c0-0.3,0-0.5-0.1-0.6c-0.1-0.1-0.1-0.2-0.3-0.3c-0.1-0.1-0.3-0.1-0.5-0.1
		c-0.3,0-0.5,0.1-0.7,0.3c-0.2,0.2-0.3,0.5-0.3,1v2.1"/>
	<path class="st0" d="M327.1,85.6c0,0.5,0.1,0.9,0.3,1.1c0.2,0.3,0.5,0.4,0.8,0.4c0.3,0,0.5-0.1,0.8-0.4c0.2-0.2,0.3-0.6,0.3-1.1
		c0-0.5-0.1-0.9-0.3-1.2c-0.2-0.3-0.5-0.4-0.8-0.4c-0.3,0-0.5,0.1-0.8,0.4C327.2,84.7,327.1,85.1,327.1,85.6 M329.2,87.6v-0.5
		c-0.3,0.4-0.6,0.6-1.1,0.6c-0.3,0-0.6-0.1-0.9-0.3c-0.3-0.2-0.5-0.4-0.6-0.7c-0.1-0.3-0.2-0.7-0.2-1.1c0-0.4,0.1-0.7,0.2-1.1
		c0.1-0.3,0.3-0.6,0.6-0.7c0.3-0.2,0.6-0.3,0.9-0.3c0.2,0,0.4,0.1,0.6,0.1c0.2,0.1,0.3,0.2,0.5,0.4v-2h0.7v5.4"/>
	<path class="st0" d="M263.3,94l0.7,0.2c-0.1,0.6-0.4,1-0.8,1.4c-0.4,0.3-0.9,0.5-1.4,0.5c-0.6,0-1.1-0.1-1.4-0.4
		c-0.4-0.2-0.6-0.6-0.8-1c-0.2-0.5-0.3-0.9-0.3-1.5c0-0.6,0.1-1.1,0.3-1.5c0.2-0.4,0.5-0.7,0.9-1c0.4-0.2,0.8-0.3,1.3-0.3
		c0.5,0,1,0.1,1.4,0.4c0.4,0.3,0.6,0.7,0.8,1.2l-0.7,0.2c-0.1-0.4-0.3-0.7-0.5-0.9c-0.2-0.2-0.5-0.3-0.9-0.3c-0.4,0-0.8,0.1-1,0.3
		c-0.3,0.2-0.5,0.5-0.6,0.8c-0.1,0.3-0.2,0.7-0.2,1c0,0.5,0.1,0.9,0.2,1.2c0.1,0.3,0.3,0.6,0.6,0.8c0.3,0.2,0.6,0.3,0.9,0.3
		c0.4,0,0.7-0.1,1-0.3C263,94.8,263.2,94.4,263.3,94"/>
	<path class="st0" d="M267.4,95.9v-0.6c-0.3,0.4-0.7,0.7-1.3,0.7c-0.2,0-0.5,0-0.7-0.1c-0.2-0.1-0.4-0.2-0.5-0.3
		c-0.1-0.1-0.2-0.3-0.2-0.5c0-0.1,0-0.3,0-0.6v-2.4h0.7v2.2c0,0.3,0,0.6,0,0.7c0,0.2,0.1,0.3,0.3,0.4c0.1,0.1,0.3,0.2,0.5,0.2
		c0.2,0,0.4-0.1,0.6-0.2c0.2-0.1,0.3-0.2,0.4-0.4c0.1-0.2,0.1-0.4,0.1-0.8v-2.1h0.7v3.9"/>
	<rect x="269" y="90.4" class="st0" width="0.7" height="5.4"/>
	<path class="st0" d="M272.2,95.3l0.1,0.6c-0.2,0-0.4,0.1-0.5,0.1c-0.2,0-0.4,0-0.6-0.1c-0.1-0.1-0.2-0.2-0.3-0.3
		c-0.1-0.1-0.1-0.4-0.1-0.8v-2.3h-0.5v-0.5h0.5v-1l0.7-0.4v1.4h0.7v0.5h-0.7v2.3c0,0.2,0,0.3,0,0.4c0,0.1,0.1,0.1,0.1,0.1
		c0.1,0,0.1,0,0.2,0C272,95.3,272.1,95.3,272.2,95.3"/>
	<path class="st0" d="M275.5,95.9v-0.6c-0.3,0.4-0.7,0.7-1.3,0.7c-0.2,0-0.5,0-0.7-0.1c-0.2-0.1-0.4-0.2-0.4-0.3
		c-0.1-0.1-0.2-0.3-0.2-0.5c0-0.1,0-0.3,0-0.6v-2.4h0.7v2.2c0,0.3,0,0.6,0,0.7c0,0.2,0.1,0.3,0.3,0.4c0.1,0.1,0.3,0.2,0.5,0.2
		c0.2,0,0.4-0.1,0.6-0.2c0.2-0.1,0.3-0.2,0.4-0.4c0.1-0.2,0.1-0.4,0.1-0.8v-2.1h0.7v3.9"/>
	<path class="st0" d="M277.1,95.9v-3.9h0.6v0.6c0.2-0.3,0.3-0.5,0.4-0.6c0.1-0.1,0.3-0.1,0.4-0.1c0.2,0,0.5,0.1,0.7,0.2l-0.2,0.6
		c-0.2-0.1-0.3-0.1-0.5-0.1c-0.1,0-0.3,0-0.4,0.1c-0.1,0.1-0.2,0.2-0.2,0.4c-0.1,0.2-0.1,0.5-0.1,0.8v2.1"/>
	<path class="st0" d="M282.2,93.9c-0.2,0.1-0.6,0.2-1.1,0.3c-0.3,0-0.5,0.1-0.6,0.1c-0.1,0-0.2,0.1-0.3,0.2
		c-0.1,0.1-0.1,0.2-0.1,0.3c0,0.2,0.1,0.3,0.2,0.4c0.1,0.1,0.3,0.2,0.6,0.2c0.3,0,0.5-0.1,0.7-0.2c0.2-0.1,0.4-0.3,0.4-0.5
		c0.1-0.2,0.1-0.4,0.1-0.7L282.2,93.9z M282.2,95.4c-0.2,0.2-0.5,0.4-0.7,0.5c-0.2,0.1-0.5,0.1-0.7,0.1c-0.4,0-0.8-0.1-1-0.3
		c-0.2-0.2-0.4-0.5-0.4-0.8c0-0.2,0-0.4,0.1-0.5c0.1-0.2,0.2-0.3,0.3-0.4c0.1-0.1,0.3-0.2,0.5-0.2c0.1,0,0.3-0.1,0.6-0.1
		c0.5-0.1,0.9-0.1,1.2-0.2c0-0.1,0-0.1,0-0.2c0-0.3-0.1-0.5-0.2-0.6c-0.2-0.1-0.4-0.2-0.8-0.2c-0.3,0-0.6,0.1-0.7,0.2
		c-0.2,0.1-0.3,0.3-0.3,0.6l-0.7-0.1c0.1-0.3,0.2-0.5,0.3-0.7c0.1-0.2,0.3-0.3,0.6-0.4c0.3-0.1,0.6-0.1,0.9-0.1c0.3,0,0.6,0,0.8,0.1
		c0.2,0.1,0.4,0.2,0.5,0.3c0.1,0.1,0.2,0.3,0.2,0.5c0,0.1,0,0.3,0,0.6v0.9c0,0.6,0,1,0,1.2c0,0.2,0.1,0.3,0.2,0.5h-0.7
		C282.3,95.7,282.2,95.6,282.2,95.4"/>
	<rect x="283.8" y="90.4" class="st0" width="0.7" height="5.4"/>
	<path class="st0" d="M288.3,93.2c0,0.7,0.2,1.2,0.5,1.6c0.4,0.4,0.8,0.6,1.3,0.6c0.5,0,1-0.2,1.3-0.6c0.4-0.4,0.5-0.9,0.5-1.6
		c0-0.4-0.1-0.8-0.2-1.2c-0.2-0.3-0.4-0.6-0.7-0.8c-0.3-0.2-0.6-0.3-1-0.3c-0.5,0-0.9,0.2-1.3,0.5C288.5,91.8,288.3,92.4,288.3,93.2
		 M287.5,93.2c0-0.9,0.2-1.6,0.7-2.1c0.5-0.5,1.1-0.8,1.9-0.8c0.5,0,1,0.1,1.4,0.4c0.4,0.2,0.7,0.6,0.9,1c0.2,0.4,0.3,0.9,0.3,1.5
		c0,0.6-0.1,1-0.3,1.5c-0.2,0.4-0.5,0.8-0.9,1c-0.4,0.2-0.8,0.3-1.3,0.3c-0.5,0-1-0.1-1.4-0.4c-0.4-0.2-0.7-0.6-0.9-1
		C287.6,94.1,287.5,93.7,287.5,93.2"/>
	<path class="st0" d="M293.6,95.9v-3.9h0.6v0.6c0.2-0.3,0.3-0.5,0.4-0.6c0.1-0.1,0.3-0.1,0.4-0.1c0.2,0,0.5,0.1,0.7,0.2l-0.2,0.6
		c-0.2-0.1-0.3-0.1-0.5-0.1c-0.1,0-0.3,0-0.4,0.1c-0.1,0.1-0.2,0.2-0.2,0.4c-0.1,0.2-0.1,0.5-0.1,0.8v2.1"/>
	<path class="st0" d="M296.6,93.8c0,0.5,0.1,0.9,0.3,1.1c0.2,0.2,0.5,0.4,0.8,0.4c0.3,0,0.6-0.1,0.8-0.4c0.2-0.2,0.3-0.6,0.3-1.1
		c0-0.5-0.1-0.8-0.3-1.1c-0.2-0.2-0.5-0.4-0.8-0.4c-0.3,0-0.6,0.1-0.8,0.4C296.7,93,296.6,93.3,296.6,93.8 M296,96.2l0.6,0.1
		c0,0.2,0.1,0.4,0.2,0.4c0.2,0.1,0.4,0.2,0.7,0.2c0.3,0,0.6-0.1,0.7-0.2c0.2-0.1,0.3-0.3,0.3-0.5c0-0.1,0.1-0.4,0-0.9
		c-0.3,0.3-0.7,0.5-1.1,0.5c-0.5,0-1-0.2-1.3-0.6c-0.3-0.4-0.4-0.9-0.4-1.4c0-0.4,0.1-0.7,0.2-1c0.1-0.3,0.3-0.6,0.6-0.7
		c0.3-0.2,0.6-0.3,0.9-0.3c0.5,0,0.9,0.2,1.2,0.6v-0.5h0.6v3.4c0,0.6-0.1,1-0.2,1.3c-0.1,0.3-0.3,0.5-0.6,0.6
		c-0.3,0.1-0.6,0.2-1,0.2c-0.5,0-0.9-0.1-1.1-0.3C296.1,96.9,296,96.6,296,96.2"/>
	<path class="st0" d="M302.9,93.9c-0.2,0.1-0.6,0.2-1.1,0.3c-0.3,0-0.5,0.1-0.6,0.1c-0.1,0-0.2,0.1-0.3,0.2
		c-0.1,0.1-0.1,0.2-0.1,0.3c0,0.2,0.1,0.3,0.2,0.4c0.1,0.1,0.3,0.2,0.6,0.2c0.3,0,0.5-0.1,0.7-0.2c0.2-0.1,0.4-0.3,0.4-0.5
		c0.1-0.2,0.1-0.4,0.1-0.7L302.9,93.9z M302.9,95.4c-0.2,0.2-0.5,0.4-0.7,0.5c-0.2,0.1-0.5,0.1-0.7,0.1c-0.4,0-0.8-0.1-1-0.3
		c-0.2-0.2-0.4-0.5-0.4-0.8c0-0.2,0-0.4,0.1-0.5c0.1-0.2,0.2-0.3,0.4-0.4c0.1-0.1,0.3-0.2,0.5-0.2c0.1,0,0.3-0.1,0.6-0.1
		c0.5-0.1,0.9-0.1,1.2-0.2c0-0.1,0-0.1,0-0.2c0-0.3-0.1-0.5-0.2-0.6c-0.2-0.1-0.4-0.2-0.8-0.2c-0.3,0-0.6,0.1-0.7,0.2
		c-0.2,0.1-0.3,0.3-0.3,0.6l-0.7-0.1c0.1-0.3,0.2-0.5,0.3-0.7c0.1-0.2,0.3-0.3,0.6-0.4c0.3-0.1,0.6-0.1,0.9-0.1c0.3,0,0.6,0,0.8,0.1
		c0.2,0.1,0.4,0.2,0.5,0.3c0.1,0.1,0.2,0.3,0.2,0.5c0,0.1,0,0.3,0,0.6v0.9c0,0.6,0,1,0,1.2c0,0.2,0.1,0.3,0.2,0.5h-0.7
		C303,95.7,303,95.6,302.9,95.4"/>
	<path class="st0" d="M304.6,95.9v-3.9h0.6v0.6c0.3-0.4,0.7-0.6,1.3-0.6c0.2,0,0.5,0,0.7,0.1c0.2,0.1,0.4,0.2,0.5,0.3
		c0.1,0.1,0.2,0.3,0.2,0.5c0,0.1,0,0.3,0,0.6v2.4h-0.7v-2.4c0-0.3,0-0.5-0.1-0.6c-0.1-0.1-0.1-0.2-0.3-0.3c-0.1-0.1-0.3-0.1-0.5-0.1
		c-0.3,0-0.5,0.1-0.7,0.3c-0.2,0.2-0.3,0.5-0.3,1v2.1"/>
	<path class="st0" d="M308.8,91.9h0.7v3.9h-0.7V91.9z M308.8,90.4h0.7v0.8h-0.7V90.4z"/>
	<path class="st0" d="M310.1,95.9v-0.5l2.5-2.9c-0.3,0-0.5,0-0.8,0h-1.6v-0.5h3.2v0.4l-2.1,2.5l-0.4,0.5c0.3,0,0.6,0,0.8,0h1.8v0.6"
		/>
	<path class="st0" d="M316.8,93.9c-0.2,0.1-0.6,0.2-1.1,0.3c-0.3,0-0.5,0.1-0.6,0.1c-0.1,0-0.2,0.1-0.3,0.2
		c-0.1,0.1-0.1,0.2-0.1,0.3c0,0.2,0.1,0.3,0.2,0.4c0.1,0.1,0.3,0.2,0.6,0.2c0.3,0,0.5-0.1,0.7-0.2c0.2-0.1,0.4-0.3,0.4-0.5
		c0.1-0.2,0.1-0.4,0.1-0.7L316.8,93.9z M316.9,95.4c-0.2,0.2-0.5,0.4-0.7,0.5c-0.2,0.1-0.5,0.1-0.7,0.1c-0.4,0-0.8-0.1-1-0.3
		c-0.2-0.2-0.4-0.5-0.4-0.8c0-0.2,0-0.4,0.1-0.5c0.1-0.2,0.2-0.3,0.3-0.4c0.1-0.1,0.3-0.2,0.5-0.2c0.1,0,0.3-0.1,0.6-0.1
		c0.5-0.1,0.9-0.1,1.2-0.2c0-0.1,0-0.1,0-0.2c0-0.3-0.1-0.5-0.2-0.6c-0.2-0.1-0.4-0.2-0.8-0.2c-0.3,0-0.6,0.1-0.7,0.2
		c-0.2,0.1-0.3,0.3-0.3,0.6l-0.7-0.1c0.1-0.3,0.2-0.5,0.3-0.7c0.1-0.2,0.3-0.3,0.6-0.4c0.3-0.1,0.6-0.1,0.9-0.1c0.3,0,0.6,0,0.8,0.1
		c0.2,0.1,0.4,0.2,0.5,0.3c0.1,0.1,0.2,0.3,0.2,0.5c0,0.1,0,0.3,0,0.6v0.9c0,0.6,0,1,0,1.2c0,0.2,0.1,0.3,0.2,0.5H317
		C316.9,95.7,316.9,95.6,316.9,95.4"/>
	<path class="st0" d="M320,95.3l0.1,0.6c-0.2,0-0.4,0.1-0.5,0.1c-0.2,0-0.4,0-0.6-0.1c-0.1-0.1-0.2-0.2-0.3-0.3
		c-0.1-0.1-0.1-0.4-0.1-0.8v-2.3h-0.5v-0.5h0.5v-1l0.7-0.4v1.4h0.7v0.5h-0.7v2.3c0,0.2,0,0.3,0,0.4c0,0.1,0.1,0.1,0.1,0.1
		c0.1,0,0.1,0,0.2,0C319.8,95.3,319.9,95.3,320,95.3"/>
	<path class="st0" d="M320.6,91.9h0.7v3.9h-0.7V91.9z M320.6,90.4h0.7v0.8h-0.7V90.4z"/>
	<path class="st0" d="M322.8,93.9c0,0.5,0.1,0.9,0.3,1.1c0.2,0.2,0.5,0.4,0.8,0.4c0.3,0,0.6-0.1,0.8-0.4c0.2-0.3,0.3-0.6,0.3-1.2
		c0-0.5-0.1-0.9-0.3-1.1c-0.2-0.3-0.5-0.4-0.8-0.4c-0.3,0-0.6,0.1-0.8,0.4C322.9,93,322.8,93.4,322.8,93.9 M322.1,93.9
		c0-0.7,0.2-1.3,0.6-1.6c0.3-0.3,0.8-0.4,1.2-0.4c0.5,0,1,0.2,1.3,0.5c0.3,0.4,0.5,0.8,0.5,1.5c0,0.5-0.1,0.9-0.2,1.2
		c-0.2,0.3-0.4,0.5-0.7,0.7c-0.3,0.2-0.6,0.2-1,0.2c-0.6,0-1-0.2-1.3-0.5C322.2,95.1,322.1,94.6,322.1,93.9"/>
	<path class="st0" d="M326.6,95.9v-3.9h0.6v0.6c0.3-0.4,0.7-0.6,1.3-0.6c0.2,0,0.5,0,0.7,0.1c0.2,0.1,0.4,0.2,0.5,0.3
		c0.1,0.1,0.2,0.3,0.2,0.5c0,0.1,0,0.3,0,0.6v2.4h-0.7v-2.4c0-0.3,0-0.5-0.1-0.6c-0.1-0.1-0.1-0.2-0.3-0.3c-0.1-0.1-0.3-0.1-0.5-0.1
		c-0.3,0-0.5,0.1-0.7,0.3c-0.2,0.2-0.3,0.5-0.3,1v2.1"/>
	<path class="st1" d="M404.6,44.5c0,13.7-11.1,24.7-24.7,24.7c-13.7,0-24.7-11.1-24.7-24.7c0-13.7,11.1-24.7,24.7-24.7
		C393.6,19.7,404.6,30.8,404.6,44.5"/>
	<g>
		<path class="st0" d="M353.2,79.3v-5.4h0.7v5.4H353.2z"/>
		<path class="st0" d="M355,79.3v-3.9h0.6v0.6c0.3-0.4,0.7-0.6,1.2-0.6c0.2,0,0.5,0,0.7,0.1c0.2,0.1,0.3,0.2,0.4,0.3
			c0.1,0.1,0.2,0.3,0.2,0.5c0,0.1,0,0.3,0,0.6v2.4h-0.7v-2.4c0-0.3,0-0.5-0.1-0.6c-0.1-0.1-0.1-0.2-0.3-0.3
			c-0.1-0.1-0.3-0.1-0.5-0.1c-0.3,0-0.5,0.1-0.7,0.3c-0.2,0.2-0.3,0.5-0.3,1v2.1H355z"/>
		<path class="st0" d="M360.7,78.7l0.1,0.6c-0.2,0-0.4,0.1-0.5,0.1c-0.2,0-0.4,0-0.6-0.1c-0.1-0.1-0.2-0.2-0.3-0.3
			c-0.1-0.1-0.1-0.4-0.1-0.8v-2.3h-0.5v-0.5h0.5v-1L360,74v1.4h0.7v0.5H360v2.3c0,0.2,0,0.3,0,0.4c0,0.1,0.1,0.1,0.1,0.1
			c0.1,0,0.1,0,0.2,0C360.5,78.7,360.6,78.7,360.7,78.7z"/>
		<path class="st0" d="M364,78l0.7,0.1c-0.1,0.4-0.3,0.7-0.6,0.9c-0.3,0.2-0.7,0.3-1.1,0.3c-0.6,0-1-0.2-1.4-0.5
			c-0.3-0.4-0.5-0.8-0.5-1.5c0-0.7,0.2-1.2,0.5-1.5c0.3-0.4,0.8-0.5,1.3-0.5c0.5,0,1,0.2,1.3,0.5c0.3,0.4,0.5,0.9,0.5,1.5
			c0,0,0,0.1,0,0.2h-2.9c0,0.4,0.1,0.8,0.4,1c0.2,0.2,0.5,0.3,0.8,0.3c0.2,0,0.5-0.1,0.6-0.2C363.8,78.5,363.9,78.3,364,78z
			 M361.8,77h2.2c0-0.3-0.1-0.6-0.3-0.7c-0.2-0.3-0.5-0.4-0.8-0.4c-0.3,0-0.6,0.1-0.8,0.3C362,76.3,361.9,76.6,361.8,77z"/>
		<path class="st0" d="M365.5,79.3v-3.9h0.6V76c0.2-0.3,0.3-0.5,0.4-0.5c0.1-0.1,0.3-0.1,0.4-0.1c0.2,0,0.5,0.1,0.7,0.2l-0.2,0.6
			c-0.2-0.1-0.3-0.1-0.5-0.1c-0.1,0-0.3,0-0.4,0.1c-0.1,0.1-0.2,0.2-0.2,0.4c-0.1,0.2-0.1,0.5-0.1,0.8v2H365.5z"/>
		<path class="st0" d="M367.9,79.6l0.6,0.1c0,0.2,0.1,0.3,0.2,0.4c0.2,0.1,0.4,0.2,0.7,0.2c0.3,0,0.5-0.1,0.7-0.2
			c0.2-0.1,0.3-0.3,0.3-0.5c0-0.1,0.1-0.4,0-0.9c-0.3,0.3-0.7,0.5-1.1,0.5c-0.5,0-1-0.2-1.2-0.6c-0.3-0.4-0.4-0.9-0.4-1.4
			c0-0.4,0.1-0.7,0.2-1c0.1-0.3,0.3-0.6,0.6-0.7c0.3-0.2,0.6-0.3,0.9-0.3c0.5,0,0.8,0.2,1.1,0.6v-0.5h0.6v3.4c0,0.6-0.1,1-0.2,1.3
			c-0.1,0.3-0.3,0.5-0.6,0.6c-0.3,0.1-0.6,0.2-1,0.2c-0.5,0-0.8-0.1-1.1-0.3C368.1,80.4,367.9,80,367.9,79.6z M368.5,77.3
			c0,0.5,0.1,0.9,0.3,1.1c0.2,0.2,0.5,0.4,0.8,0.4c0.3,0,0.6-0.1,0.8-0.4c0.2-0.2,0.3-0.6,0.3-1.1c0-0.5-0.1-0.8-0.3-1.1
			c-0.2-0.2-0.5-0.4-0.8-0.4c-0.3,0-0.5,0.1-0.8,0.4C368.6,76.4,368.5,76.8,368.5,77.3z"/>
		<path class="st0" d="M372,77.3c0-0.7,0.2-1.3,0.6-1.6c0.3-0.3,0.7-0.4,1.2-0.4c0.5,0,1,0.2,1.3,0.5c0.3,0.4,0.5,0.8,0.5,1.5
			c0,0.5-0.1,0.9-0.2,1.2c-0.2,0.3-0.4,0.5-0.7,0.7c-0.3,0.2-0.6,0.2-0.9,0.2c-0.5,0-1-0.2-1.3-0.5C372.2,78.5,372,78,372,77.3z
			 M372.7,77.3c0,0.5,0.1,0.9,0.3,1.1c0.2,0.2,0.5,0.4,0.8,0.4c0.3,0,0.6-0.1,0.8-0.4c0.2-0.3,0.3-0.6,0.3-1.1
			c0-0.5-0.1-0.9-0.3-1.1c-0.2-0.2-0.5-0.4-0.8-0.4c-0.3,0-0.6,0.1-0.8,0.4C372.8,76.5,372.7,76.8,372.7,77.3z"/>
		<path class="st0" d="M377.5,79.3l-1.5-3.9h0.7l0.8,2.3c0.1,0.3,0.2,0.5,0.3,0.8c0.1-0.2,0.1-0.5,0.2-0.7l0.9-2.4h0.7l-1.5,3.9
			H377.5z"/>
		<path class="st0" d="M382.9,78l0.7,0.1c-0.1,0.4-0.3,0.7-0.6,0.9c-0.3,0.2-0.7,0.3-1.1,0.3c-0.6,0-1-0.2-1.4-0.5
			c-0.3-0.4-0.5-0.8-0.5-1.5c0-0.7,0.2-1.2,0.5-1.5c0.3-0.4,0.8-0.5,1.3-0.5c0.5,0,1,0.2,1.3,0.5c0.3,0.4,0.5,0.9,0.5,1.5
			c0,0,0,0.1,0,0.2h-2.9c0,0.4,0.1,0.8,0.4,1c0.2,0.2,0.5,0.3,0.8,0.3c0.2,0,0.5-0.1,0.6-0.2C382.7,78.5,382.8,78.3,382.9,78z
			 M380.7,77h2.2c0-0.3-0.1-0.6-0.3-0.7c-0.2-0.3-0.5-0.4-0.8-0.4c-0.3,0-0.6,0.1-0.8,0.3C380.9,76.3,380.8,76.6,380.7,77z"/>
		<path class="st0" d="M384.4,79.3v-3.9h0.6V76c0.2-0.3,0.3-0.5,0.4-0.5c0.1-0.1,0.3-0.1,0.4-0.1c0.2,0,0.5,0.1,0.7,0.2l-0.2,0.6
			c-0.2-0.1-0.3-0.1-0.5-0.1c-0.1,0-0.3,0-0.4,0.1c-0.1,0.1-0.2,0.2-0.2,0.4c-0.1,0.2-0.1,0.5-0.1,0.8v2H384.4z"/>
		<path class="st0" d="M386.9,79.3v-3.9h0.6v0.6c0.3-0.4,0.7-0.6,1.2-0.6c0.2,0,0.5,0,0.7,0.1c0.2,0.1,0.3,0.2,0.4,0.3
			c0.1,0.1,0.2,0.3,0.2,0.5c0,0.1,0,0.3,0,0.6v2.4h-0.7v-2.4c0-0.3,0-0.5-0.1-0.6c-0.1-0.1-0.1-0.2-0.3-0.3
			c-0.1-0.1-0.3-0.1-0.5-0.1c-0.3,0-0.5,0.1-0.7,0.3c-0.2,0.2-0.3,0.5-0.3,1v2.1H386.9z"/>
		<path class="st0" d="M391.1,79.3v-3.9h0.6v0.5c0.1-0.2,0.3-0.3,0.5-0.5s0.4-0.2,0.7-0.2c0.3,0,0.5,0.1,0.7,0.2
			c0.2,0.1,0.3,0.3,0.4,0.5c0.3-0.5,0.7-0.7,1.2-0.7c0.4,0,0.7,0.1,0.9,0.3c0.2,0.2,0.3,0.5,0.3,1v2.7h-0.7v-2.5
			c0-0.3,0-0.5-0.1-0.6c0-0.1-0.1-0.2-0.2-0.3c-0.1-0.1-0.2-0.1-0.4-0.1c-0.3,0-0.5,0.1-0.7,0.3c-0.2,0.2-0.3,0.5-0.3,0.9v2.3h-0.7
			v-2.5c0-0.3-0.1-0.5-0.2-0.7c-0.1-0.1-0.3-0.2-0.5-0.2c-0.2,0-0.4,0-0.5,0.1c-0.2,0.1-0.3,0.2-0.3,0.4c-0.1,0.2-0.1,0.5-0.1,0.8v2
			H391.1z"/>
		<path class="st0" d="M400.1,78l0.7,0.1c-0.1,0.4-0.3,0.7-0.6,0.9c-0.3,0.2-0.7,0.3-1.1,0.3c-0.6,0-1-0.2-1.4-0.5
			c-0.3-0.4-0.5-0.8-0.5-1.5c0-0.7,0.2-1.2,0.5-1.5c0.3-0.4,0.8-0.5,1.3-0.5c0.5,0,1,0.2,1.3,0.5c0.3,0.4,0.5,0.9,0.5,1.5
			c0,0,0,0.1,0,0.2h-2.9c0,0.4,0.1,0.8,0.4,1c0.2,0.2,0.5,0.3,0.8,0.3c0.2,0,0.5-0.1,0.6-0.2C399.9,78.5,400,78.3,400.1,78z
			 M397.9,77h2.2c0-0.3-0.1-0.6-0.3-0.7c-0.2-0.3-0.5-0.4-0.8-0.4c-0.3,0-0.6,0.1-0.8,0.3C398.1,76.3,398,76.6,397.9,77z"/>
		<path class="st0" d="M401.6,79.3v-3.9h0.6v0.6c0.3-0.4,0.7-0.6,1.2-0.6c0.2,0,0.5,0,0.7,0.1c0.2,0.1,0.3,0.2,0.4,0.3
			c0.1,0.1,0.2,0.3,0.2,0.5c0,0.1,0,0.3,0,0.6v2.4h-0.7v-2.4c0-0.3,0-0.5-0.1-0.6c-0.1-0.1-0.1-0.2-0.3-0.3
			c-0.1-0.1-0.3-0.1-0.5-0.1c-0.3,0-0.5,0.1-0.7,0.3c-0.2,0.2-0.3,0.5-0.3,1v2.1H401.6z"/>
		<path class="st0" d="M407.3,78.7l0.1,0.6c-0.2,0-0.4,0.1-0.5,0.1c-0.2,0-0.4,0-0.6-0.1c-0.1-0.1-0.2-0.2-0.3-0.3
			c-0.1-0.1-0.1-0.4-0.1-0.8v-2.3h-0.5v-0.5h0.5v-1l0.7-0.4v1.4h0.7v0.5h-0.7v2.3c0,0.2,0,0.3,0,0.4c0,0.1,0.1,0.1,0.1,0.1
			s0.1,0,0.2,0C407.1,78.7,407.2,78.7,407.3,78.7z"/>
		<path class="st0" d="M410.5,78.8c-0.2,0.2-0.5,0.4-0.7,0.4c-0.2,0.1-0.5,0.1-0.7,0.1c-0.4,0-0.8-0.1-1-0.3
			c-0.2-0.2-0.3-0.5-0.3-0.8c0-0.2,0-0.4,0.1-0.5c0.1-0.2,0.2-0.3,0.3-0.4c0.1-0.1,0.3-0.2,0.5-0.2c0.1,0,0.3-0.1,0.6-0.1
			c0.5-0.1,0.9-0.1,1.2-0.2c0-0.1,0-0.1,0-0.2c0-0.3-0.1-0.5-0.2-0.6c-0.2-0.2-0.4-0.2-0.8-0.2c-0.3,0-0.5,0.1-0.7,0.2
			c-0.1,0.1-0.3,0.3-0.3,0.6l-0.6-0.1c0.1-0.3,0.2-0.5,0.3-0.7c0.1-0.2,0.3-0.3,0.6-0.4c0.3-0.1,0.6-0.1,0.9-0.1
			c0.3,0,0.6,0,0.8,0.1c0.2,0.1,0.4,0.2,0.5,0.3c0.1,0.1,0.2,0.3,0.2,0.5c0,0.1,0,0.3,0,0.6v0.9c0,0.6,0,1,0,1.2
			c0,0.2,0.1,0.3,0.2,0.5h-0.7C410.6,79.2,410.5,79,410.5,78.8z M410.4,77.3c-0.2,0.1-0.6,0.2-1.1,0.3c-0.3,0-0.5,0.1-0.6,0.1
			c-0.1,0-0.2,0.1-0.3,0.2c-0.1,0.1-0.1,0.2-0.1,0.3c0,0.2,0.1,0.3,0.2,0.4c0.1,0.1,0.3,0.2,0.6,0.2c0.3,0,0.5-0.1,0.7-0.2
			c0.2-0.1,0.3-0.3,0.4-0.5c0.1-0.2,0.1-0.4,0.1-0.7V77.3z"/>
		<path class="st0" d="M412.1,79.3v-5.4h0.7v5.4H412.1z"/>
	</g>
	<g>
		<path class="st0" d="M352.7,84.9c0-0.9,0.2-1.6,0.7-2.1c0.5-0.5,1.1-0.8,1.9-0.8c0.5,0,1,0.1,1.4,0.4c0.4,0.2,0.7,0.6,0.9,1
			c0.2,0.4,0.3,0.9,0.3,1.5c0,0.6-0.1,1-0.3,1.5c-0.2,0.4-0.5,0.8-0.9,1s-0.8,0.3-1.3,0.3c-0.5,0-1-0.1-1.4-0.4
			c-0.4-0.2-0.7-0.6-0.9-1C352.8,85.9,352.7,85.4,352.7,84.9z M353.5,84.9c0,0.7,0.2,1.2,0.5,1.6c0.4,0.4,0.8,0.6,1.3,0.6
			c0.5,0,1-0.2,1.3-0.6c0.3-0.4,0.5-0.9,0.5-1.6c0-0.4-0.1-0.8-0.2-1.2c-0.1-0.3-0.4-0.6-0.7-0.8c-0.3-0.2-0.6-0.3-1-0.3
			c-0.5,0-0.9,0.2-1.3,0.5C353.6,83.5,353.5,84.1,353.5,84.9z"/>
		<path class="st0" d="M361.3,86.1l0.7,0.1c-0.1,0.5-0.3,0.8-0.5,1.1c-0.3,0.3-0.7,0.4-1.1,0.4c-0.5,0-1-0.2-1.3-0.5
			c-0.3-0.4-0.5-0.9-0.5-1.5c0-0.4,0.1-0.8,0.2-1.1c0.1-0.3,0.4-0.6,0.6-0.7c0.3-0.2,0.6-0.2,0.9-0.2c0.4,0,0.8,0.1,1,0.3
			c0.3,0.2,0.4,0.5,0.5,0.9l-0.6,0.1c-0.1-0.3-0.2-0.5-0.3-0.6c-0.2-0.1-0.3-0.2-0.6-0.2c-0.3,0-0.6,0.1-0.8,0.4
			c-0.2,0.2-0.3,0.6-0.3,1.1c0,0.5,0.1,0.9,0.3,1.2c0.2,0.2,0.5,0.4,0.8,0.4c0.3,0,0.5-0.1,0.7-0.2
			C361.1,86.7,361.3,86.5,361.3,86.1z"/>
		<path class="st0" d="M365.2,86.3l0.7,0.1c-0.1,0.4-0.3,0.7-0.6,0.9c-0.3,0.2-0.7,0.3-1.1,0.3c-0.6,0-1-0.2-1.4-0.5
			c-0.3-0.4-0.5-0.9-0.5-1.5c0-0.7,0.2-1.2,0.5-1.5c0.3-0.4,0.8-0.6,1.3-0.6c0.5,0,1,0.2,1.3,0.5c0.3,0.4,0.5,0.9,0.5,1.5
			c0,0,0,0.1,0,0.2H363c0,0.4,0.1,0.8,0.4,1c0.2,0.2,0.5,0.3,0.8,0.3c0.2,0,0.5-0.1,0.6-0.2C365,86.8,365.1,86.6,365.2,86.3z
			 M363,85.2h2.2c0-0.3-0.1-0.6-0.3-0.7c-0.2-0.3-0.5-0.4-0.8-0.4c-0.3,0-0.6,0.1-0.8,0.3C363.2,84.6,363.1,84.9,363,85.2z"/>
		<path class="st0" d="M369.3,87.1c-0.2,0.2-0.5,0.4-0.7,0.4c-0.2,0.1-0.5,0.1-0.7,0.1c-0.4,0-0.8-0.1-1-0.3
			c-0.2-0.2-0.3-0.5-0.3-0.8c0-0.2,0-0.4,0.1-0.5c0.1-0.2,0.2-0.3,0.3-0.4c0.1-0.1,0.3-0.2,0.5-0.2c0.1,0,0.3-0.1,0.6-0.1
			c0.5-0.1,0.9-0.1,1.2-0.2c0-0.1,0-0.2,0-0.2c0-0.3-0.1-0.5-0.2-0.6c-0.2-0.2-0.4-0.2-0.8-0.2c-0.3,0-0.5,0.1-0.7,0.2
			c-0.1,0.1-0.3,0.3-0.3,0.6l-0.7-0.1c0.1-0.3,0.2-0.5,0.3-0.7c0.1-0.2,0.3-0.3,0.6-0.4c0.3-0.1,0.6-0.1,0.9-0.1
			c0.3,0,0.6,0,0.8,0.1c0.2,0.1,0.4,0.2,0.5,0.3c0.1,0.1,0.2,0.3,0.2,0.5c0,0.1,0,0.3,0,0.6v0.9c0,0.6,0,1,0,1.2
			c0,0.2,0.1,0.3,0.2,0.5h-0.7C369.4,87.4,369.3,87.3,369.3,87.1z M369.2,85.6c-0.2,0.1-0.6,0.2-1.1,0.3c-0.3,0-0.5,0.1-0.6,0.1
			c-0.1,0-0.2,0.1-0.3,0.2s-0.1,0.2-0.1,0.3c0,0.2,0.1,0.3,0.2,0.4c0.1,0.1,0.3,0.2,0.6,0.2c0.3,0,0.5-0.1,0.7-0.2
			c0.2-0.1,0.3-0.3,0.4-0.5c0.1-0.2,0.1-0.4,0.1-0.7V85.6z"/>
		<path class="st0" d="M370.9,87.6v-4h0.6v0.6c0.3-0.4,0.7-0.7,1.2-0.7c0.2,0,0.5,0,0.7,0.1c0.2,0.1,0.3,0.2,0.4,0.3
			c0.1,0.1,0.2,0.3,0.2,0.5c0,0.1,0,0.3,0,0.7v2.4h-0.7v-2.4c0-0.3,0-0.5-0.1-0.6c-0.1-0.1-0.1-0.2-0.3-0.3
			c-0.1-0.1-0.3-0.1-0.5-0.1c-0.3,0-0.5,0.1-0.7,0.3c-0.2,0.2-0.3,0.5-0.3,1v2.2H370.9z"/>
		<path class="st0" d="M374.9,85.6c0-0.7,0.2-1.3,0.6-1.6c0.3-0.3,0.7-0.4,1.2-0.4c0.5,0,1,0.2,1.3,0.5c0.3,0.4,0.5,0.8,0.5,1.5
			c0,0.5-0.1,0.9-0.2,1.2c-0.2,0.3-0.4,0.5-0.7,0.7c-0.3,0.2-0.6,0.2-0.9,0.2c-0.5,0-1-0.2-1.3-0.5
			C375.1,86.8,374.9,86.3,374.9,85.6z M375.6,85.6c0,0.5,0.1,0.9,0.3,1.1c0.2,0.3,0.5,0.4,0.8,0.4c0.3,0,0.6-0.1,0.8-0.4
			c0.2-0.3,0.3-0.6,0.3-1.2c0-0.5-0.1-0.9-0.3-1.1c-0.2-0.3-0.5-0.4-0.8-0.4c-0.3,0-0.6,0.1-0.8,0.4
			C375.7,84.7,375.6,85.1,375.6,85.6z"/>
		<path class="st0" d="M379.2,87.9l0.6,0.1c0,0.2,0.1,0.3,0.2,0.4c0.2,0.1,0.4,0.2,0.7,0.2c0.3,0,0.5-0.1,0.7-0.2
			c0.2-0.1,0.3-0.3,0.3-0.5c0-0.1,0.1-0.4,0-0.9c-0.3,0.3-0.7,0.5-1.1,0.5c-0.5,0-1-0.2-1.3-0.6c-0.3-0.4-0.4-0.9-0.4-1.4
			c0-0.4,0.1-0.7,0.2-1c0.1-0.3,0.3-0.6,0.6-0.7c0.3-0.2,0.6-0.3,0.9-0.3c0.5,0,0.8,0.2,1.1,0.6v-0.5h0.6V87c0,0.6-0.1,1.1-0.2,1.3
			c-0.1,0.3-0.3,0.5-0.6,0.6c-0.3,0.1-0.6,0.2-1,0.2c-0.5,0-0.8-0.1-1.1-0.3C379.4,88.7,379.2,88.3,379.2,87.9z M379.8,85.5
			c0,0.5,0.1,0.9,0.3,1.1c0.2,0.2,0.5,0.4,0.8,0.4c0.3,0,0.6-0.1,0.8-0.4c0.2-0.2,0.3-0.6,0.3-1.1c0-0.5-0.1-0.8-0.3-1.1
			c-0.2-0.2-0.5-0.4-0.8-0.4c-0.3,0-0.5,0.1-0.8,0.4C379.9,84.7,379.8,85.1,379.8,85.5z"/>
		<path class="st0" d="M383.6,87.6v-4h0.6v0.6c0.2-0.3,0.3-0.5,0.4-0.6c0.1-0.1,0.3-0.1,0.4-0.1c0.2,0,0.5,0.1,0.7,0.2l-0.2,0.6
			c-0.2-0.1-0.3-0.1-0.5-0.1c-0.1,0-0.3,0-0.4,0.1c-0.1,0.1-0.2,0.2-0.2,0.4c-0.1,0.2-0.1,0.5-0.1,0.8v2.1H383.6z"/>
		<path class="st0" d="M388.6,87.1c-0.2,0.2-0.5,0.4-0.7,0.4c-0.2,0.1-0.5,0.1-0.7,0.1c-0.4,0-0.8-0.1-1-0.3
			c-0.2-0.2-0.3-0.5-0.3-0.8c0-0.2,0-0.4,0.1-0.5c0.1-0.2,0.2-0.3,0.3-0.4c0.1-0.1,0.3-0.2,0.5-0.2c0.1,0,0.3-0.1,0.6-0.1
			c0.5-0.1,0.9-0.1,1.2-0.2c0-0.1,0-0.2,0-0.2c0-0.3-0.1-0.5-0.2-0.6c-0.2-0.2-0.4-0.2-0.8-0.2c-0.3,0-0.5,0.1-0.7,0.2
			c-0.1,0.1-0.3,0.3-0.3,0.6l-0.7-0.1c0.1-0.3,0.2-0.5,0.3-0.7c0.1-0.2,0.3-0.3,0.6-0.4c0.3-0.1,0.6-0.1,0.9-0.1
			c0.3,0,0.6,0,0.8,0.1s0.4,0.2,0.5,0.3c0.1,0.1,0.2,0.3,0.2,0.5c0,0.1,0,0.3,0,0.6v0.9c0,0.6,0,1,0,1.2c0,0.2,0.1,0.3,0.2,0.5h-0.7
			C388.7,87.4,388.7,87.3,388.6,87.1z M388.6,85.6c-0.2,0.1-0.6,0.2-1.1,0.3c-0.3,0-0.5,0.1-0.6,0.1c-0.1,0-0.2,0.1-0.3,0.2
			c-0.1,0.1-0.1,0.2-0.1,0.3c0,0.2,0.1,0.3,0.2,0.4c0.1,0.1,0.3,0.2,0.6,0.2c0.3,0,0.5-0.1,0.7-0.2c0.2-0.1,0.3-0.3,0.4-0.5
			c0.1-0.2,0.1-0.4,0.1-0.7V85.6z"/>
		<path class="st0" d="M390.3,89.1v-5.5h0.6v0.5c0.1-0.2,0.3-0.4,0.5-0.5c0.2-0.1,0.4-0.2,0.7-0.2c0.3,0,0.6,0.1,0.9,0.3
			c0.3,0.2,0.4,0.4,0.6,0.7c0.1,0.3,0.2,0.7,0.2,1c0,0.4-0.1,0.8-0.2,1.1c-0.1,0.3-0.4,0.6-0.6,0.7c-0.3,0.2-0.6,0.3-0.9,0.3
			c-0.2,0-0.4,0-0.6-0.1s-0.3-0.2-0.4-0.4v1.9H390.3z M390.9,85.6c0,0.5,0.1,0.9,0.3,1.1c0.2,0.2,0.5,0.4,0.7,0.4
			c0.3,0,0.5-0.1,0.8-0.4c0.2-0.3,0.3-0.6,0.3-1.2c0-0.5-0.1-0.9-0.3-1.1c-0.2-0.3-0.5-0.4-0.7-0.4c-0.3,0-0.5,0.1-0.8,0.4
			C391,84.7,390.9,85.1,390.9,85.6z"/>
		<path class="st0" d="M394.5,87.6v-5.5h0.7v2c0.3-0.4,0.7-0.5,1.2-0.5c0.3,0,0.5,0.1,0.8,0.2c0.2,0.1,0.4,0.3,0.5,0.5
			c0.1,0.2,0.1,0.5,0.1,0.9v2.5H397v-2.5c0-0.3-0.1-0.6-0.2-0.7c-0.1-0.2-0.3-0.2-0.6-0.2c-0.2,0-0.4,0.1-0.6,0.2
			c-0.2,0.1-0.3,0.2-0.4,0.4c-0.1,0.2-0.1,0.4-0.1,0.7v2.2H394.5z"/>
		<path class="st0" d="M398.7,82.9v-0.8h0.7v0.8H398.7z M398.7,87.6v-4h0.7v4H398.7z"/>
		<path class="st0" d="M402.9,86.1l0.7,0.1c-0.1,0.5-0.3,0.8-0.5,1.1c-0.3,0.3-0.7,0.4-1.1,0.4c-0.5,0-1-0.2-1.3-0.5
			c-0.3-0.4-0.5-0.9-0.5-1.5c0-0.4,0.1-0.8,0.2-1.1c0.1-0.3,0.4-0.6,0.6-0.7c0.3-0.2,0.6-0.2,0.9-0.2c0.4,0,0.8,0.1,1,0.3
			c0.3,0.2,0.4,0.5,0.5,0.9l-0.6,0.1c-0.1-0.3-0.2-0.5-0.3-0.6c-0.2-0.1-0.3-0.2-0.6-0.2c-0.3,0-0.6,0.1-0.8,0.4
			c-0.2,0.2-0.3,0.6-0.3,1.1c0,0.5,0.1,0.9,0.3,1.2c0.2,0.2,0.5,0.4,0.8,0.4c0.3,0,0.5-0.1,0.7-0.2
			C402.8,86.7,402.9,86.5,402.9,86.1z"/>
	</g>
	<g>
		<path class="st0" d="M356.8,93.7l0.7,0.2c-0.2,0.6-0.4,1-0.8,1.4c-0.4,0.3-0.9,0.5-1.4,0.5c-0.6,0-1.1-0.1-1.4-0.4
			c-0.4-0.2-0.6-0.6-0.8-1c-0.2-0.5-0.3-0.9-0.3-1.5c0-0.6,0.1-1.1,0.3-1.5c0.2-0.4,0.5-0.7,0.9-1c0.4-0.2,0.8-0.3,1.3-0.3
			c0.5,0,1,0.1,1.4,0.4c0.4,0.3,0.6,0.7,0.8,1.2l-0.7,0.2c-0.1-0.4-0.3-0.7-0.5-0.9c-0.2-0.2-0.5-0.3-0.9-0.3c-0.4,0-0.8,0.1-1,0.3
			c-0.3,0.2-0.5,0.5-0.6,0.8c-0.1,0.3-0.2,0.7-0.2,1c0,0.5,0.1,0.9,0.2,1.2s0.3,0.6,0.6,0.8c0.3,0.2,0.6,0.3,0.9,0.3
			c0.4,0,0.7-0.1,1-0.3C356.5,94.5,356.7,94.1,356.8,93.7z"/>
		<path class="st0" d="M358.1,93.6c0-0.7,0.2-1.3,0.6-1.6c0.3-0.3,0.7-0.4,1.2-0.4c0.5,0,1,0.2,1.3,0.5c0.3,0.4,0.5,0.8,0.5,1.5
			c0,0.5-0.1,0.9-0.2,1.2c-0.2,0.3-0.4,0.5-0.7,0.7c-0.3,0.2-0.6,0.2-0.9,0.2c-0.5,0-1-0.2-1.3-0.5
			C358.2,94.8,358.1,94.3,358.1,93.6z M358.8,93.6c0,0.5,0.1,0.9,0.3,1.1c0.2,0.3,0.5,0.4,0.8,0.4c0.3,0,0.6-0.1,0.8-0.4
			c0.2-0.3,0.3-0.6,0.3-1.2c0-0.5-0.1-0.9-0.3-1.1c-0.2-0.3-0.5-0.4-0.8-0.4c-0.3,0-0.6,0.1-0.8,0.4
			C358.9,92.7,358.8,93.1,358.8,93.6z"/>
		<path class="st0" d="M362.5,95.6v-4h0.6v0.6c0.1-0.2,0.3-0.3,0.5-0.5c0.2-0.1,0.4-0.2,0.7-0.2c0.3,0,0.5,0.1,0.7,0.2
			c0.2,0.1,0.3,0.3,0.4,0.5c0.3-0.5,0.7-0.7,1.2-0.7c0.4,0,0.7,0.1,0.9,0.3c0.2,0.2,0.3,0.6,0.3,1v2.7h-0.7v-2.5
			c0-0.3,0-0.5-0.1-0.6c0-0.1-0.1-0.2-0.2-0.3c-0.1-0.1-0.2-0.1-0.4-0.1c-0.3,0-0.5,0.1-0.7,0.3c-0.2,0.2-0.3,0.5-0.3,0.9v2.3h-0.7
			V93c0-0.3-0.1-0.5-0.2-0.7c-0.1-0.1-0.3-0.2-0.5-0.2c-0.2,0-0.4,0-0.5,0.1c-0.2,0.1-0.3,0.2-0.3,0.4c-0.1,0.2-0.1,0.5-0.1,0.8v2.1
			H362.5z"/>
		<path class="st0" d="M368.8,95.6v-4h0.6v0.6c0.1-0.2,0.3-0.3,0.5-0.5c0.2-0.1,0.4-0.2,0.7-0.2c0.3,0,0.5,0.1,0.7,0.2
			c0.2,0.1,0.3,0.3,0.4,0.5c0.3-0.5,0.7-0.7,1.2-0.7c0.4,0,0.7,0.1,0.9,0.3c0.2,0.2,0.3,0.6,0.3,1v2.7h-0.7v-2.5
			c0-0.3,0-0.5-0.1-0.6c0-0.1-0.1-0.2-0.2-0.3c-0.1-0.1-0.2-0.1-0.4-0.1c-0.3,0-0.5,0.1-0.7,0.3c-0.2,0.2-0.3,0.5-0.3,0.9v2.3h-0.7
			V93c0-0.3-0.1-0.5-0.2-0.7c-0.1-0.1-0.3-0.2-0.5-0.2c-0.2,0-0.4,0-0.5,0.1c-0.2,0.1-0.3,0.2-0.3,0.4c-0.1,0.2-0.1,0.5-0.1,0.8v2.1
			H368.8z"/>
		<path class="st0" d="M375.1,90.9v-0.8h0.7v0.8H375.1z M375.1,95.6v-4h0.7v4H375.1z"/>
		<path class="st0" d="M376.5,94.4l0.7-0.1c0,0.3,0.1,0.5,0.3,0.6c0.2,0.1,0.4,0.2,0.7,0.2c0.3,0,0.5-0.1,0.7-0.2
			c0.1-0.1,0.2-0.3,0.2-0.4c0-0.2-0.1-0.3-0.2-0.4c-0.1-0.1-0.3-0.1-0.7-0.2c-0.5-0.1-0.8-0.2-1-0.3c-0.2-0.1-0.3-0.2-0.4-0.4
			c-0.1-0.2-0.1-0.3-0.1-0.5c0-0.2,0-0.3,0.1-0.5c0.1-0.2,0.2-0.3,0.3-0.4c0.1-0.1,0.2-0.1,0.4-0.2s0.4-0.1,0.6-0.1
			c0.3,0,0.6,0,0.8,0.1c0.2,0.1,0.4,0.2,0.5,0.4c0.1,0.2,0.2,0.4,0.2,0.6l-0.7,0.1c0-0.2-0.1-0.4-0.3-0.5c-0.1-0.1-0.3-0.2-0.6-0.2
			c-0.3,0-0.5,0.1-0.7,0.2c-0.1,0.1-0.2,0.2-0.2,0.4c0,0.1,0,0.2,0.1,0.2c0.1,0.1,0.1,0.1,0.3,0.2c0.1,0,0.3,0.1,0.6,0.2
			c0.5,0.1,0.8,0.2,1,0.3c0.2,0.1,0.3,0.2,0.4,0.4s0.2,0.3,0.2,0.6c0,0.2-0.1,0.4-0.2,0.6c-0.1,0.2-0.3,0.3-0.6,0.5
			c-0.2,0.1-0.5,0.2-0.8,0.2c-0.5,0-0.9-0.1-1.2-0.3C376.8,95.1,376.6,94.8,376.5,94.4z"/>
		<path class="st0" d="M380.3,94.4l0.7-0.1c0,0.3,0.1,0.5,0.3,0.6c0.2,0.1,0.4,0.2,0.7,0.2c0.3,0,0.5-0.1,0.7-0.2
			c0.1-0.1,0.2-0.3,0.2-0.4c0-0.2-0.1-0.3-0.2-0.4c-0.1-0.1-0.3-0.1-0.7-0.2c-0.5-0.1-0.8-0.2-1-0.3c-0.2-0.1-0.3-0.2-0.4-0.4
			c-0.1-0.2-0.1-0.3-0.1-0.5c0-0.2,0-0.3,0.1-0.5c0.1-0.2,0.2-0.3,0.3-0.4c0.1-0.1,0.2-0.1,0.4-0.2s0.4-0.1,0.6-0.1
			c0.3,0,0.6,0,0.8,0.1c0.2,0.1,0.4,0.2,0.5,0.4c0.1,0.2,0.2,0.4,0.2,0.6l-0.7,0.1c0-0.2-0.1-0.4-0.3-0.5c-0.1-0.1-0.3-0.2-0.6-0.2
			c-0.3,0-0.5,0.1-0.7,0.2c-0.1,0.1-0.2,0.2-0.2,0.4c0,0.1,0,0.2,0.1,0.2c0.1,0.1,0.1,0.1,0.3,0.2c0.1,0,0.3,0.1,0.6,0.2
			c0.5,0.1,0.8,0.2,1,0.3c0.2,0.1,0.3,0.2,0.4,0.4c0.1,0.2,0.2,0.3,0.2,0.6c0,0.2-0.1,0.4-0.2,0.6c-0.1,0.2-0.3,0.3-0.6,0.5
			c-0.2,0.1-0.5,0.2-0.8,0.2c-0.5,0-0.9-0.1-1.2-0.3C380.6,95.1,380.4,94.8,380.3,94.4z"/>
		<path class="st0" d="M384.4,90.9v-0.8h0.7v0.8H384.4z M384.4,95.6v-4h0.7v4H384.4z"/>
		<path class="st0" d="M385.8,93.6c0-0.7,0.2-1.3,0.6-1.6c0.3-0.3,0.7-0.4,1.2-0.4c0.5,0,1,0.2,1.3,0.5c0.3,0.4,0.5,0.8,0.5,1.5
			c0,0.5-0.1,0.9-0.2,1.2c-0.2,0.3-0.4,0.5-0.7,0.7c-0.3,0.2-0.6,0.2-0.9,0.2c-0.5,0-1-0.2-1.3-0.5C386,94.8,385.8,94.3,385.8,93.6z
			 M386.5,93.6c0,0.5,0.1,0.9,0.3,1.1c0.2,0.3,0.5,0.4,0.8,0.4c0.3,0,0.6-0.1,0.8-0.4c0.2-0.3,0.3-0.6,0.3-1.2
			c0-0.5-0.1-0.9-0.3-1.1c-0.2-0.3-0.5-0.4-0.8-0.4c-0.3,0-0.6,0.1-0.8,0.4C386.6,92.7,386.5,93.1,386.5,93.6z"/>
		<path class="st0" d="M390.3,95.6v-4h0.6v0.6c0.3-0.4,0.7-0.7,1.2-0.7c0.2,0,0.5,0,0.7,0.1c0.2,0.1,0.3,0.2,0.4,0.3
			c0.1,0.1,0.2,0.3,0.2,0.5c0,0.1,0,0.3,0,0.7v2.4h-0.7v-2.4c0-0.3,0-0.5-0.1-0.6c-0.1-0.1-0.1-0.2-0.3-0.3
			c-0.1-0.1-0.3-0.1-0.5-0.1c-0.3,0-0.5,0.1-0.7,0.3c-0.2,0.2-0.3,0.5-0.3,1v2.2H390.3z"/>
	</g>
	<path class="st2" d="M402.1,45.8c-0.2,1.8-0.5,3.5-1.1,5.1c-1.4-1.8-4.4-5.4-7.5-6.4c-3.8-1.2-11-0.9-20.7,5.4
		c-5.8,3.7-10.3,3.9-13.1,3.4c-0.6-1.3-1.1-2.7-1.4-4.1c0.6,0.8,2.2,2,6.6,1c6.1-1.4,14.6-9.3,22.1-9.8
		C394.1,40,397.3,41.8,402.1,45.8"/>
	<path class="st2" d="M400.7,52c-0.6,1.5-1.3,2.9-2.1,4.2c-0.7-1.9-2.4-5.6-5.8-7c-4.7-1.9-9.4-1.1-17.7,3.6
		c-5.2,2.9-10.2,3.8-13.3,4c-0.6-0.8-1.1-1.7-1.6-2.7c1.9,0.2,7.1,0.4,11.7-2.5c5.8-3.7,15.2-8.9,22.3-5.6
		C397.4,47.6,399.4,49.9,400.7,52"/>
	<path class="st2" d="M397.9,57.1c-0.8,1.1-1.6,2.1-2.6,3c-0.7-1.8-1.5-3.8-2.4-4.7c-1.8-2-4.9-5.8-16.7,0
		c-6.5,3.3-10.2,4.1-12.2,4.2c-0.7-0.7-1.3-1.5-1.9-2.3c2.6-0.4,7.9-1.2,8.3-1.4c0.5-0.3,20.1-13.8,26.1-1.6
		C397.1,55.4,397.5,56.3,397.9,57.1"/>
	<path class="st2" d="M394.2,61.2c-1.1,1-2.3,1.8-3.6,2.5c-0.3-3.2-1.5-7.3-5.7-7.4c-5.3-0.1-5.5,1.9-10.5,3.8
		c-3.3,1.2-5.9,1.8-7.4,2.1c-0.8-0.6-1.5-1.2-2.2-1.9c2.2-0.5,7.4-1.6,8.1-1.9c0.9-0.4,13.2-9.2,19-2.5
		C393.6,57.9,394.2,59.7,394.2,61.2"/>
	<path class="st2" d="M388.4,64.8c-2.6,1.1-5.5,1.7-8.5,1.7c-4.4,0-8.4-1.3-11.8-3.5c2.3-0.7,6.8-2.1,8-2.7
		c1.7-0.7,7.5-4.8,11.4-1.5C389.3,60.3,389.1,62.6,388.4,64.8"/>
	<rect x="378.4" y="37.3" class="st0" width="3.1" height="26.9"/>
	<path class="st0" d="M381.9,34.4c0,1.1-0.9,2-2,2c-1.1,0-2-0.9-2-2c0-1.1,0.9-2,2-2C381,32.4,381.9,33.3,381.9,34.4"/>
	<path class="st0" d="M379.9,39c-6.8,0-12.3,5.5-12.3,12.3c0,6.8,5.5,12.3,12.3,12.3c6.8,0,12.3-5.5,12.3-12.3
		C392.2,44.5,386.7,39,379.9,39 M380,60.1c-5.5,0-9.9-4.4-9.9-9.8s4.4-9.8,9.9-9.8s9.9,4.4,9.9,9.8S385.5,60.1,380,60.1"/>
	<path class="st0" d="M400.3,52.7c-3.3,8.1-11.2,13.7-20.4,13.7c-9.2,0-17.1-5.7-20.4-13.7h4.2c2.7,7.1,8.9,12.1,16.1,12.1
		c7.2,0,13.4-5,16.1-12.1H400.3z"/>
</g>
<g>
	<g>
		<g>
			<path class="st0" d="M645.2,24.7v10.7h-1.4V24.7H645.2z"/>
			<path class="st0" d="M647.7,29.8c0-0.8,0-1.4-0.1-2.1h1.2l0.1,1.3h0c0.4-0.7,1.3-1.4,2.5-1.4c1.1,0,2.7,0.6,2.7,3.3v4.6h-1.4V31
				c0-1.2-0.5-2.3-1.8-2.3c-0.9,0-1.6,0.7-1.9,1.4c-0.1,0.2-0.1,0.4-0.1,0.7v4.6h-1.4V29.8z"/>
			<path class="st0" d="M658.2,25.5v2.2h2v1.1h-2v4.2c0,1,0.3,1.5,1,1.5c0.4,0,0.6,0,0.8-0.1l0.1,1c-0.3,0.1-0.7,0.2-1.2,0.2
				c-0.7,0-1.2-0.2-1.5-0.6c-0.4-0.4-0.5-1.1-0.5-2v-4.2h-1.2v-1.1h1.2v-1.8L658.2,25.5z"/>
			<path class="st0" d="M662.4,31.8c0,1.9,1.2,2.7,2.6,2.7c1,0,1.6-0.2,2.1-0.4l0.2,1c-0.5,0.2-1.3,0.5-2.6,0.5
				c-2.4,0-3.8-1.6-3.8-3.9c0-2.3,1.4-4.2,3.6-4.2c2.5,0,3.2,2.2,3.2,3.6c0,0.3,0,0.5,0,0.7H662.4z M666.5,30.8
				c0-0.9-0.4-2.3-1.9-2.3c-1.4,0-2,1.3-2.1,2.3H666.5z"/>
			<path class="st0" d="M669.6,30.1c0-0.9,0-1.7-0.1-2.4h1.2l0,1.5h0.1c0.3-1,1.2-1.7,2.1-1.7c0.2,0,0.3,0,0.4,0v1.3
				c-0.1,0-0.3,0-0.5,0c-1,0-1.7,0.7-1.9,1.8c0,0.2-0.1,0.4-0.1,0.7v4.1h-1.4V30.1z"/>
			<path class="st0" d="M674.9,29.8c0-0.8,0-1.4-0.1-2.1h1.2l0.1,1.3h0c0.4-0.7,1.3-1.4,2.5-1.4c1.1,0,2.7,0.6,2.7,3.3v4.6H680V31
				c0-1.2-0.5-2.3-1.8-2.3c-0.9,0-1.6,0.7-1.9,1.4c-0.1,0.2-0.1,0.4-0.1,0.7v4.6h-1.4V29.8z"/>
			<path class="st0" d="M688,35.4l-0.1-1h0c-0.4,0.6-1.3,1.1-2.4,1.1c-1.6,0-2.4-1.1-2.4-2.2c0-1.9,1.7-2.9,4.6-2.9v-0.2
				c0-0.6-0.2-1.8-1.7-1.8c-0.7,0-1.5,0.2-2,0.6l-0.3-0.9c0.6-0.4,1.6-0.7,2.5-0.7c2.4,0,2.9,1.6,2.9,3.1v2.9c0,0.7,0,1.3,0.1,1.8
				H688z M687.7,31.5c-1.5,0-3.3,0.2-3.3,1.7c0,0.9,0.6,1.3,1.3,1.3c1,0,1.6-0.6,1.9-1.3c0-0.1,0.1-0.3,0.1-0.4V31.5z"/>
			<path class="st0" d="M693,25.5v2.2h2v1.1h-2v4.2c0,1,0.3,1.5,1,1.5c0.4,0,0.6,0,0.8-0.1l0.1,1c-0.3,0.1-0.7,0.2-1.2,0.2
				c-0.7,0-1.2-0.2-1.5-0.6c-0.4-0.4-0.5-1.1-0.5-2v-4.2h-1.2v-1.1h1.2v-1.8L693,25.5z"/>
			<path class="st0" d="M698.1,25.6c0,0.5-0.3,0.9-0.9,0.9c-0.5,0-0.8-0.4-0.8-0.9c0-0.5,0.4-0.9,0.9-0.9
				C697.8,24.7,698.1,25.1,698.1,25.6z M696.6,35.4v-7.7h1.4v7.7H696.6z"/>
			<path class="st0" d="M707.2,31.5c0,2.8-2,4.1-3.8,4.1c-2.1,0-3.7-1.5-3.7-4c0-2.6,1.7-4.1,3.8-4.1
				C705.7,27.5,707.2,29.1,707.2,31.5z M701.1,31.6c0,1.7,1,3,2.3,3c1.3,0,2.3-1.3,2.3-3c0-1.3-0.7-3-2.3-3
				C701.8,28.6,701.1,30.1,701.1,31.6z"/>
			<path class="st0" d="M709,29.8c0-0.8,0-1.4-0.1-2.1h1.2l0.1,1.3h0c0.4-0.7,1.3-1.4,2.5-1.4c1.1,0,2.7,0.6,2.7,3.3v4.6h-1.4V31
				c0-1.2-0.5-2.3-1.8-2.3c-0.9,0-1.6,0.7-1.9,1.4c-0.1,0.2-0.1,0.4-0.1,0.7v4.6H709V29.8z"/>
			<path class="st0" d="M722.1,35.4l-0.1-1h0c-0.4,0.6-1.3,1.1-2.4,1.1c-1.6,0-2.4-1.1-2.4-2.2c0-1.9,1.7-2.9,4.6-2.9v-0.2
				c0-0.6-0.2-1.8-1.7-1.8c-0.7,0-1.5,0.2-2,0.6l-0.3-0.9c0.6-0.4,1.6-0.7,2.5-0.7c2.4,0,2.9,1.6,2.9,3.1v2.9c0,0.7,0,1.3,0.1,1.8
				H722.1z M721.9,31.5c-1.5,0-3.3,0.2-3.3,1.7c0,0.9,0.6,1.3,1.3,1.3c1,0,1.6-0.6,1.9-1.3c0-0.1,0.1-0.3,0.1-0.4V31.5z"/>
			<path class="st0" d="M725.5,24.1h1.4v11.3h-1.4V24.1z"/>
		</g>
		<g>
			<path class="st0" d="M653,48c0,3.7-2.2,5.6-5,5.6c-2.8,0-4.8-2.2-4.8-5.4c0-3.4,2.1-5.6,5-5.6C651.1,42.6,653,44.8,653,48z
				 M644.6,48.2c0,2.3,1.2,4.3,3.4,4.3c2.2,0,3.4-2,3.4-4.5c0-2.1-1.1-4.4-3.4-4.4C645.8,43.7,644.6,45.8,644.6,48.2z"/>
			<path class="st0" d="M660.3,53.2c-0.4,0.2-1.2,0.4-2.2,0.4c-2.3,0-3.8-1.6-3.8-3.9c0-2.4,1.6-4.1,4.1-4.1c0.8,0,1.6,0.2,1.9,0.4
				l-0.3,1.1c-0.3-0.2-0.9-0.4-1.6-0.4c-1.8,0-2.7,1.3-2.7,2.9c0,1.8,1.1,2.9,2.7,2.9c0.8,0,1.3-0.2,1.7-0.4L660.3,53.2z"/>
			<path class="st0" d="M662.6,49.9c0,1.9,1.2,2.7,2.6,2.7c1,0,1.6-0.2,2.1-0.4l0.2,1c-0.5,0.2-1.3,0.5-2.6,0.5
				c-2.4,0-3.8-1.6-3.8-3.9c0-2.3,1.4-4.2,3.6-4.2c2.5,0,3.2,2.2,3.2,3.6c0,0.3,0,0.5,0,0.7H662.6z M666.7,48.9
				c0-0.9-0.4-2.3-1.9-2.3c-1.4,0-2,1.3-2.1,2.3H666.7z"/>
			<path class="st0" d="M674,53.5l-0.1-1h0c-0.4,0.6-1.3,1.1-2.4,1.1c-1.6,0-2.4-1.1-2.4-2.2c0-1.9,1.7-2.9,4.6-2.9v-0.2
				c0-0.6-0.2-1.8-1.7-1.8c-0.7,0-1.5,0.2-2,0.6l-0.3-0.9c0.6-0.4,1.6-0.7,2.5-0.7c2.4,0,2.9,1.6,2.9,3.1v2.9c0,0.7,0,1.3,0.1,1.8
				H674z M673.8,49.5c-1.5,0-3.3,0.2-3.3,1.7c0,0.9,0.6,1.3,1.3,1.3c1,0,1.6-0.6,1.9-1.3c0-0.1,0.1-0.3,0.1-0.4V49.5z"/>
			<path class="st0" d="M677.4,47.9c0-0.8,0-1.4-0.1-2.1h1.2l0.1,1.3h0c0.4-0.7,1.3-1.4,2.5-1.4c1.1,0,2.7,0.6,2.7,3.3v4.6h-1.4V49
				c0-1.2-0.5-2.3-1.8-2.3c-0.9,0-1.6,0.7-1.9,1.4c-0.1,0.2-0.1,0.4-0.1,0.7v4.6h-1.4V47.9z"/>
			<path class="st0" d="M693.2,49.6c0,2.8-2,4.1-3.8,4.1c-2.1,0-3.7-1.5-3.7-4c0-2.6,1.7-4.1,3.8-4.1
				C691.7,45.6,693.2,47.2,693.2,49.6z M687.1,49.6c0,1.7,1,3,2.3,3c1.3,0,2.3-1.3,2.3-3c0-1.3-0.7-3-2.3-3
				C687.8,46.6,687.1,48.2,687.1,49.6z"/>
			<path class="st0" d="M701.6,45.8c0,0.6-0.1,1.2-0.1,2.1v4.5c0,1.8-0.3,2.8-1.1,3.5c-0.7,0.7-1.8,0.9-2.8,0.9
				c-0.9,0-1.9-0.2-2.6-0.6l0.3-1.1c0.5,0.3,1.3,0.6,2.3,0.6c1.4,0,2.5-0.7,2.5-2.7v-0.9h0c-0.4,0.7-1.3,1.3-2.4,1.3
				c-1.9,0-3.3-1.6-3.3-3.8c0-2.6,1.7-4.1,3.5-4.1c1.3,0,2.1,0.7,2.4,1.3h0l0.1-1.2H701.6z M700.2,48.8c0-0.2,0-0.4-0.1-0.6
				c-0.3-0.8-0.9-1.5-2-1.5c-1.3,0-2.3,1.1-2.3,2.9c0,1.5,0.8,2.8,2.3,2.8c0.9,0,1.6-0.5,1.9-1.4c0.1-0.2,0.1-0.5,0.1-0.7V48.8z"/>
			<path class="st0" d="M703.8,48.2c0-0.9,0-1.7-0.1-2.4h1.2l0,1.5h0.1c0.3-1,1.2-1.7,2.1-1.7c0.2,0,0.3,0,0.4,0V47
				c-0.1,0-0.3,0-0.5,0c-1,0-1.7,0.7-1.9,1.8c0,0.2-0.1,0.4-0.1,0.7v4.1h-1.4V48.2z"/>
			<path class="st0" d="M713.2,53.5l-0.1-1h0c-0.4,0.6-1.3,1.1-2.4,1.1c-1.6,0-2.4-1.1-2.4-2.2c0-1.9,1.7-2.9,4.6-2.9v-0.2
				c0-0.6-0.2-1.8-1.7-1.8c-0.7,0-1.5,0.2-2,0.6l-0.3-0.9c0.6-0.4,1.6-0.7,2.5-0.7c2.4,0,2.9,1.6,2.9,3.1v2.9c0,0.7,0,1.3,0.1,1.8
				H713.2z M713,49.5c-1.5,0-3.3,0.2-3.3,1.7c0,0.9,0.6,1.3,1.3,1.3c1,0,1.6-0.6,1.9-1.3c0-0.1,0.1-0.3,0.1-0.4V49.5z"/>
			<path class="st0" d="M716.6,48.3c0-1,0-1.8-0.1-2.5h1.3l0.1,1.3h0c0.6-0.9,1.5-1.5,2.7-1.5c1.9,0,3.3,1.6,3.3,3.9
				c0,2.8-1.7,4.1-3.5,4.1c-1,0-1.9-0.4-2.4-1.2h0v4.2h-1.4V48.3z M718,50.3c0,0.2,0,0.4,0.1,0.6c0.3,1,1.1,1.6,2.1,1.6
				c1.5,0,2.3-1.2,2.3-3c0-1.5-0.8-2.9-2.3-2.9c-1,0-1.8,0.7-2.1,1.7c0,0.2-0.1,0.4-0.1,0.6V50.3z"/>
			<path class="st0" d="M725.6,42.2h1.4V47h0c0.2-0.4,0.6-0.7,1-1c0.4-0.2,0.9-0.4,1.4-0.4c1,0,2.7,0.6,2.7,3.3v4.6h-1.4V49
				c0-1.2-0.5-2.3-1.8-2.3c-0.9,0-1.6,0.6-1.9,1.4c-0.1,0.2-0.1,0.4-0.1,0.7v4.6h-1.4V42.2z"/>
			<path class="st0" d="M736,43.6c0,0.5-0.3,0.9-0.9,0.9c-0.5,0-0.8-0.4-0.8-0.9c0-0.5,0.4-0.9,0.9-0.9
				C735.7,42.7,736,43.1,736,43.6z M734.4,53.5v-7.7h1.4v7.7H734.4z"/>
			<path class="st0" d="M743.7,53.2c-0.4,0.2-1.2,0.4-2.2,0.4c-2.3,0-3.8-1.6-3.8-3.9c0-2.4,1.6-4.1,4.1-4.1c0.8,0,1.6,0.2,1.9,0.4
				l-0.3,1.1c-0.3-0.2-0.9-0.4-1.6-0.4c-1.8,0-2.7,1.3-2.7,2.9c0,1.8,1.1,2.9,2.7,2.9c0.8,0,1.3-0.2,1.7-0.4L743.7,53.2z"/>
		</g>
		<g>
			<path class="st0" d="M643.8,60.9c0.8-0.1,1.8-0.2,2.9-0.2c2,0,3.4,0.5,4.3,1.3c1,0.9,1.5,2.1,1.5,3.8c0,1.7-0.5,3.2-1.5,4.2
				c-1,1-2.7,1.5-4.7,1.5c-1,0-1.8,0-2.5-0.1V60.9z M645.2,70.4c0.3,0.1,0.9,0.1,1.4,0.1c3,0,4.6-1.7,4.6-4.5c0-2.5-1.4-4.1-4.3-4.1
				c-0.7,0-1.3,0.1-1.6,0.1V70.4z"/>
			<path class="st0" d="M658.6,71.5l-0.1-1h0c-0.4,0.6-1.3,1.1-2.4,1.1c-1.6,0-2.4-1.1-2.4-2.2c0-1.9,1.7-2.9,4.6-2.9v-0.2
				c0-0.6-0.2-1.8-1.7-1.8c-0.7,0-1.5,0.2-2,0.6l-0.3-0.9c0.6-0.4,1.6-0.7,2.5-0.7c2.4,0,2.9,1.6,2.9,3.1v2.9c0,0.7,0,1.3,0.1,1.8
				H658.6z M658.4,67.6c-1.5,0-3.3,0.2-3.3,1.7c0,0.9,0.6,1.3,1.3,1.3c1,0,1.6-0.6,1.9-1.3c0-0.1,0.1-0.3,0.1-0.4V67.6z"/>
			<path class="st0" d="M663.6,61.6v2.2h2v1.1h-2V69c0,1,0.3,1.5,1,1.5c0.4,0,0.6,0,0.8-0.1l0.1,1c-0.3,0.1-0.7,0.2-1.2,0.2
				c-0.7,0-1.2-0.2-1.5-0.6c-0.4-0.4-0.5-1.1-0.5-2v-4.2h-1.2v-1.1h1.2V62L663.6,61.6z"/>
			<path class="st0" d="M671.5,71.5l-0.1-1h0c-0.4,0.6-1.3,1.1-2.4,1.1c-1.6,0-2.4-1.1-2.4-2.2c0-1.9,1.7-2.9,4.6-2.9v-0.2
				c0-0.6-0.2-1.8-1.7-1.8c-0.7,0-1.5,0.2-2,0.6l-0.3-0.9c0.6-0.4,1.6-0.7,2.5-0.7c2.4,0,2.9,1.6,2.9,3.1v2.9c0,0.7,0,1.3,0.1,1.8
				H671.5z M671.3,67.6c-1.5,0-3.3,0.2-3.3,1.7c0,0.9,0.6,1.3,1.3,1.3c1,0,1.6-0.6,1.9-1.3c0-0.1,0.1-0.3,0.1-0.4V67.6z"/>
			<path class="st0" d="M682.5,71.5l-0.1-1h0c-0.4,0.6-1.3,1.1-2.4,1.1c-1.6,0-2.4-1.1-2.4-2.2c0-1.9,1.7-2.9,4.6-2.9v-0.2
				c0-0.6-0.2-1.8-1.7-1.8c-0.7,0-1.5,0.2-2,0.6l-0.3-0.9c0.6-0.4,1.6-0.7,2.5-0.7c2.4,0,2.9,1.6,2.9,3.1v2.9c0,0.7,0,1.3,0.1,1.8
				H682.5z M682.3,67.6c-1.5,0-3.3,0.2-3.3,1.7c0,0.9,0.6,1.3,1.3,1.3c1,0,1.6-0.6,1.9-1.3c0-0.1,0.1-0.3,0.1-0.4V67.6z"/>
			<path class="st0" d="M685.9,65.9c0-0.8,0-1.4-0.1-2.1h1.2l0.1,1.3h0c0.4-0.7,1.3-1.4,2.5-1.4c1.1,0,2.7,0.6,2.7,3.3v4.6h-1.4
				v-4.4c0-1.2-0.5-2.3-1.8-2.3c-0.9,0-1.6,0.7-1.9,1.4c-0.1,0.2-0.1,0.4-0.1,0.7v4.6h-1.4V65.9z"/>
			<path class="st0" d="M701.4,60.2v9.3c0,0.7,0,1.5,0.1,2h-1.3l-0.1-1.3h0c-0.4,0.9-1.4,1.5-2.6,1.5c-1.9,0-3.3-1.6-3.3-3.9
				c0-2.6,1.6-4.1,3.5-4.1c1.2,0,2,0.6,2.3,1.2h0v-4.6H701.4z M700,67c0-0.2,0-0.4-0.1-0.6c-0.2-0.9-1-1.6-2-1.6
				c-1.4,0-2.3,1.3-2.3,3c0,1.6,0.8,2.8,2.3,2.8c0.9,0,1.8-0.6,2.1-1.7c0-0.2,0.1-0.4,0.1-0.6V67z"/>
			<path class="st0" d="M708.5,60.8v10.7h-1.4V60.8H708.5z"/>
			<path class="st0" d="M711,65.9c0-0.8,0-1.4-0.1-2.1h1.2l0.1,1.3h0c0.4-0.7,1.3-1.4,2.5-1.4c1.1,0,2.7,0.6,2.7,3.3v4.6h-1.4v-4.4
				c0-1.2-0.5-2.3-1.8-2.3c-0.9,0-1.6,0.7-1.9,1.4c-0.1,0.2-0.1,0.4-0.1,0.7v4.6H711V65.9z"/>
			<path class="st0" d="M720,71.5v-6.6h-1.1v-1.1h1.1v-0.4c0-1.1,0.2-2.1,0.9-2.7c0.5-0.5,1.2-0.7,1.9-0.7c0.5,0,0.9,0.1,1.2,0.2
				l-0.2,1.1c-0.2-0.1-0.5-0.2-0.9-0.2c-1.2,0-1.5,1-1.5,2.2v0.4h1.9v1.1h-1.9v6.6H720z"/>
			<path class="st0" d="M731.2,67.6c0,2.8-2,4.1-3.8,4.1c-2.1,0-3.7-1.5-3.7-4c0-2.6,1.7-4.1,3.8-4.1
				C729.8,63.6,731.2,65.3,731.2,67.6z M725.1,67.7c0,1.7,1,3,2.3,3c1.3,0,2.3-1.3,2.3-3c0-1.3-0.7-3-2.3-3
				C725.9,64.7,725.1,66.2,725.1,67.7z"/>
			<path class="st0" d="M733,66.2c0-0.9,0-1.7-0.1-2.4h1.2l0,1.5h0.1c0.3-1,1.2-1.7,2.1-1.7c0.2,0,0.3,0,0.4,0V65
				c-0.1,0-0.3,0-0.5,0c-1,0-1.7,0.7-1.9,1.8c0,0.2-0.1,0.4-0.1,0.7v4.1H733V66.2z"/>
			<path class="st0" d="M738.3,65.9c0-0.8,0-1.4-0.1-2.1h1.2l0.1,1.2h0c0.4-0.7,1.1-1.4,2.4-1.4c1,0,1.8,0.6,2.2,1.5h0
				c0.2-0.4,0.5-0.8,0.9-1c0.5-0.3,1-0.5,1.7-0.5c1,0,2.5,0.7,2.5,3.3v4.5h-1.4v-4.4c0-1.5-0.5-2.4-1.7-2.4c-0.8,0-1.4,0.6-1.7,1.3
				c-0.1,0.2-0.1,0.4-0.1,0.7v4.8h-1.4v-4.6c0-1.2-0.5-2.1-1.6-2.1c-0.9,0-1.5,0.7-1.7,1.4c-0.1,0.2-0.1,0.4-0.1,0.7v4.6h-1.4V65.9z
				"/>
			<path class="st0" d="M755.8,71.5l-0.1-1h0c-0.4,0.6-1.3,1.1-2.4,1.1c-1.6,0-2.4-1.1-2.4-2.2c0-1.9,1.7-2.9,4.6-2.9v-0.2
				c0-0.6-0.2-1.8-1.7-1.8c-0.7,0-1.5,0.2-2,0.6l-0.3-0.9c0.6-0.4,1.6-0.7,2.5-0.7c2.4,0,2.9,1.6,2.9,3.1v2.9c0,0.7,0,1.3,0.1,1.8
				H755.8z M755.6,67.6c-1.5,0-3.3,0.2-3.3,1.7c0,0.9,0.6,1.3,1.3,1.3c1,0,1.6-0.6,1.9-1.3c0-0.1,0.1-0.3,0.1-0.4V67.6z"/>
			<path class="st0" d="M760.8,61.6v2.2h2v1.1h-2V69c0,1,0.3,1.5,1,1.5c0.4,0,0.6,0,0.8-0.1l0.1,1c-0.3,0.1-0.7,0.2-1.2,0.2
				c-0.7,0-1.2-0.2-1.5-0.6c-0.4-0.4-0.5-1.1-0.5-2v-4.2h-1.2v-1.1h1.2V62L760.8,61.6z"/>
			<path class="st0" d="M766,61.7c0,0.5-0.3,0.9-0.9,0.9c-0.5,0-0.8-0.4-0.8-0.9c0-0.5,0.4-0.9,0.9-0.9
				C765.6,60.8,766,61.2,766,61.7z M764.4,71.5v-7.7h1.4v7.7H764.4z"/>
			<path class="st0" d="M775.1,67.6c0,2.8-2,4.1-3.8,4.1c-2.1,0-3.7-1.5-3.7-4c0-2.6,1.7-4.1,3.8-4.1
				C773.6,63.6,775.1,65.3,775.1,67.6z M769,67.7c0,1.7,1,3,2.3,3c1.3,0,2.3-1.3,2.3-3c0-1.3-0.7-3-2.3-3
				C769.7,64.7,769,66.2,769,67.7z"/>
			<path class="st0" d="M776.9,65.9c0-0.8,0-1.4-0.1-2.1h1.2l0.1,1.3h0c0.4-0.7,1.3-1.4,2.5-1.4c1.1,0,2.7,0.6,2.7,3.3v4.6H782v-4.4
				c0-1.2-0.5-2.3-1.8-2.3c-0.9,0-1.6,0.7-1.9,1.4c-0.1,0.2-0.1,0.4-0.1,0.7v4.6h-1.4V65.9z"/>
		</g>
		<g>
			<path class="st0" d="M649.3,84.5h-4.2v3.9h4.6v1.2h-6V78.9h5.8V80h-4.4v3.4h4.2V84.5z"/>
			<path class="st0" d="M652.2,81.9l1.1,1.7c0.3,0.4,0.5,0.8,0.8,1.3h0c0.3-0.5,0.5-0.9,0.8-1.3l1.1-1.6h1.5l-2.6,3.7l2.7,4H656
				l-1.1-1.7c-0.3-0.4-0.6-0.9-0.8-1.3h0c-0.3,0.5-0.5,0.9-0.8,1.3l-1.1,1.7h-1.5l2.7-3.9l-2.6-3.8H652.2z"/>
			<path class="st0" d="M664.2,89.3c-0.4,0.2-1.2,0.4-2.2,0.4c-2.3,0-3.8-1.6-3.8-3.9c0-2.4,1.6-4.1,4.1-4.1c0.8,0,1.6,0.2,1.9,0.4
				l-0.3,1.1c-0.3-0.2-0.9-0.4-1.6-0.4c-1.8,0-2.7,1.3-2.7,2.9c0,1.8,1.1,2.9,2.7,2.9c0.8,0,1.3-0.2,1.7-0.4L664.2,89.3z"/>
			<path class="st0" d="M665.8,78.3h1.4v4.8h0c0.2-0.4,0.6-0.7,1-1c0.4-0.2,0.9-0.4,1.4-0.4c1,0,2.7,0.6,2.7,3.3v4.6H671v-4.4
				c0-1.2-0.5-2.3-1.8-2.3c-0.9,0-1.6,0.6-1.9,1.4c-0.1,0.2-0.1,0.4-0.1,0.7v4.6h-1.4V78.3z"/>
			<path class="st0" d="M678.9,89.6l-0.1-1h0c-0.4,0.6-1.3,1.1-2.4,1.1c-1.6,0-2.4-1.1-2.4-2.2c0-1.9,1.7-2.9,4.6-2.9v-0.2
				c0-0.6-0.2-1.8-1.7-1.8c-0.7,0-1.5,0.2-2,0.6l-0.3-0.9c0.6-0.4,1.6-0.7,2.5-0.7c2.4,0,2.9,1.6,2.9,3.1v2.9c0,0.7,0,1.3,0.1,1.8
				H678.9z M678.7,85.6c-1.5,0-3.3,0.2-3.3,1.7c0,0.9,0.6,1.3,1.3,1.3c1,0,1.6-0.6,1.9-1.3c0-0.1,0.1-0.3,0.1-0.4V85.6z"/>
			<path class="st0" d="M682.3,84c0-0.8,0-1.4-0.1-2.1h1.2l0.1,1.3h0c0.4-0.7,1.3-1.4,2.5-1.4c1.1,0,2.7,0.6,2.7,3.3v4.6h-1.4v-4.4
				c0-1.2-0.5-2.3-1.8-2.3c-0.9,0-1.6,0.7-1.9,1.4c-0.1,0.2-0.1,0.4-0.1,0.7v4.6h-1.4V84z"/>
			<path class="st0" d="M697.8,81.9c0,0.6-0.1,1.2-0.1,2.1v4.5c0,1.8-0.3,2.8-1.1,3.5c-0.7,0.7-1.8,0.9-2.8,0.9
				c-0.9,0-1.9-0.2-2.6-0.6l0.3-1.1c0.5,0.3,1.3,0.6,2.3,0.6c1.4,0,2.5-0.7,2.5-2.7v-0.9h0c-0.4,0.7-1.3,1.3-2.4,1.3
				c-1.9,0-3.3-1.6-3.3-3.8c0-2.6,1.7-4.1,3.5-4.1c1.3,0,2.1,0.7,2.4,1.3h0l0.1-1.2H697.8z M696.3,84.9c0-0.2,0-0.4-0.1-0.6
				c-0.3-0.8-0.9-1.5-2-1.5c-1.3,0-2.3,1.1-2.3,2.9c0,1.5,0.8,2.8,2.3,2.8c0.9,0,1.6-0.5,1.9-1.4c0.1-0.2,0.1-0.5,0.1-0.7V84.9z"/>
			<path class="st0" d="M700.8,86c0,1.9,1.2,2.7,2.6,2.7c1,0,1.6-0.2,2.1-0.4l0.2,1c-0.5,0.2-1.3,0.5-2.6,0.5
				c-2.4,0-3.8-1.6-3.8-3.9c0-2.3,1.4-4.2,3.6-4.2c2.5,0,3.2,2.2,3.2,3.6c0,0.3,0,0.5,0,0.7H700.8z M704.9,85c0-0.9-0.4-2.3-1.9-2.3
				c-1.4,0-2,1.3-2.1,2.3H704.9z"/>
		</g>
	</g>
	<path class="st3" d="M529.4,57.6c0,19.3-15.6,34.9-34.9,34.9c-15.2,0-28.2-9.8-32.9-23.4c-1.3-3.6-1.9-7.4-1.9-11.4
		c0-19.3,15.6-34.9,34.9-34.9c18.4,0,33.4,14.2,34.8,32.3C529.4,55.9,529.4,56.7,529.4,57.6"/>
	<path class="st4" d="M529.4,57.6c0,19.3-15.6,34.9-34.9,34.9c-19.3,0-34.9-15.6-34.9-34.9s15.6-34.9,34.9-34.9
		C513.8,22.7,529.4,38.3,529.4,57.6"/>
	<path class="st5" d="M529.4,57.6c0,19.3-15.6,34.9-34.9,34.9c-15.2,0-28.2-9.8-32.9-23.4c3.8,0.3,12.8,0.4,22.5-3.6
		c7.9-3.3,10.1-7,17.9-14.1c8.5-7.6,15-6.2,19.3-4.1c2,1,5.6,4,7.9,7.9C529.4,55.9,529.4,56.7,529.4,57.6"/>
	<path class="st5" d="M496.6,45.4v-4.3h-5v4.3c-9.8,1.2-17.4,9.9-17.4,21.2c0,10.1,7.6,18.5,17.4,19.8v1.8h5v-1.7
		c9.9-1.2,17.5-9.6,17.5-19.8C514.2,55.4,506.5,46.6,496.6,45.4 M478.2,64.9c0-7.9,5.8-15.9,13.5-17.1v33.5
		C484,80.1,478.2,72.9,478.2,64.9 M496.6,81.4V47.8c7.8,1.1,14.1,7.5,13.8,17.1C510.1,72.9,504.4,80.3,496.6,81.4"/>
	<path class="st5" d="M527.3,68.4c-4.1,13.7-18.1,23.5-33,23.5c-14.9,0-28-9.5-33-23.5h7.6c3.6,12.1,13.7,21.2,25.3,21.2
		c11.7,0,23.9-9.4,26-21.2H527.3z"/>
	<path class="st0" d="M526.7,68.9c-4.3,13.2-17.6,22.8-32.5,22.8c-14.9,0-27.4-9.8-32.3-22.8h6.8c3.6,12.1,13.9,21,25.6,21
		c11.2,0,23.4-8.6,26.3-21L526.7,68.9z"/>
	<rect x="491.7" y="35.4" class="st5" width="5" height="4.7"/>
	<path class="st0" d="M496.4,45.6v-4.2l-4.5,0v4.3c-9.8,1.2-17.4,9.7-17.4,20.9c0,10.1,7.3,18.1,17.4,19.6v1.7h4.5v-1.7
		c9.9-1.2,17.5-9.4,17.5-19.6C513.9,55.4,506.3,46.8,496.4,45.6 M477.9,64.9c0-7.9,5.8-16.3,14-17.4v34.1
		C483.8,80.5,477.9,72.9,477.9,64.9 M496.4,81.8V47.5c8.2,1,14.5,7.7,14.3,17.1C510.5,72.7,505.5,80.1,496.4,81.8"/>
	<rect x="492" y="35.6" class="st0" width="4.5" height="4.3"/>
	<path class="st6" d="M589.7,54c0-4.1-0.6-8.2-2-12.1c-2.4-6.8-6.4-12.2-13.3-15c-4.3-1.7-8.8-2.5-13.4-2.6c-8.7,0-17.5,0-26.2,0
		c-0.7,0-1.6,0-1.6,0v1.6c0.1,10.4,0,20.9,0,31.3c0,2.5,0,5,0,7.5c0,8,0,16,0,23.9c0,0.4,0,1.5,0,1.5s3.5,0.1,3.9,0
		c10.1-0.2,17.4,0.3,27.4-0.4c4.2-0.3,8.2-1.3,11.9-3.3c7.2-3.9,10.6-10.5,12.4-18.1C590,63.7,589.7,58.8,589.7,54 M571.4,65
		c0,5.9-4.2,10.2-10.2,10.3c-2.8,0-5.7,0-8.5,0c-0.5,0-1.2,0-1.2,0s0-0.7,0-1.2c0-5.7,0-11.3,0-17c0-5.6,0-11.2,0-16.9
		c0-0.5,0-1.3,0-1.3s3.8-0.1,4.3-0.1c0,0,4.3,0,7.4,0.4c5.3,1,8.2,4.7,8.2,10.1V65z"/>
	<path class="st6" d="M595.7,57.2c0-10.5,0-21,0-31.5c0-0.6,0-1.4,0-1.4s0.8,0,1.4,0c11.4,0,22.8,0,34.1,0c0.5,0,1.4,0,1.4,0
		s0,0.7,0,1.3c-0.1,3.7-0.1,7.4,0,11.1c0,0.6,0,1.5,0,1.5s-0.9,0-1.5,0c-5.2-0.1-10.5,0-15.7-0.1c-0.5,0-1.4,0-1.4,0s0,0.8,0,1.4
		c0.1,2.7,0.1,5.5,0,8.2c0,0.5,0,1.3,0,1.3s0.8,0,1.3,0c5.3,0,10.6,0,15.9,0c0.5,0,1.5,0,1.5,0s0,0.8,0,1.4c-0.1,3.7-0.1,7.4,0,11
		c0,0.5,0,1.4,0,1.4s-0.8,0-1.5,0c-5.2,0-10.5,0-15.7,0c-0.6,0-1.4,0-1.4,0l0,13.5c0,0,12,0,17.3,0c0.5,0,1.4,0,1.4,0s0,0.8,0,1.4
		c-0.1,3.7-0.1,7.5,0,11.2c0,0.5,0,1.3,0,1.3s-0.8,0-1.3,0c-11.4,0-22.9,0-34.3,0c-0.5,0-1.4,0-1.4,0s0-0.9,0-1.5
		C595.7,78.1,595.7,67.7,595.7,57.2"/>
	<rect x="435.3" y="24.3" class="st6" width="20.1" height="65.5"/>
</g>
</svg>
