<?xml version="1.0" encoding="utf-8"?>
<!-- Generator: Adobe Illustrator 23.0.1, SVG Export Plug-In . SVG Version: 6.00 Build 0)  -->
<svg version="1.1" id="Capa_1" xmlns="http://www.w3.org/2000/svg" xmlns:xlink="http://www.w3.org/1999/xlink" x="0px" y="0px"
	 viewBox="0 0 360.7 69" style="enable-background:new 0 0 360.7 69;" xml:space="preserve">
<style type="text/css">
	.st0{fill:url(#Rectangle_346_1_);}
	.st1{fill:url(#Path_33_1_);}
	.st2{fill:url(#Path_34_1_);}
	.st3{fill:none;}
	.st4{fill:#0E4369;}
</style>
<g id="Group_2" transform="translate(-293 -78)">
	<g id="Group_1" transform="translate(293 78)">
		
			<linearGradient id="Rectangle_346_1_" gradientUnits="userSpaceOnUse" x1="-535.5706" y1="-41.6884" x2="-535.5706" y2="-42.6884" gradientTransform="matrix(68.605 0 0 68.602 36777.125 2928.5078)">
			<stop  offset="1.100000e-02" style="stop-color:#FFFFFF"/>
			<stop  offset="0.159" style="stop-color:#D0E0F2"/>
			<stop  offset="1" style="stop-color:#5482BD"/>
		</linearGradient>
		<rect id="Rectangle_346" class="st0" width="68.6" height="68.6"/>
		
			<linearGradient id="Path_33_1_" gradientUnits="userSpaceOnUse" x1="-535.5701" y1="-40.1703" x2="-535.5701" y2="-39.17" gradientTransform="matrix(68.6 0 0 56.1096 36774.4062 2266.8132)">
			<stop  offset="0" style="stop-color:#003558"/>
			<stop  offset="0.412" style="stop-color:#184E76"/>
			<stop  offset="0.919" style="stop-color:#B3C5D4"/>
		</linearGradient>
		<path id="Path_33" class="st1" d="M68.6,55.5V69H0V29.1c8.9-5.6,20-19.3,32.2-15.6c10.9,3.3,9.6,11.4,9.6,11.4S31,15.3,24.4,29.6
			c-2,4.4-0.4,9,3.5,13c4.1,4.2,10.7,7.9,18,10.3C53.3,55.3,61,56.3,68.6,55.5z"/>
		
			<linearGradient id="Path_34_1_" gradientUnits="userSpaceOnUse" x1="-535.5701" y1="-34.1348" x2="-535.5701" y2="-33.1343" gradientTransform="matrix(68.6 0 0 39.0638 36774.4062 1363.3514)">
			<stop  offset="0" style="stop-color:#071942"/>
			<stop  offset="0.459" style="stop-color:#1C2F5D"/>
			<stop  offset="0.919" style="stop-color:#2E4173"/>
		</linearGradient>
		<path id="Path_34" class="st2" d="M68.6,64.3V69H0V46.6c7.2,2.7,15.4,3.9,22.1-0.3c1.6-1,3.6-2.4,5.9-4c12.2-8.5,32-21.8,37.3-2.3
			c0.1,0.2-0.1,0.5-0.3,0.5c-0.1,0-0.3,0-0.4-0.1c-1.7-1.5-3.9-2.5-6.2-2.7C53.8,37.5,47.3,40.4,46,50c-0.1,0.9-0.1,1.8,0,2.7
			C46.9,60.9,57.9,63.6,68.6,64.3z"/>
		<path id="Path_35" class="st3" d="M68.6,55.5V69H0V29.1c8.9-5.6,20-19.3,32.2-15.6c10.9,3.3,9.6,11.4,9.6,11.4S31,15.3,24.4,29.6
			c-2,4.4-0.4,9,3.5,13c12.2-8.4,32-21.6,37.3-2.3c0.1,0.2-0.1,0.5-0.3,0.5c-0.1,0-0.3,0-0.4-0.1c-1.7-1.5-3.9-2.5-6.2-2.6
			c-4.6-0.3-11.1,2.5-12.4,12.1c-0.1,0.9-0.1,1.8,0,2.7C53.3,55.3,61,56.3,68.6,55.5z"/>
	</g>
	<g>
		<path class="st4" d="M384.3,113.1c0-1.9,0.3-3.7,1-5.5c0.7-1.8,1.7-3.4,3-4.9c1.3-1.4,2.9-2.6,4.8-3.5c1.9-0.9,4.1-1.3,6.5-1.3
			c2.9,0,5.3,0.6,7.4,1.8c2.1,1.2,3.6,2.8,4.7,4.8l-4.6,3.1c-0.4-0.9-0.9-1.6-1.5-2.2c-0.6-0.6-1.2-1.1-1.9-1.4
			c-0.7-0.3-1.4-0.6-2.1-0.8c-0.7-0.2-1.4-0.2-2.1-0.2c-1.5,0-2.8,0.3-4,0.9c-1.1,0.6-2.1,1.4-2.8,2.3c-0.7,1-1.3,2.1-1.7,3.3
			c-0.4,1.2-0.6,2.4-0.6,3.6c0,1.3,0.2,2.6,0.7,3.9c0.4,1.2,1.1,2.3,1.9,3.3c0.8,0.9,1.8,1.7,2.9,2.3c1.1,0.6,2.4,0.9,3.7,0.9
			c0.7,0,1.4-0.1,2.2-0.3c0.8-0.2,1.5-0.4,2.2-0.8c0.7-0.4,1.3-0.9,1.9-1.4c0.6-0.6,1.1-1.3,1.4-2.1l5,2.8c-0.5,1.1-1.2,2.2-2.1,3
			c-0.9,0.9-2,1.6-3.1,2.2c-1.2,0.6-2.4,1.1-3.7,1.4s-2.6,0.5-3.9,0.5c-2.2,0-4.3-0.5-6.1-1.4c-1.8-0.9-3.4-2.1-4.8-3.6
			c-1.3-1.5-2.4-3.2-3.1-5S384.3,115.1,384.3,113.1z"/>
		<path class="st4" d="M442.5,98.1v30.5h-6v-13h-14.1v13h-6.1V98.1h6.1v12.3h14.1V98.1H442.5z"/>
		<path class="st4" d="M474.4,128.6v-20.2l-8,15h-3.3l-8-15v20.2H449V98.1h6.5l9.2,17.4l9.3-17.4h6.4v30.5H474.4z"/>
		<path class="st4" d="M497.4,128.6V98.1h6.1v25.3h15.9v5.2H497.4z"/>
		<path class="st4" d="M531.9,98.1h5.4l11.8,30.5h-6.2L540,121h-10.9l-2.9,7.6H520L531.9,98.1z M538.9,116.8l-4.3-12l-4.5,12H538.9z
			"/>
		<path class="st4" d="M549.5,113.1c0-1.9,0.3-3.7,1-5.5c0.7-1.8,1.7-3.4,3-4.9c1.3-1.4,2.9-2.6,4.8-3.5c1.9-0.9,4.1-1.3,6.5-1.3
			c2.9,0,5.3,0.6,7.4,1.8s3.6,2.8,4.7,4.8l-4.6,3.1c-0.4-0.9-0.9-1.6-1.5-2.2c-0.6-0.6-1.2-1.1-1.9-1.4c-0.7-0.3-1.4-0.6-2.1-0.8
			c-0.7-0.2-1.4-0.2-2.1-0.2c-1.5,0-2.8,0.3-4,0.9c-1.1,0.6-2.1,1.4-2.8,2.3c-0.7,1-1.3,2.1-1.7,3.3c-0.4,1.2-0.6,2.4-0.6,3.6
			c0,1.3,0.2,2.6,0.7,3.9c0.4,1.2,1.1,2.3,1.9,3.3c0.8,0.9,1.8,1.7,2.9,2.3c1.1,0.6,2.4,0.9,3.7,0.9c0.7,0,1.4-0.1,2.2-0.3
			c0.8-0.2,1.5-0.4,2.2-0.8c0.7-0.4,1.3-0.9,1.9-1.4c0.6-0.6,1.1-1.3,1.4-2.1l5,2.8c-0.5,1.1-1.2,2.2-2.1,3c-0.9,0.9-2,1.6-3.1,2.2
			c-1.2,0.6-2.4,1.1-3.7,1.4c-1.3,0.3-2.6,0.5-3.9,0.5c-2.2,0-4.3-0.5-6.1-1.4c-1.8-0.9-3.4-2.1-4.8-3.6c-1.3-1.5-2.4-3.2-3.1-5
			C549.9,117,549.5,115.1,549.5,113.1z"/>
	</g>
</g>
</svg>
